<?xml version="1.0" encoding="UTF-8"?>
<!DOCTYPE svg PUBLIC '-//W3C//DTD SVG 1.0//EN'
          'http://www.w3.org/TR/2001/REC-SVG-20010904/DTD/svg10.dtd'>
<svg fill-opacity="0" xmlns:xlink="http://www.w3.org/1999/xlink" color-rendering="auto" color-interpolation="auto" text-rendering="auto" stroke="rgb(0,0,0)" stroke-linecap="square" width="446" stroke-miterlimit="10" shape-rendering="auto" stroke-opacity="0" fill="rgb(0,0,0)" stroke-dasharray="none" font-weight="normal" stroke-width="1" height="197" xmlns="http://www.w3.org/2000/svg" font-family="'Dialog'" font-style="normal" stroke-linejoin="miter" font-size="12px" stroke-dashoffset="0" image-rendering="auto"
><!--Generated by the Batik Graphics2D SVG Generator--><defs id="genericDefs"
  /><g
  ><defs id="defs1"
    ><clipPath clipPathUnits="userSpaceOnUse" id="clipPath1"
      ><path d="M-7 -7 L139 -7 L139 61 L-7 61 L-7 -7 Z"
      /></clipPath
      ><clipPath clipPathUnits="userSpaceOnUse" id="clipPath2"
      ><path d="M0 0 L0 35 L128 35 L128 0 Z"
      /></clipPath
      ><clipPath clipPathUnits="userSpaceOnUse" id="clipPath3"
      ><path d="M0 0 L0 15 L128 15 L128 0 Z"
      /></clipPath
      ><clipPath clipPathUnits="userSpaceOnUse" id="clipPath4"
      ><path d="M-7 -7 L139 -7 L139 79 L-7 79 L-7 -7 Z"
      /></clipPath
      ><clipPath clipPathUnits="userSpaceOnUse" id="clipPath5"
      ><path d="M0 0 L0 53 L128 53 L128 0 Z"
      /></clipPath
      ><clipPath clipPathUnits="userSpaceOnUse" id="clipPath6"
      ><path d="M-7 -7 L91 -7 L91 51 L-7 51 L-7 -7 Z"
      /></clipPath
      ><clipPath clipPathUnits="userSpaceOnUse" id="clipPath7"
      ><path d="M0 0 L0 25 L80 25 L80 0 Z"
      /></clipPath
      ><clipPath clipPathUnits="userSpaceOnUse" id="clipPath8"
      ><path d="M0 0 L0 15 L80 15 L80 0 Z"
      /></clipPath
      ><clipPath clipPathUnits="userSpaceOnUse" id="clipPath9"
      ><path d="M0 0 L137 0 L137 184 L0 184 L0 0 Z"
      /></clipPath
      ><clipPath clipPathUnits="userSpaceOnUse" id="clipPath10"
      ><path d="M62 78 L62 93 L10 93 L10 78 ZM99 159 L99 174 L44 174 L44 159 ZM0 0 L0 184 L137 184 L137 0 Z"
      /></clipPath
      ><clipPath clipPathUnits="userSpaceOnUse" id="clipPath11"
      ><path d="M0 0 L104 0 L104 189 L0 189 L0 0 Z"
      /></clipPath
      ><clipPath clipPathUnits="userSpaceOnUse" id="clipPath12"
      ><path d="M103 85 L103 100 L51 100 L51 85 ZM0 0 L0 159 L8 159 L8 174 L0 174 L0 189 L104 189 L104 0 Z"
      /></clipPath
      ><clipPath clipPathUnits="userSpaceOnUse" id="clipPath13"
      ><path d="M0 0 L126 0 L126 175 L0 175 L0 0 Z"
      /></clipPath
      ><clipPath clipPathUnits="userSpaceOnUse" id="clipPath14"
      ><path d="M116 68 L116 83 L64 83 L64 68 ZM0 0 L0 85 L32 85 L32 100 L0 100 L0 175 L126 175 L126 0 Z"
      /></clipPath
      ><clipPath clipPathUnits="userSpaceOnUse" id="clipPath15"
      ><path d="M0 0 L154 0 L154 104 L0 104 L0 0 Z"
      /></clipPath
      ><clipPath clipPathUnits="userSpaceOnUse" id="clipPath16"
      ><path d="M98 56 L98 71 L43 71 L43 56 ZM0 0 L0 104 L154 104 L154 0 Z"
      /></clipPath
      ><clipPath clipPathUnits="userSpaceOnUse" id="clipPath17"
      ><path d="M0 0 L155 0 L155 104 L0 104 L0 0 Z"
      /></clipPath
      ><clipPath clipPathUnits="userSpaceOnUse" id="clipPath18"
      ><path d="M0 0 L0 104 L155 104 L155 0 Z"
      /></clipPath
      ><clipPath clipPathUnits="userSpaceOnUse" id="clipPath19"
      ><path d="M-55 -15 L110 -15 L110 30 L-55 30 L-55 -15 Z"
      /></clipPath
      ><clipPath clipPathUnits="userSpaceOnUse" id="clipPath20"
      ><path d="M-52 -15 L104 -15 L104 30 L-52 30 L-52 -15 Z"
      /></clipPath
    ></defs
    ><g fill="white" text-rendering="geometricPrecision" fill-opacity="1" stroke-opacity="1" stroke="white"
    ><rect x="0" width="446" height="197" y="0" stroke="none"
    /></g
    ><g font-size="11px" transform="translate(164,2)" fill-opacity="0.6" fill="rgb(192,192,192)" text-rendering="geometricPrecision" image-rendering="optimizeQuality" font-family="sans-serif" stroke="rgb(192,192,192)" font-weight="bold" stroke-opacity="0.6"
    ><rect x="0" width="128" height="50" y="0" clip-path="url(#clipPath1)" stroke="none"
    /></g
    ><g fill-opacity="1" text-rendering="geometricPrecision" stroke="black" stroke-linecap="butt" transform="translate(164,2)" stroke-miterlimit="0" stroke-opacity="1" fill="black" font-weight="bold" font-family="sans-serif" stroke-linejoin="round" font-size="11px" image-rendering="optimizeQuality"
    ><rect fill="none" x="0" width="128" height="50" y="0" clip-path="url(#clipPath1)"
      /><line y2="15" fill="none" x1="0" clip-path="url(#clipPath1)" x2="128" y1="15"
    /></g
    ><g font-size="11px" transform="translate(164,2)" fill-opacity="1" fill="black" text-rendering="geometricPrecision" image-rendering="optimizeQuality" font-family="sans-serif" stroke="black" font-weight="bold" stroke-opacity="1"
    ><text x="15" xml:space="preserve" y="12" clip-path="url(#clipPath3)" stroke="none"
      >CenterCoordinator</text
    ></g
    ><g font-size="11px" transform="translate(2,134)" fill-opacity="0.6" fill="rgb(192,192,192)" text-rendering="geometricPrecision" image-rendering="optimizeQuality" font-family="sans-serif" stroke="rgb(192,192,192)" font-weight="bold" stroke-opacity="0.6"
    ><rect x="0" width="128" height="50" y="0" clip-path="url(#clipPath1)" stroke="none"
    /></g
    ><g fill-opacity="1" text-rendering="geometricPrecision" stroke="black" stroke-linecap="butt" transform="translate(2,134)" stroke-miterlimit="0" stroke-opacity="1" fill="black" font-weight="bold" font-family="sans-serif" stroke-linejoin="round" font-size="11px" image-rendering="optimizeQuality"
    ><rect fill="none" x="0" width="128" height="50" y="0" clip-path="url(#clipPath1)"
      /><line y2="15" fill="none" x1="0" clip-path="url(#clipPath1)" x2="128" y1="15"
    /></g
    ><g font-size="11px" transform="translate(2,134)" fill-opacity="1" fill="black" text-rendering="geometricPrecision" image-rendering="optimizeQuality" font-family="sans-serif" stroke="black" font-weight="bold" stroke-opacity="1"
    ><text x="38" xml:space="preserve" y="12" clip-path="url(#clipPath3)" stroke="none"
      >Company</text
    ></g
    ><g font-size="11px" transform="translate(314,125)" fill-opacity="0.6" fill="rgb(192,192,192)" text-rendering="geometricPrecision" image-rendering="optimizeQuality" font-family="sans-serif" stroke="rgb(192,192,192)" font-weight="bold" stroke-opacity="0.6"
    ><rect x="0" width="128" height="68" y="0" clip-path="url(#clipPath4)" stroke="none"
    /></g
    ><g fill-opacity="1" text-rendering="geometricPrecision" stroke="black" stroke-linecap="butt" transform="translate(314,125)" stroke-miterlimit="0" stroke-opacity="1" fill="black" font-weight="bold" font-family="sans-serif" stroke-linejoin="round" font-size="11px" image-rendering="optimizeQuality"
    ><rect fill="none" x="0" width="128" height="68" y="0" clip-path="url(#clipPath4)"
      /><line y2="15" fill="none" x1="0" clip-path="url(#clipPath4)" x2="128" y1="15"
    /></g
    ><g font-size="11px" transform="matrix(1,0,0,1,314,140)" fill-opacity="1" fill="black" text-rendering="geometricPrecision" image-rendering="optimizeQuality" font-family="sans-serif" stroke="black" stroke-opacity="1"
    ><text x="2" xml:space="preserve" y="14" clip-path="url(#clipPath5)" stroke="none"
      >-name</text
    ></g
    ><g font-size="11px" transform="matrix(1,0,0,1,314,140)" fill-opacity="1" fill="black" text-rendering="geometricPrecision" image-rendering="optimizeQuality" font-family="sans-serif" stroke="black" stroke-opacity="1"
    ><text x="2" xml:space="preserve" y="29" clip-path="url(#clipPath5)" stroke="none"
      >-designation</text
    ></g
    ><g font-size="11px" transform="matrix(1,0,0,1,314,140)" fill-opacity="1" fill="black" text-rendering="geometricPrecision" image-rendering="optimizeQuality" font-family="sans-serif" stroke="black" stroke-opacity="1"
    ><text x="2" xml:space="preserve" y="44" clip-path="url(#clipPath5)" stroke="none"
      >-whoID</text
    ></g
    ><g font-size="11px" transform="translate(314,125)" fill-opacity="1" fill="black" text-rendering="geometricPrecision" image-rendering="optimizeQuality" font-family="sans-serif" stroke="black" font-weight="bold" stroke-opacity="1"
    ><text x="29" xml:space="preserve" y="12" clip-path="url(#clipPath3)" stroke="none"
      >VaccineType</text
    ></g
    ><g font-size="11px" transform="translate(182,139)" fill-opacity="0.6" fill="rgb(192,192,192)" text-rendering="geometricPrecision" image-rendering="optimizeQuality" font-family="sans-serif" stroke="rgb(192,192,192)" font-weight="bold" stroke-opacity="0.6"
    ><rect x="0" width="80" height="40" y="0" clip-path="url(#clipPath6)" stroke="none"
    /></g
    ><g fill-opacity="1" text-rendering="geometricPrecision" stroke="black" stroke-linecap="butt" transform="translate(182,139)" stroke-miterlimit="0" stroke-opacity="1" fill="black" font-weight="bold" font-family="sans-serif" stroke-linejoin="round" font-size="11px" image-rendering="optimizeQuality"
    ><rect fill="none" x="0" width="80" height="40" y="0" clip-path="url(#clipPath6)"
      /><line y2="15" fill="none" x1="0" clip-path="url(#clipPath6)" x2="80" y1="15"
    /></g
    ><g font-size="11px" transform="translate(182,139)" fill-opacity="1" fill="black" text-rendering="geometricPrecision" image-rendering="optimizeQuality" font-family="sans-serif" stroke="black" font-weight="bold" stroke-opacity="1"
    ><text x="19" xml:space="preserve" y="12" clip-path="url(#clipPath8)" stroke="none"
      >Vaccine</text
    ></g
    ><g fill-opacity="1" text-rendering="geometricPrecision" stroke="black" stroke-linecap="butt" transform="translate(80,3)" stroke-opacity="1" fill="black" stroke-dasharray="5" font-family="sans-serif" stroke-linejoin="round" font-size="11px" stroke-dashoffset="1" image-rendering="optimizeQuality"
    ><line y2="130" fill="none" x1="83" clip-path="url(#clipPath10)" x2="50" y1="50"
      /><line clip-path="url(#clipPath10)" stroke-dashoffset="0" fill="none" x1="50" x2="59" y1="130" y2="122" stroke-dasharray="none"
      /><line clip-path="url(#clipPath10)" stroke-dashoffset="0" fill="none" x1="50" x2="48" y1="130" y2="117" stroke-dasharray="none"
    /></g
    ><g fill-opacity="1" text-rendering="geometricPrecision" stroke="black" stroke-linecap="butt" transform="translate(171,3)" stroke-opacity="1" fill="black" stroke-dasharray="5" font-family="sans-serif" stroke-linejoin="round" font-size="11px" stroke-dashoffset="1" image-rendering="optimizeQuality"
    ><line y2="135" fill="none" x1="50" clip-path="url(#clipPath12)" x2="50" y1="50"
      /><line clip-path="url(#clipPath12)" stroke-dashoffset="0" fill="none" x1="50" x2="56" y1="135" y2="123" stroke-dasharray="none"
      /><line clip-path="url(#clipPath12)" stroke-dashoffset="0" fill="none" x1="50" x2="44" y1="135" y2="123" stroke-dasharray="none"
    /></g
    ><g fill-opacity="1" text-rendering="geometricPrecision" stroke="black" stroke-linecap="butt" transform="translate(242,3)" stroke-opacity="1" fill="black" stroke-dasharray="5" font-family="sans-serif" stroke-linejoin="round" font-size="11px" stroke-dashoffset="1" image-rendering="optimizeQuality"
    ><line y2="121" fill="none" x1="50" clip-path="url(#clipPath14)" x2="72" y1="50"
      /><line clip-path="url(#clipPath14)" stroke-dashoffset="0" fill="none" x1="72" x2="74" y1="121" y2="108" stroke-dasharray="none"
      /><line clip-path="url(#clipPath14)" stroke-dashoffset="0" fill="none" x1="72" x2="63" y1="121" y2="111" stroke-dasharray="none"
    /></g
    ><g fill-opacity="1" text-rendering="geometricPrecision" stroke="black" stroke-linecap="butt" transform="translate(81,106)" stroke-opacity="1" fill="black" stroke-dasharray="5" font-family="sans-serif" stroke-linejoin="round" font-size="11px" stroke-dashoffset="1" image-rendering="optimizeQuality"
    ><line y2="50" fill="none" x1="50" clip-path="url(#clipPath16)" x2="100" y1="50"
      /><line clip-path="url(#clipPath16)" stroke-dashoffset="0" fill="none" x1="100" x2="88" y1="50" y2="44" stroke-dasharray="none"
      /><line clip-path="url(#clipPath16)" stroke-dashoffset="0" fill="none" x1="100" x2="88" y1="50" y2="56" stroke-dasharray="none"
    /></g
    ><g fill-opacity="1" text-rendering="geometricPrecision" stroke="black" stroke-linecap="butt" transform="translate(213,113)" stroke-opacity="1" fill="black" stroke-dasharray="5" font-family="sans-serif" stroke-linejoin="round" font-size="11px" stroke-dashoffset="1" image-rendering="optimizeQuality"
    ><line y2="50" fill="none" x1="50" clip-path="url(#clipPath18)" x2="101" y1="50"
      /><line clip-path="url(#clipPath18)" stroke-dashoffset="0" fill="none" x1="101" x2="89" y1="50" y2="44" stroke-dasharray="none"
      /><line clip-path="url(#clipPath18)" stroke-dashoffset="0" fill="none" x1="101" x2="89" y1="50" y2="56" stroke-dasharray="none"
    /></g
    ><g font-size="11px" transform="translate(124,162)" fill-opacity="1" fill="black" text-rendering="geometricPrecision" image-rendering="optimizeQuality" font-family="sans-serif" stroke="black" stroke-opacity="1"
    ><text x="10" xml:space="preserve" y="12" clip-path="url(#clipPath19)" stroke="none"
      >applies</text
    ></g
    ><g font-size="11px" transform="translate(306,71)" fill-opacity="1" fill="black" text-rendering="geometricPrecision" image-rendering="optimizeQuality" font-family="sans-serif" stroke="black" stroke-opacity="1"
    ><text x="9" xml:space="preserve" y="12" clip-path="url(#clipPath20)" stroke="none"
      >knows</text
    ></g
    ><g font-size="11px" transform="translate(222,88)" fill-opacity="1" fill="black" text-rendering="geometricPrecision" image-rendering="optimizeQuality" font-family="sans-serif" stroke="black" stroke-opacity="1"
    ><text x="9" xml:space="preserve" y="12" clip-path="url(#clipPath20)" stroke="none"
      >knows</text
    ></g
    ><g font-size="11px" transform="translate(90,81)" fill-opacity="1" fill="black" text-rendering="geometricPrecision" image-rendering="optimizeQuality" font-family="sans-serif" stroke="black" stroke-opacity="1"
    ><text x="9" xml:space="preserve" y="12" clip-path="url(#clipPath20)" stroke="none"
      >knows</text
    ></g
    ><g font-size="8px" fill-opacity="1" fill="rgb(120,120,120)" text-rendering="geometricPrecision" image-rendering="optimizeQuality" stroke="rgb(120,120,120)" stroke-opacity="1"
    ></g
  ></g
></svg
>
