<?xml version="1.0" encoding="UTF-8"?>
<!DOCTYPE svg PUBLIC '-//W3C//DTD SVG 1.0//EN'
          'http://www.w3.org/TR/2001/REC-SVG-20010904/DTD/svg10.dtd'>
<svg fill-opacity="0" xmlns:xlink="http://www.w3.org/1999/xlink" color-rendering="auto" color-interpolation="auto" text-rendering="auto" stroke="rgb(0,0,0)" stroke-linecap="square" width="600" stroke-miterlimit="10" shape-rendering="auto" stroke-opacity="0" fill="rgb(0,0,0)" stroke-dasharray="none" font-weight="normal" stroke-width="1" height="460" xmlns="http://www.w3.org/2000/svg" font-family="'Dialog'" font-style="normal" stroke-linejoin="miter" font-size="12px" stroke-dashoffset="0" image-rendering="auto"
><!--Generated by the Batik Graphics2D SVG Generator--><defs id="genericDefs"
  /><g
  ><defs id="defs1"
    ><clipPath clipPathUnits="userSpaceOnUse" id="clipPath1"
      ><path d="M-7 -7 L19 -7 L19 23 L-7 23 L-7 -7 Z"
      /></clipPath
      ><clipPath clipPathUnits="userSpaceOnUse" id="clipPath2"
      ><path d="M-7 -7 L71 -7 L71 427 L-7 427 L-7 -7 Z"
      /></clipPath
      ><clipPath clipPathUnits="userSpaceOnUse" id="clipPath3"
      ><path d="M-7 -7 L81 -7 L81 427 L-7 427 L-7 -7 Z"
      /></clipPath
      ><clipPath clipPathUnits="userSpaceOnUse" id="clipPath4"
      ><path d="M-7 -7 L19 -7 L19 79 L-7 79 L-7 -7 Z"
      /></clipPath
      ><clipPath clipPathUnits="userSpaceOnUse" id="clipPath5"
      ><path d="M-7 -7 L19 -7 L19 63 L-7 63 L-7 -7 Z"
      /></clipPath
      ><clipPath clipPathUnits="userSpaceOnUse" id="clipPath6"
      ><path d="M-7 -7 L19 -7 L19 66 L-7 66 L-7 -7 Z"
      /></clipPath
      ><clipPath clipPathUnits="userSpaceOnUse" id="clipPath7"
      ><path d="M-81 -15 L162 -15 L162 30 L-81 30 L-81 -15 Z"
      /></clipPath
      ><clipPath clipPathUnits="userSpaceOnUse" id="clipPath8"
      ><path d="M-70 -15 L140 -15 L140 30 L-70 30 L-70 -15 Z"
      /></clipPath
      ><clipPath clipPathUnits="userSpaceOnUse" id="clipPath9"
      ><path d="M0 0 L580 0 L580 87 L0 87 L0 0 Z"
      /></clipPath
      ><clipPath clipPathUnits="userSpaceOnUse" id="clipPath10"
      ><path d="M378 21 L378 36 L192 36 L192 21 ZM0 0 L0 87 L160 87 L160 72 L410 72 L410 87 L580 87 L580 0 Z"
      /></clipPath
      ><clipPath clipPathUnits="userSpaceOnUse" id="clipPath11"
      ><path d="M478 21 L478 36 L83 36 L83 21 ZM0 0 L0 87 L580 87 L580 0 Z"
      /></clipPath
      ><clipPath clipPathUnits="userSpaceOnUse" id="clipPath12"
      ><path d="M364 21 L364 36 L203 36 L203 21 ZM478 60 L478 75 L83 75 L83 60 ZM0 0 L0 87 L580 87 L580 0 Z"
      /></clipPath
      ><clipPath clipPathUnits="userSpaceOnUse" id="clipPath13"
      ><path d="M410 17 L410 32 L160 32 L160 17 ZM0 0 L0 87 L203 87 L203 81 L364 81 L364 87 L580 87 L580 0 Z"
      /></clipPath
      ><clipPath clipPathUnits="userSpaceOnUse" id="clipPath14"
      ><path d="M400 22 L400 37 L175 37 L175 22 ZM477 59 L477 74 L97 74 L97 59 ZM0 0 L0 87 L580 87 L580 0 Z"
      /></clipPath
      ><clipPath clipPathUnits="userSpaceOnUse" id="clipPath15"
      ><path d="M477 21 L477 36 L97 36 L97 21 ZM0 0 L0 87 L580 87 L580 0 Z"
      /></clipPath
      ><clipPath clipPathUnits="userSpaceOnUse" id="clipPath16"
      ><path d="M-380 -15 L760 -15 L760 30 L-380 30 L-380 -15 Z"
      /></clipPath
      ><clipPath clipPathUnits="userSpaceOnUse" id="clipPath17"
      ><path d="M-225 -15 L450 -15 L450 30 L-225 30 L-225 -15 Z"
      /></clipPath
      ><clipPath clipPathUnits="userSpaceOnUse" id="clipPath18"
      ><path d="M-250 -15 L500 -15 L500 30 L-250 30 L-250 -15 Z"
      /></clipPath
      ><clipPath clipPathUnits="userSpaceOnUse" id="clipPath19"
      ><path d="M-161 -15 L322 -15 L322 30 L-161 30 L-161 -15 Z"
      /></clipPath
      ><clipPath clipPathUnits="userSpaceOnUse" id="clipPath20"
      ><path d="M-395 -15 L790 -15 L790 30 L-395 30 L-395 -15 Z"
      /></clipPath
      ><clipPath clipPathUnits="userSpaceOnUse" id="clipPath21"
      ><path d="M-186 -15 L372 -15 L372 30 L-186 30 L-186 -15 Z"
      /></clipPath
    ></defs
    ><g fill="white" text-rendering="geometricPrecision" fill-opacity="1" stroke-opacity="1" stroke="white"
    ><rect x="0" width="600" height="460" y="0" stroke="none"
    /></g
    ><g font-size="11px" fill-opacity="1" fill="rgb(122,207,245)" text-rendering="geometricPrecision" image-rendering="optimizeQuality" font-family="sans-serif" stroke="rgb(122,207,245)" stroke-opacity="1"
    ><rect x="0" width="8" height="12" y="0" clip-path="url(#clipPath1)" stroke="none"
    /></g
    ><g stroke-linecap="butt" font-size="11px" fill-opacity="1" fill="black" text-rendering="geometricPrecision" image-rendering="optimizeQuality" font-family="sans-serif" stroke-linejoin="round" stroke="black" stroke-opacity="1" stroke-miterlimit="0"
    ><rect fill="none" x="0" width="8" height="12" y="0" clip-path="url(#clipPath1)"
    /></g
    ><g font-size="11px" transform="translate(30,40)" fill-opacity="0.6" fill="rgb(192,192,192)" text-rendering="geometricPrecision" image-rendering="optimizeQuality" font-family="sans-serif" stroke="rgb(192,192,192)" stroke-opacity="0.6"
    ><circle r="5" clip-path="url(#clipPath2)" cx="30" cy="5" stroke="none"
      /><rect x="26" width="8" height="365" y="50" clip-path="url(#clipPath2)" stroke="none"
    /></g
    ><g stroke-linecap="butt" font-size="11px" transform="translate(30,40)" fill-opacity="1" fill="black" text-rendering="geometricPrecision" image-rendering="optimizeQuality" font-family="sans-serif" stroke-linejoin="round" stroke="black" stroke-opacity="1" stroke-miterlimit="0"
    ><circle fill="none" r="5" clip-path="url(#clipPath2)" cx="30" cy="5"
      /><rect fill="none" x="26" width="8" height="365" y="50" clip-path="url(#clipPath2)"
      /><line y2="25" fill="none" x1="30" clip-path="url(#clipPath2)" x2="30" y1="10"
      /><line y2="36" fill="none" x1="30" clip-path="url(#clipPath2)" x2="21" y1="25"
      /><line y2="36" fill="none" x1="30" clip-path="url(#clipPath2)" x2="39" y1="25"
      /><line y2="16" fill="none" x1="21" clip-path="url(#clipPath2)" x2="39" y1="16"
    /></g
    ><g font-size="11px" transform="translate(526,40)" fill-opacity="0.6" fill="rgb(192,192,192)" text-rendering="geometricPrecision" image-rendering="optimizeQuality" font-family="sans-serif" stroke="rgb(192,192,192)" stroke-opacity="0.6"
    ><rect x="0" width="69" height="35" y="0" clip-path="url(#clipPath3)" stroke="none"
    /></g
    ><g stroke-linecap="butt" font-size="11px" transform="translate(526,40)" fill-opacity="1" fill="black" text-rendering="geometricPrecision" image-rendering="optimizeQuality" font-family="sans-serif" stroke-linejoin="round" stroke="black" stroke-opacity="1" stroke-miterlimit="0"
    ><rect fill="none" x="0" width="69" height="35" y="0" clip-path="url(#clipPath3)"
      /><line clip-path="url(#clipPath3)" fill="none" x1="34" x2="34" y1="35" y2="416" stroke-linejoin="bevel" stroke-dasharray="8,3"
    /></g
    ><g font-size="11px" transform="translate(557,147)" fill-opacity="0.498" fill="rgb(192,192,192)" text-rendering="geometricPrecision" image-rendering="optimizeQuality" font-family="sans-serif" stroke="rgb(192,192,192)" stroke-opacity="0.498"
    ><rect x="0" width="8" height="68" y="0" clip-path="url(#clipPath4)" stroke="none"
    /></g
    ><g stroke-linecap="butt" font-size="11px" transform="translate(557,147)" fill-opacity="1" fill="black" text-rendering="geometricPrecision" image-rendering="optimizeQuality" font-family="sans-serif" stroke-linejoin="round" stroke="black" stroke-opacity="1" stroke-miterlimit="0"
    ><rect fill="none" x="0" width="8" height="68" y="0" clip-path="url(#clipPath4)"
    /></g
    ><g font-size="11px" transform="translate(557,261)" fill-opacity="0.6" fill="rgb(192,192,192)" text-rendering="geometricPrecision" image-rendering="optimizeQuality" font-family="sans-serif" stroke="rgb(192,192,192)" stroke-opacity="0.6"
    ><rect x="0" width="8" height="52" y="0" clip-path="url(#clipPath5)" stroke="none"
    /></g
    ><g stroke-linecap="butt" font-size="11px" transform="translate(557,261)" fill-opacity="1" fill="black" text-rendering="geometricPrecision" image-rendering="optimizeQuality" font-family="sans-serif" stroke-linejoin="round" stroke="black" stroke-opacity="1" stroke-miterlimit="0"
    ><rect fill="none" x="0" width="8" height="52" y="0" clip-path="url(#clipPath5)"
    /></g
    ><g font-size="11px" transform="translate(557,365)" fill-opacity="0.6" fill="rgb(192,192,192)" text-rendering="geometricPrecision" image-rendering="optimizeQuality" font-family="sans-serif" stroke="rgb(192,192,192)" stroke-opacity="0.6"
    ><rect x="0" width="8" height="55" y="0" clip-path="url(#clipPath6)" stroke="none"
    /></g
    ><g stroke-linecap="butt" font-size="11px" transform="translate(557,365)" fill-opacity="1" fill="black" text-rendering="geometricPrecision" image-rendering="optimizeQuality" font-family="sans-serif" stroke-linejoin="round" stroke="black" stroke-opacity="1" stroke-miterlimit="0"
    ><rect fill="none" x="0" width="8" height="55" y="0" clip-path="url(#clipPath6)"
    /></g
    ><g font-size="11px" fill-opacity="1" fill="rgb(122,207,245)" text-rendering="geometricPrecision" image-rendering="optimizeQuality" font-family="sans-serif" stroke="rgb(122,207,245)" stroke-opacity="1"
    ><rect x="0" width="8" height="12" y="0" clip-path="url(#clipPath1)" stroke="none"
    /></g
    ><g stroke-linecap="butt" font-size="11px" fill-opacity="1" fill="black" text-rendering="geometricPrecision" image-rendering="optimizeQuality" font-family="sans-serif" stroke-linejoin="round" stroke="black" stroke-opacity="1" stroke-miterlimit="0"
    ><rect fill="none" x="0" width="8" height="12" y="0" clip-path="url(#clipPath1)"
    /></g
    ><g font-size="11px" transform="translate(20,75)" fill-opacity="1" fill="black" text-rendering="geometricPrecision" image-rendering="optimizeQuality" font-family="sans-serif" stroke="black" stroke-opacity="1"
    ><text x="10" xml:space="preserve" y="12" clip-path="url(#clipPath7)" stroke="none"
      >Receptionist</text
    ></g
    ><g font-size="11px" transform="translate(526,50)" fill-opacity="1" fill="black" text-rendering="geometricPrecision" image-rendering="optimizeQuality" font-family="sans-serif" stroke="black" stroke-opacity="1"
    ><text x="13" xml:space="preserve" y="12" clip-path="url(#clipPath8)" stroke="none"
      >: System</text
    ></g
    ><g stroke-linecap="butt" font-size="11px" transform="translate(22,110)" fill-opacity="1" fill="black" text-rendering="geometricPrecision" image-rendering="optimizeQuality" font-family="sans-serif" stroke-linejoin="round" stroke="black" stroke-opacity="1"
    ><line y2="42" fill="none" x1="42" clip-path="url(#clipPath10)" x2="535" y1="42"
      /><polygon points=" 535 42 523 36 523 48" clip-path="url(#clipPath10)" stroke="none"
      /><polygon fill="none" points=" 535 42 523 36 523 48" clip-path="url(#clipPath10)"
    /></g
    ><g fill-opacity="1" text-rendering="geometricPrecision" stroke="black" stroke-linecap="butt" transform="translate(22,264)" stroke-miterlimit="0" stroke-opacity="1" fill="black" stroke-dasharray="8,3" font-family="sans-serif" stroke-linejoin="round" font-size="11px" image-rendering="optimizeQuality"
    ><line y2="41" fill="none" x1="535" clip-path="url(#clipPath11)" x2="42" y1="41"
      /><line clip-path="url(#clipPath11)" fill="none" x1="42" x2="54" y1="41" y2="47" stroke-dasharray="none" stroke-miterlimit="10"
      /><line clip-path="url(#clipPath11)" fill="none" x1="42" x2="54" y1="41" y2="35" stroke-dasharray="none" stroke-miterlimit="10"
    /></g
    ><g stroke-linecap="butt" font-size="11px" transform="translate(22,225)" fill-opacity="1" fill="black" text-rendering="geometricPrecision" image-rendering="optimizeQuality" font-family="sans-serif" stroke-linejoin="round" stroke="black" stroke-opacity="1"
    ><line y2="41" fill="none" x1="42" clip-path="url(#clipPath12)" x2="535" y1="41"
      /><polygon points=" 535 41 523 35 523 47" clip-path="url(#clipPath12)" stroke="none"
      /><polygon fill="none" points=" 535 41 523 35 523 47" clip-path="url(#clipPath12)"
    /></g
    ><g fill-opacity="1" text-rendering="geometricPrecision" stroke="black" stroke-linecap="butt" transform="translate(22,165)" stroke-miterlimit="0" stroke-opacity="1" fill="black" stroke-dasharray="8,3" font-family="sans-serif" stroke-linejoin="round" font-size="11px" image-rendering="optimizeQuality"
    ><line y2="41" fill="none" x1="535" clip-path="url(#clipPath13)" x2="42" y1="41"
      /><line clip-path="url(#clipPath13)" fill="none" x1="42" x2="54" y1="41" y2="47" stroke-dasharray="none" stroke-miterlimit="10"
      /><line clip-path="url(#clipPath13)" fill="none" x1="42" x2="54" y1="41" y2="35" stroke-dasharray="none" stroke-miterlimit="10"
    /></g
    ><g stroke-linecap="butt" font-size="11px" transform="translate(22,331)" fill-opacity="1" fill="black" text-rendering="geometricPrecision" image-rendering="optimizeQuality" font-family="sans-serif" stroke-linejoin="round" stroke="black" stroke-opacity="1"
    ><line y2="42" fill="none" x1="42" clip-path="url(#clipPath14)" x2="535" y1="42"
      /><polygon points=" 535 42 523 36 523 48" clip-path="url(#clipPath14)" stroke="none"
      /><polygon fill="none" points=" 535 42 523 36 523 48" clip-path="url(#clipPath14)"
    /></g
    ><g fill-opacity="1" text-rendering="geometricPrecision" stroke="black" stroke-linecap="butt" transform="translate(22,369)" stroke-miterlimit="0" stroke-opacity="1" fill="black" stroke-dasharray="8,3" font-family="sans-serif" stroke-linejoin="round" font-size="11px" image-rendering="optimizeQuality"
    ><line y2="41" fill="none" x1="535" clip-path="url(#clipPath15)" x2="42" y1="41"
      /><line clip-path="url(#clipPath15)" fill="none" x1="42" x2="54" y1="41" y2="47" stroke-dasharray="none" stroke-miterlimit="10"
      /><line clip-path="url(#clipPath15)" fill="none" x1="42" x2="54" y1="41" y2="35" stroke-dasharray="none" stroke-miterlimit="10"
    /></g
    ><g font-size="11px" transform="translate(119,390)" fill-opacity="1" fill="white" text-rendering="geometricPrecision" image-rendering="optimizeQuality" font-family="sans-serif" stroke="white" stroke-opacity="1"
    ><rect x="0" width="380" height="15" y="0" clip-path="url(#clipPath16)" stroke="none"
      /><text fill="black" x="10" xml:space="preserve" y="12" clip-path="url(#clipPath16)" stroke="none"
      >6: Validates the data in the system and informs the status of the operation</text
    ></g
    ><g font-size="11px" transform="translate(197,353)" fill-opacity="1" fill="white" text-rendering="geometricPrecision" image-rendering="optimizeQuality" font-family="sans-serif" stroke="white" stroke-opacity="1"
    ><rect x="0" width="225" height="15" y="0" clip-path="url(#clipPath17)" stroke="none"
      /><text fill="black" x="10" xml:space="preserve" y="12" clip-path="url(#clipPath17)" stroke="none"
      >5: Confirms the schedule for a vaccination</text
    ></g
    ><g font-size="11px" transform="translate(182,182)" fill-opacity="1" fill="white" text-rendering="geometricPrecision" image-rendering="optimizeQuality" font-family="sans-serif" stroke="white" stroke-opacity="1"
    ><rect x="0" width="250" height="15" y="0" clip-path="url(#clipPath18)" stroke="none"
      /><text fill="black" x="10" xml:space="preserve" y="12" clip-path="url(#clipPath18)" stroke="none"
      >2: Request data (SnsUserNumber, date, time ).</text
    ></g
    ><g font-size="11px" transform="translate(225,246)" fill-opacity="1" fill="white" text-rendering="geometricPrecision" image-rendering="optimizeQuality" font-family="sans-serif" stroke="white" stroke-opacity="1"
    ><rect x="0" width="161" height="15" y="0" clip-path="url(#clipPath19)" stroke="none"
      /><text fill="black" x="9" xml:space="preserve" y="12" clip-path="url(#clipPath19)" stroke="none"
      >3: Types the requested data.</text
    ></g
    ><g font-size="11px" transform="translate(105,285)" fill-opacity="1" fill="white" text-rendering="geometricPrecision" image-rendering="optimizeQuality" font-family="sans-serif" stroke="white" stroke-opacity="1"
    ><rect x="0" width="395" height="15" y="0" clip-path="url(#clipPath20)" stroke="none"
      /><text fill="black" x="10" xml:space="preserve" y="12" clip-path="url(#clipPath20)" stroke="none"
      >4: Shows the typed data and asks for confirmation to schedule a vaccination.</text
    ></g
    ><g font-size="11px" transform="translate(214,131)" fill-opacity="1" fill="white" text-rendering="geometricPrecision" image-rendering="optimizeQuality" font-family="sans-serif" stroke="white" stroke-opacity="1"
    ><rect x="0" width="186" height="15" y="0" clip-path="url(#clipPath21)" stroke="none"
      /><text fill="black" x="10" xml:space="preserve" y="12" clip-path="url(#clipPath21)" stroke="none"
      >1: Asks to schedule a vaccination.</text
    ></g
    ><g font-size="8px" fill-opacity="1" fill="rgb(120,120,120)" text-rendering="geometricPrecision" image-rendering="optimizeQuality" stroke="rgb(120,120,120)" stroke-opacity="1"
    ></g
  ></g
></svg
>
