<?xml version="1.0" encoding="UTF-8" standalone="no"?><svg xmlns="http://www.w3.org/2000/svg" xmlns:xlink="http://www.w3.org/1999/xlink" contentScriptType="application/ecmascript" contentStyleType="text/css" height="1288px" preserveAspectRatio="none" style="width:2692px;height:1288px;background:#FFFFFF;" version="1.1" viewBox="0 0 2692 1288" width="2692px" zoomAndPan="magnify"><defs><filter height="300%" id="f17yi4tj5ihiie" width="300%" x="-1" y="-1"><feGaussianBlur result="blurOut" stdDeviation="2.0"/><feColorMatrix in="blurOut" result="blurOut2" type="matrix" values="0 0 0 0 0 0 0 0 0 0 0 0 0 0 0 0 0 0 .4 0"/><feOffset dx="4.0" dy="4.0" in="blurOut2" result="blurOut3"/><feBlend in="SourceGraphic" in2="blurOut3" mode="normal"/></filter></defs><g><rect fill="#FFFFFF" filter="url(#f17yi4tj5ihiie)" height="1183.6953" style="stroke:#A80036;stroke-width:1.0;" width="10" x="48" y="51.6094"/><rect fill="#FFFFFF" filter="url(#f17yi4tj5ihiie)" height="52.7031" style="stroke:#A80036;stroke-width:1.0;" width="10" x="339" y="51.6094"/><rect fill="#FFFFFF" filter="url(#f17yi4tj5ihiie)" height="495.7734" style="stroke:#A80036;stroke-width:1.0;" width="10" x="339" y="134.6641"/><rect fill="#FFFFFF" filter="url(#f17yi4tj5ihiie)" height="574.5156" style="stroke:#A80036;stroke-width:1.0;" width="10" x="339" y="660.7891"/><rect fill="#FFFFFF" filter="url(#f17yi4tj5ihiie)" height="465.4219" style="stroke:#A80036;stroke-width:1.0;" width="10" x="1040" y="165.0156"/><rect fill="#FFFFFF" filter="url(#f17yi4tj5ihiie)" height="544.1641" style="stroke:#A80036;stroke-width:1.0;" width="10" x="1040" y="691.1406"/><rect fill="#FFFFFF" filter="url(#f17yi4tj5ihiie)" height="30" style="stroke:#A80036;stroke-width:1.0;" width="10" x="1232" y="195.3672"/><rect fill="#FFFFFF" filter="url(#f17yi4tj5ihiie)" height="112.9609" style="stroke:#A80036;stroke-width:1.0;" width="10" x="1801" y="255.7188"/><rect fill="#FFFFFF" filter="url(#f17yi4tj5ihiie)" height="187.0547" style="stroke:#A80036;stroke-width:1.0;" width="10" x="1801" y="406.0313"/><rect fill="#FFFFFF" filter="url(#f17yi4tj5ihiie)" height="28" style="stroke:#A80036;stroke-width:1.0;" width="10" x="1806" y="565.0859"/><rect fill="#FFFFFF" filter="url(#f17yi4tj5ihiie)" height="513.8125" style="stroke:#A80036;stroke-width:1.0;" width="10" x="1801" y="721.4922"/><rect fill="#FFFFFF" filter="url(#f17yi4tj5ihiie)" height="28" style="stroke:#A80036;stroke-width:1.0;" width="10" x="1806" y="759.8438"/><rect fill="#FFFFFF" filter="url(#f17yi4tj5ihiie)" height="28" style="stroke:#A80036;stroke-width:1.0;" width="10" x="1806" y="953.8984"/><rect fill="#FFFFFF" filter="url(#f17yi4tj5ihiie)" height="28" style="stroke:#A80036;stroke-width:1.0;" width="10" x="1806" y="1087.6016"/><rect fill="#FFFFFF" filter="url(#f17yi4tj5ihiie)" height="28" style="stroke:#A80036;stroke-width:1.0;" width="10" x="1806" y="1160.9531"/><rect fill="#FFFFFF" filter="url(#f17yi4tj5ihiie)" height="72.6094" style="stroke:#A80036;stroke-width:1.0;" width="10" x="2491" y="296.0703"/><rect fill="#FFFFFF" filter="url(#f17yi4tj5ihiie)" height="28" style="stroke:#A80036;stroke-width:1.0;" width="10" x="2496" y="340.6797"/><rect fill="#FFFFFF" filter="url(#f17yi4tj5ihiie)" height="30" style="stroke:#A80036;stroke-width:1.0;" width="10" x="2491" y="436.3828"/><rect fill="#FFFFFF" filter="url(#f17yi4tj5ihiie)" height="30" style="stroke:#A80036;stroke-width:1.0;" width="10" x="2491" y="825.1953"/><rect fill="#FFFFFF" filter="url(#f17yi4tj5ihiie)" height="30" style="stroke:#A80036;stroke-width:1.0;" width="10" x="2491" y="885.5469"/><rect fill="#FFFFFF" filter="url(#f17yi4tj5ihiie)" height="30" style="stroke:#A80036;stroke-width:1.0;" width="10" x="2491" y="1019.25"/><rect fill="#FFFFFF" filter="url(#f17yi4tj5ihiie)" height="30" style="stroke:#A80036;stroke-width:1.0;" width="10" x="2630" y="496.7344"/><line style="stroke:#A80036;stroke-width:1.0;stroke-dasharray:5.0,5.0;" x1="53" x2="53" y1="41.6094" y2="1244.3047"/><line style="stroke:#A80036;stroke-width:1.0;stroke-dasharray:5.0,5.0;" x1="344" x2="344" y1="41.6094" y2="1244.3047"/><line style="stroke:#A80036;stroke-width:1.0;stroke-dasharray:5.0,5.0;" x1="1045" x2="1045" y1="41.6094" y2="1244.3047"/><line style="stroke:#A80036;stroke-width:1.0;stroke-dasharray:5.0,5.0;" x1="1237" x2="1237" y1="41.6094" y2="1244.3047"/><line style="stroke:#A80036;stroke-width:1.0;stroke-dasharray:5.0,5.0;" x1="1805.5" x2="1805.5" y1="41.6094" y2="1244.3047"/><line style="stroke:#A80036;stroke-width:1.0;stroke-dasharray:5.0,5.0;" x1="2496" x2="2496" y1="297.0234" y2="1244.3047"/><line style="stroke:#A80036;stroke-width:1.0;stroke-dasharray:5.0,5.0;" x1="2634.5" x2="2634.5" y1="41.6094" y2="1244.3047"/><rect fill="#FEFECE" filter="url(#f17yi4tj5ihiie)" height="31.6094" style="stroke:#A80036;stroke-width:1.5;" width="92" x="5" y="5"/><text fill="#000000" font-family="sans-serif" font-size="14" lengthAdjust="spacing" textLength="78" x="12" y="26.5332">Receptionist</text><rect fill="#FEFECE" filter="url(#f17yi4tj5ihiie)" height="31.6094" style="stroke:#A80036;stroke-width:1.5;" width="92" x="5" y="1243.3047"/><text fill="#000000" font-family="sans-serif" font-size="14" lengthAdjust="spacing" textLength="78" x="12" y="1264.8379">Receptionist</text><rect fill="#FEFECE" filter="url(#f17yi4tj5ihiie)" height="31.6094" style="stroke:#A80036;stroke-width:1.5;" width="80" x="302" y="5"/><text fill="#000000" font-family="sans-serif" font-size="14" lengthAdjust="spacing" textLength="66" x="309" y="26.5332">AddUserUI</text><rect fill="#FEFECE" filter="url(#f17yi4tj5ihiie)" height="31.6094" style="stroke:#A80036;stroke-width:1.5;" width="80" x="302" y="1243.3047"/><text fill="#000000" font-family="sans-serif" font-size="14" lengthAdjust="spacing" textLength="66" x="309" y="1264.8379">AddUserUI</text><rect fill="#FEFECE" filter="url(#f17yi4tj5ihiie)" height="31.6094" style="stroke:#A80036;stroke-width:1.5;" width="130" x="978" y="5"/><text fill="#000000" font-family="sans-serif" font-size="14" lengthAdjust="spacing" textLength="116" x="985" y="26.5332">AddUserController</text><rect fill="#FEFECE" filter="url(#f17yi4tj5ihiie)" height="31.6094" style="stroke:#A80036;stroke-width:1.5;" width="130" x="978" y="1243.3047"/><text fill="#000000" font-family="sans-serif" font-size="14" lengthAdjust="spacing" textLength="116" x="985" y="1264.8379">AddUserController</text><rect fill="#FEFECE" filter="url(#f17yi4tj5ihiie)" height="31.6094" style="stroke:#A80036;stroke-width:1.5;" width="74" x="1198" y="5"/><text fill="#000000" font-family="sans-serif" font-size="14" lengthAdjust="spacing" textLength="60" x="1205" y="26.5332">Company</text><rect fill="#FEFECE" filter="url(#f17yi4tj5ihiie)" height="31.6094" style="stroke:#A80036;stroke-width:1.5;" width="74" x="1198" y="1243.3047"/><text fill="#000000" font-family="sans-serif" font-size="14" lengthAdjust="spacing" textLength="60" x="1205" y="1264.8379">Company</text><rect fill="#FEFECE" filter="url(#f17yi4tj5ihiie)" height="31.6094" style="stroke:#A80036;stroke-width:1.5;" width="91" x="1758.5" y="5"/><text fill="#000000" font-family="sans-serif" font-size="14" lengthAdjust="spacing" textLength="77" x="1765.5" y="26.5332">SNSUserSto</text><rect fill="#FEFECE" filter="url(#f17yi4tj5ihiie)" height="31.6094" style="stroke:#A80036;stroke-width:1.5;" width="91" x="1758.5" y="1243.3047"/><text fill="#000000" font-family="sans-serif" font-size="14" lengthAdjust="spacing" textLength="77" x="1765.5" y="1264.8379">SNSUserSto</text><rect fill="#FEFECE" filter="url(#f17yi4tj5ihiie)" height="31.6094" style="stroke:#A80036;stroke-width:1.5;" width="70" x="2459" y="1243.3047"/><text fill="#000000" font-family="sans-serif" font-size="14" lengthAdjust="spacing" textLength="56" x="2466" y="1264.8379">SNSUser</text><rect fill="#FEFECE" filter="url(#f17yi4tj5ihiie)" height="31.6094" style="stroke:#A80036;stroke-width:1.5;" width="91" x="2587.5" y="5"/><text fill="#000000" font-family="sans-serif" font-size="14" lengthAdjust="spacing" textLength="77" x="2594.5" y="26.5332">AuthFacade</text><rect fill="#FEFECE" filter="url(#f17yi4tj5ihiie)" height="31.6094" style="stroke:#A80036;stroke-width:1.5;" width="91" x="2587.5" y="1243.3047"/><text fill="#000000" font-family="sans-serif" font-size="14" lengthAdjust="spacing" textLength="77" x="2594.5" y="1264.8379">AuthFacade</text><rect fill="#FFFFFF" filter="url(#f17yi4tj5ihiie)" height="1183.6953" style="stroke:#A80036;stroke-width:1.0;" width="10" x="48" y="51.6094"/><rect fill="#FFFFFF" filter="url(#f17yi4tj5ihiie)" height="52.7031" style="stroke:#A80036;stroke-width:1.0;" width="10" x="339" y="51.6094"/><rect fill="#FFFFFF" filter="url(#f17yi4tj5ihiie)" height="495.7734" style="stroke:#A80036;stroke-width:1.0;" width="10" x="339" y="134.6641"/><rect fill="#FFFFFF" filter="url(#f17yi4tj5ihiie)" height="574.5156" style="stroke:#A80036;stroke-width:1.0;" width="10" x="339" y="660.7891"/><rect fill="#FFFFFF" filter="url(#f17yi4tj5ihiie)" height="465.4219" style="stroke:#A80036;stroke-width:1.0;" width="10" x="1040" y="165.0156"/><rect fill="#FFFFFF" filter="url(#f17yi4tj5ihiie)" height="544.1641" style="stroke:#A80036;stroke-width:1.0;" width="10" x="1040" y="691.1406"/><rect fill="#FFFFFF" filter="url(#f17yi4tj5ihiie)" height="30" style="stroke:#A80036;stroke-width:1.0;" width="10" x="1232" y="195.3672"/><rect fill="#FFFFFF" filter="url(#f17yi4tj5ihiie)" height="112.9609" style="stroke:#A80036;stroke-width:1.0;" width="10" x="1801" y="255.7188"/><rect fill="#FFFFFF" filter="url(#f17yi4tj5ihiie)" height="187.0547" style="stroke:#A80036;stroke-width:1.0;" width="10" x="1801" y="406.0313"/><rect fill="#FFFFFF" filter="url(#f17yi4tj5ihiie)" height="28" style="stroke:#A80036;stroke-width:1.0;" width="10" x="1806" y="565.0859"/><rect fill="#FFFFFF" filter="url(#f17yi4tj5ihiie)" height="513.8125" style="stroke:#A80036;stroke-width:1.0;" width="10" x="1801" y="721.4922"/><rect fill="#FFFFFF" filter="url(#f17yi4tj5ihiie)" height="28" style="stroke:#A80036;stroke-width:1.0;" width="10" x="1806" y="759.8438"/><rect fill="#FFFFFF" filter="url(#f17yi4tj5ihiie)" height="28" style="stroke:#A80036;stroke-width:1.0;" width="10" x="1806" y="953.8984"/><rect fill="#FFFFFF" filter="url(#f17yi4tj5ihiie)" height="28" style="stroke:#A80036;stroke-width:1.0;" width="10" x="1806" y="1087.6016"/><rect fill="#FFFFFF" filter="url(#f17yi4tj5ihiie)" height="28" style="stroke:#A80036;stroke-width:1.0;" width="10" x="1806" y="1160.9531"/><rect fill="#FFFFFF" filter="url(#f17yi4tj5ihiie)" height="72.6094" style="stroke:#A80036;stroke-width:1.0;" width="10" x="2491" y="296.0703"/><rect fill="#FFFFFF" filter="url(#f17yi4tj5ihiie)" height="28" style="stroke:#A80036;stroke-width:1.0;" width="10" x="2496" y="340.6797"/><rect fill="#FFFFFF" filter="url(#f17yi4tj5ihiie)" height="30" style="stroke:#A80036;stroke-width:1.0;" width="10" x="2491" y="436.3828"/><rect fill="#FFFFFF" filter="url(#f17yi4tj5ihiie)" height="30" style="stroke:#A80036;stroke-width:1.0;" width="10" x="2491" y="825.1953"/><rect fill="#FFFFFF" filter="url(#f17yi4tj5ihiie)" height="30" style="stroke:#A80036;stroke-width:1.0;" width="10" x="2491" y="885.5469"/><rect fill="#FFFFFF" filter="url(#f17yi4tj5ihiie)" height="30" style="stroke:#A80036;stroke-width:1.0;" width="10" x="2491" y="1019.25"/><rect fill="#FFFFFF" filter="url(#f17yi4tj5ihiie)" height="30" style="stroke:#A80036;stroke-width:1.0;" width="10" x="2630" y="496.7344"/><polygon fill="#A80036" points="327,69.9609,337,73.9609,327,77.9609,331,73.9609" style="stroke:#A80036;stroke-width:1.0;"/><line style="stroke:#A80036;stroke-width:1.0;" x1="58" x2="333" y1="73.9609" y2="73.9609"/><text fill="#000000" font-family="sans-serif" font-size="13" font-weight="bold" lengthAdjust="spacing" textLength="7" x="65" y="69.1045">1</text><text fill="#000000" font-family="sans-serif" font-size="13" lengthAdjust="spacing" textLength="180" x="76" y="69.1045">Starts the register of SNS User</text><polygon fill="#A80036" points="69,100.3125,59,104.3125,69,108.3125,65,104.3125" style="stroke:#A80036;stroke-width:1.0;"/><line style="stroke:#A80036;stroke-width:1.0;stroke-dasharray:2.0,2.0;" x1="63" x2="343" y1="104.3125" y2="104.3125"/><text fill="#000000" font-family="sans-serif" font-size="13" font-weight="bold" lengthAdjust="spacing" textLength="7" x="75" y="99.4561">2</text><text fill="#000000" font-family="sans-serif" font-size="13" lengthAdjust="spacing" textLength="106" x="86" y="99.4561">Requests the data</text><polygon fill="#A80036" points="327,130.6641,337,134.6641,327,138.6641,331,134.6641" style="stroke:#A80036;stroke-width:1.0;"/><line style="stroke:#A80036;stroke-width:1.0;stroke-dasharray:2.0,2.0;" x1="58" x2="333" y1="134.6641" y2="134.6641"/><text fill="#000000" font-family="sans-serif" font-size="13" font-weight="bold" lengthAdjust="spacing" textLength="7" x="65" y="129.8076">3</text><text fill="#000000" font-family="sans-serif" font-size="13" lengthAdjust="spacing" textLength="86" x="76" y="129.8076">Types the data</text><polygon fill="#A80036" points="1028,161.0156,1038,165.0156,1028,169.0156,1032,165.0156" style="stroke:#A80036;stroke-width:1.0;"/><line style="stroke:#A80036;stroke-width:1.0;stroke-dasharray:2.0,2.0;" x1="349" x2="1034" y1="165.0156" y2="165.0156"/><text fill="#000000" font-family="sans-serif" font-size="13" font-weight="bold" lengthAdjust="spacing" textLength="7" x="356" y="160.1592">4</text><text fill="#000000" font-family="sans-serif" font-size="13" lengthAdjust="spacing" textLength="661" x="367" y="160.1592">createNewUser(Name, Address, Sex, Phone Number, E-mail, Birth Date, SNS User Number,Citizen Card Number)</text><polygon fill="#A80036" points="1220,191.3672,1230,195.3672,1220,199.3672,1224,195.3672" style="stroke:#A80036;stroke-width:1.0;"/><line style="stroke:#A80036;stroke-width:1.0;stroke-dasharray:2.0,2.0;" x1="1050" x2="1226" y1="195.3672" y2="195.3672"/><text fill="#000000" font-family="sans-serif" font-size="13" font-weight="bold" lengthAdjust="spacing" textLength="7" x="1057" y="190.5107">5</text><text fill="#000000" font-family="sans-serif" font-size="13" lengthAdjust="spacing" textLength="152" x="1068" y="190.5107">store= getSNSUserStore()</text><polygon fill="#A80036" points="1789,251.7188,1799,255.7188,1789,259.7188,1793,255.7188" style="stroke:#A80036;stroke-width:1.0;"/><line style="stroke:#A80036;stroke-width:1.0;stroke-dasharray:2.0,2.0;" x1="1050" x2="1795" y1="255.7188" y2="255.7188"/><text fill="#000000" font-family="sans-serif" font-size="13" font-weight="bold" lengthAdjust="spacing" textLength="7" x="1057" y="250.8623">6</text><text fill="#000000" font-family="sans-serif" font-size="13" lengthAdjust="spacing" textLength="721" x="1068" y="250.8623">SnsUser=createSnsUser(Name, Address, Sex, Phone Number, E-mail, Birth Date, SNS User Number, Citizen Card Number)</text><polygon fill="#A80036" points="2447,282.0703,2457,286.0703,2447,290.0703,2451,286.0703" style="stroke:#A80036;stroke-width:1.0;"/><line style="stroke:#A80036;stroke-width:1.0;stroke-dasharray:2.0,2.0;" x1="1811" x2="2453" y1="286.0703" y2="286.0703"/><text fill="#000000" font-family="sans-serif" font-size="13" font-weight="bold" lengthAdjust="spacing" textLength="7" x="1818" y="281.2139">7</text><text fill="#000000" font-family="sans-serif" font-size="13" lengthAdjust="spacing" textLength="613" x="1829" y="281.2139">create(Name, Address, Sex, Phone Number, E-mail, Birth Date, SNS User Number, Citizen Card Number)</text><rect fill="#FEFECE" filter="url(#f17yi4tj5ihiie)" height="31.6094" style="stroke:#A80036;stroke-width:1.5;" width="70" x="2459" y="263.7188"/><text fill="#000000" font-family="sans-serif" font-size="14" lengthAdjust="spacing" textLength="56" x="2466" y="285.252">SNSUser</text><line style="stroke:#A80036;stroke-width:1.0;stroke-dasharray:2.0,2.0;" x1="2506" x2="2548" y1="332.6797" y2="332.6797"/><line style="stroke:#A80036;stroke-width:1.0;stroke-dasharray:2.0,2.0;" x1="2548" x2="2548" y1="332.6797" y2="345.6797"/><line style="stroke:#A80036;stroke-width:1.0;stroke-dasharray:2.0,2.0;" x1="2507" x2="2548" y1="345.6797" y2="345.6797"/><polygon fill="#A80036" points="2517,341.6797,2507,345.6797,2517,349.6797,2513,345.6797" style="stroke:#A80036;stroke-width:1.0;"/><text fill="#000000" font-family="sans-serif" font-size="13" font-weight="bold" lengthAdjust="spacing" textLength="7" x="2513" y="327.8232">8</text><text fill="#000000" font-family="sans-serif" font-size="13" lengthAdjust="spacing" textLength="104" x="2524" y="327.8232">name=getName();</text><polygon fill="#A80036" points="1789,402.0313,1799,406.0313,1789,410.0313,1793,406.0313" style="stroke:#A80036;stroke-width:1.0;"/><line style="stroke:#A80036;stroke-width:1.0;stroke-dasharray:2.0,2.0;" x1="1050" x2="1795" y1="406.0313" y2="406.0313"/><text fill="#000000" font-family="sans-serif" font-size="13" font-weight="bold" lengthAdjust="spacing" textLength="7" x="1057" y="401.1748">9</text><text fill="#000000" font-family="sans-serif" font-size="13" lengthAdjust="spacing" textLength="151" x="1068" y="401.1748">validateSNSUser(snsuser)</text><polygon fill="#A80036" points="2479,432.3828,2489,436.3828,2479,440.3828,2483,436.3828" style="stroke:#A80036;stroke-width:1.0;"/><line style="stroke:#A80036;stroke-width:1.0;stroke-dasharray:2.0,2.0;" x1="1811" x2="2485" y1="436.3828" y2="436.3828"/><text fill="#000000" font-family="sans-serif" font-size="13" font-weight="bold" lengthAdjust="spacing" textLength="14" x="1818" y="431.5264">10</text><text fill="#000000" font-family="sans-serif" font-size="13" lengthAdjust="spacing" textLength="102" x="1836" y="431.5264">email= getEmail()</text><polygon fill="#A80036" points="2618,492.7344,2628,496.7344,2618,500.7344,2622,496.7344" style="stroke:#A80036;stroke-width:1.0;"/><line style="stroke:#A80036;stroke-width:1.0;stroke-dasharray:2.0,2.0;" x1="1811" x2="2624" y1="496.7344" y2="496.7344"/><text fill="#000000" font-family="sans-serif" font-size="13" font-weight="bold" lengthAdjust="spacing" textLength="14" x="1818" y="491.8779">11</text><text fill="#000000" font-family="sans-serif" font-size="13" lengthAdjust="spacing" textLength="120" x="1836" y="491.8779">e= existsUser(email)</text><line style="stroke:#A80036;stroke-width:1.0;stroke-dasharray:2.0,2.0;" x1="1816" x2="1858" y1="557.0859" y2="557.0859"/><line style="stroke:#A80036;stroke-width:1.0;stroke-dasharray:2.0,2.0;" x1="1858" x2="1858" y1="557.0859" y2="570.0859"/><line style="stroke:#A80036;stroke-width:1.0;stroke-dasharray:2.0,2.0;" x1="1817" x2="1858" y1="570.0859" y2="570.0859"/><polygon fill="#A80036" points="1827,566.0859,1817,570.0859,1827,574.0859,1823,570.0859" style="stroke:#A80036;stroke-width:1.0;"/><text fill="#000000" font-family="sans-serif" font-size="13" font-weight="bold" lengthAdjust="spacing" textLength="14" x="1823" y="552.2295">12</text><text fill="#000000" font-family="sans-serif" font-size="13" lengthAdjust="spacing" textLength="142" x="1841" y="552.2295">checksDuplicates(email)</text><polygon fill="#A80036" points="69,626.4375,59,630.4375,69,634.4375,65,630.4375" style="stroke:#A80036;stroke-width:1.0;"/><line style="stroke:#A80036;stroke-width:1.0;stroke-dasharray:2.0,2.0;" x1="63" x2="343" y1="630.4375" y2="630.4375"/><text fill="#000000" font-family="sans-serif" font-size="13" font-weight="bold" lengthAdjust="spacing" textLength="14" x="75" y="625.5811">13</text><text fill="#000000" font-family="sans-serif" font-size="13" lengthAdjust="spacing" textLength="239" x="93" y="625.5811">Shows the data and asks for confirmation</text><polygon fill="#A80036" points="327,656.7891,337,660.7891,327,664.7891,331,660.7891" style="stroke:#A80036;stroke-width:1.0;"/><line style="stroke:#A80036;stroke-width:1.0;stroke-dasharray:2.0,2.0;" x1="58" x2="333" y1="660.7891" y2="660.7891"/><text fill="#000000" font-family="sans-serif" font-size="13" font-weight="bold" lengthAdjust="spacing" textLength="14" x="65" y="655.9326">14</text><text fill="#000000" font-family="sans-serif" font-size="13" lengthAdjust="spacing" textLength="102" x="83" y="655.9326">Confirms the data</text><polygon fill="#A80036" points="1028,687.1406,1038,691.1406,1028,695.1406,1032,691.1406" style="stroke:#A80036;stroke-width:1.0;"/><line style="stroke:#A80036;stroke-width:1.0;stroke-dasharray:2.0,2.0;" x1="349" x2="1034" y1="691.1406" y2="691.1406"/><text fill="#000000" font-family="sans-serif" font-size="13" font-weight="bold" lengthAdjust="spacing" textLength="14" x="356" y="686.2842">15</text><text fill="#000000" font-family="sans-serif" font-size="13" lengthAdjust="spacing" textLength="86" x="374" y="686.2842">saveNewUser()</text><polygon fill="#A80036" points="1789,717.4922,1799,721.4922,1789,725.4922,1793,721.4922" style="stroke:#A80036;stroke-width:1.0;"/><line style="stroke:#A80036;stroke-width:1.0;stroke-dasharray:2.0,2.0;" x1="1050" x2="1795" y1="721.4922" y2="721.4922"/><text fill="#000000" font-family="sans-serif" font-size="13" font-weight="bold" lengthAdjust="spacing" textLength="14" x="1057" y="716.6357">16</text><text fill="#000000" font-family="sans-serif" font-size="13" lengthAdjust="spacing" textLength="132" x="1075" y="716.6357">saveNewUser(snsuser)</text><line style="stroke:#A80036;stroke-width:1.0;stroke-dasharray:2.0,2.0;" x1="1816" x2="1858" y1="751.8438" y2="751.8438"/><line style="stroke:#A80036;stroke-width:1.0;stroke-dasharray:2.0,2.0;" x1="1858" x2="1858" y1="751.8438" y2="764.8438"/><line style="stroke:#A80036;stroke-width:1.0;stroke-dasharray:2.0,2.0;" x1="1817" x2="1858" y1="764.8438" y2="764.8438"/><polygon fill="#A80036" points="1827,760.8438,1817,764.8438,1827,768.8438,1823,764.8438" style="stroke:#A80036;stroke-width:1.0;"/><text fill="#000000" font-family="sans-serif" font-size="13" font-weight="bold" lengthAdjust="spacing" textLength="14" x="1823" y="746.9873">17</text><text fill="#000000" font-family="sans-serif" font-size="13" lengthAdjust="spacing" textLength="151" x="1841" y="746.9873">validateSNSUser(snsuser)</text><polygon fill="#A80036" points="2479,821.1953,2489,825.1953,2479,829.1953,2483,825.1953" style="stroke:#A80036;stroke-width:1.0;"/><line style="stroke:#A80036;stroke-width:1.0;stroke-dasharray:2.0,2.0;" x1="1811" x2="2485" y1="825.1953" y2="825.1953"/><text fill="#000000" font-family="sans-serif" font-size="13" font-weight="bold" lengthAdjust="spacing" textLength="14" x="1818" y="820.3389">18</text><text fill="#000000" font-family="sans-serif" font-size="13" lengthAdjust="spacing" textLength="98" x="1836" y="820.3389">email=getEmail()</text><polygon fill="#A80036" points="2479,881.5469,2489,885.5469,2479,889.5469,2483,885.5469" style="stroke:#A80036;stroke-width:1.0;"/><line style="stroke:#A80036;stroke-width:1.0;stroke-dasharray:2.0,2.0;" x1="1811" x2="2485" y1="885.5469" y2="885.5469"/><text fill="#000000" font-family="sans-serif" font-size="13" font-weight="bold" lengthAdjust="spacing" textLength="14" x="1818" y="880.6904">19</text><text fill="#000000" font-family="sans-serif" font-size="13" lengthAdjust="spacing" textLength="104" x="1836" y="880.6904">name= getName()</text><line style="stroke:#A80036;stroke-width:1.0;stroke-dasharray:2.0,2.0;" x1="1816" x2="1858" y1="945.8984" y2="945.8984"/><line style="stroke:#A80036;stroke-width:1.0;stroke-dasharray:2.0,2.0;" x1="1858" x2="1858" y1="945.8984" y2="958.8984"/><line style="stroke:#A80036;stroke-width:1.0;stroke-dasharray:2.0,2.0;" x1="1817" x2="1858" y1="958.8984" y2="958.8984"/><polygon fill="#A80036" points="1827,954.8984,1817,958.8984,1827,962.8984,1823,958.8984" style="stroke:#A80036;stroke-width:1.0;"/><text fill="#000000" font-family="sans-serif" font-size="13" font-weight="bold" lengthAdjust="spacing" textLength="14" x="1823" y="941.042">20</text><text fill="#000000" font-family="sans-serif" font-size="13" lengthAdjust="spacing" textLength="182" x="1841" y="941.042">password= generatePassword()</text><polygon fill="#A80036" points="2479,1015.25,2489,1019.25,2479,1023.25,2483,1019.25" style="stroke:#A80036;stroke-width:1.0;"/><line style="stroke:#A80036;stroke-width:1.0;stroke-dasharray:2.0,2.0;" x1="1811" x2="2485" y1="1019.25" y2="1019.25"/><text fill="#000000" font-family="sans-serif" font-size="13" font-weight="bold" lengthAdjust="spacing" textLength="14" x="1818" y="1014.3936">21</text><text fill="#000000" font-family="sans-serif" font-size="13" lengthAdjust="spacing" textLength="211" x="1836" y="1014.3936">b= AddUser(email, name, password)</text><line style="stroke:#A80036;stroke-width:1.0;stroke-dasharray:2.0,2.0;" x1="1816" x2="1858" y1="1079.6016" y2="1079.6016"/><line style="stroke:#A80036;stroke-width:1.0;stroke-dasharray:2.0,2.0;" x1="1858" x2="1858" y1="1079.6016" y2="1092.6016"/><line style="stroke:#A80036;stroke-width:1.0;stroke-dasharray:2.0,2.0;" x1="1817" x2="1858" y1="1092.6016" y2="1092.6016"/><polygon fill="#A80036" points="1827,1088.6016,1817,1092.6016,1827,1096.6016,1823,1092.6016" style="stroke:#A80036;stroke-width:1.0;"/><text fill="#000000" font-family="sans-serif" font-size="13" font-weight="bold" lengthAdjust="spacing" textLength="14" x="1823" y="1074.7451">22</text><text fill="#000000" font-family="sans-serif" font-size="13" lengthAdjust="spacing" textLength="131" x="1841" y="1074.7451">AddSNSUser(snsuser)</text><line style="stroke:#A80036;stroke-width:1.0;stroke-dasharray:2.0,2.0;" x1="1816" x2="1858" y1="1152.9531" y2="1152.9531"/><line style="stroke:#A80036;stroke-width:1.0;stroke-dasharray:2.0,2.0;" x1="1858" x2="1858" y1="1152.9531" y2="1165.9531"/><line style="stroke:#A80036;stroke-width:1.0;stroke-dasharray:2.0,2.0;" x1="1817" x2="1858" y1="1165.9531" y2="1165.9531"/><polygon fill="#A80036" points="1827,1161.9531,1817,1165.9531,1827,1169.9531,1823,1165.9531" style="stroke:#A80036;stroke-width:1.0;"/><text fill="#000000" font-family="sans-serif" font-size="13" font-weight="bold" lengthAdjust="spacing" textLength="14" x="1823" y="1148.0967">23</text><text fill="#000000" font-family="sans-serif" font-size="13" lengthAdjust="spacing" textLength="192" x="1841" y="1148.0967">sendConfirmation(user,password)</text><polygon fill="#A80036" points="69,1222.3047,59,1226.3047,69,1230.3047,65,1226.3047" style="stroke:#A80036;stroke-width:1.0;"/><line style="stroke:#A80036;stroke-width:1.0;stroke-dasharray:2.0,2.0;" x1="63" x2="338" y1="1226.3047" y2="1226.3047"/><text fill="#000000" font-family="sans-serif" font-size="13" font-weight="bold" lengthAdjust="spacing" textLength="14" x="75" y="1221.4482">24</text><text fill="#000000" font-family="sans-serif" font-size="13" lengthAdjust="spacing" textLength="152" x="93" y="1221.4482">Informs operation success</text><!--MD5=[8bac4bd40f1e1a2fcba5c2b85ee6149f]
@startuml
'https://plantuml.com/sequence-diagram

autonumber

activate "Receptionist"
activate "AddUserUI"
"Receptionist" -> "AddUserUI": Starts the register of SNS User
"AddUserUI" - -> "Receptionist": Requests the data
deactivate "AddUserUI"

Receptionist - -> AddUserUI: Types the data
activate "AddUserUI"
AddUserUI - -> AddUserController: createNewUser(Name, Address, Sex, Phone Number, E-mail, Birth Date, SNS User Number,Citizen Card Number)
activate "AddUserController"
"AddUserController"- -> Company: store= getSNSUserStore()
activate Company
deactivate Company
"AddUserController"- ->"SNSUserSto": SnsUser=createSnsUser(Name, Address, Sex, Phone Number, E-mail, Birth Date, SNS User Number, Citizen Card Number)
activate SNSUserSto
SNSUserSto- -> SNSUser**:create(Name, Address, Sex, Phone Number, E-mail, Birth Date, SNS User Number, Citizen Card Number)
activate SNSUser
SNSUser- ->SNSUser:name=getName();
activate SNSUser
deactivate SNSUser
deactivate SNSUser
deactivate SNSUserSto
"AddUserController"- ->SNSUserSto:validateSNSUser(snsuser)
activate SNSUserSto
SNSUserSto- ->SNSUser: email= getEmail()
activate SNSUser
deactivate SNSUser
SNSUserSto- -> AuthFacade: e= existsUser(email)
activate AuthFacade
deactivate AuthFacade
SNSUserSto- ->SNSUserSto: checksDuplicates(email)
activate SNSUserSto
deactivate SNSUserSto
deactivate AuthFacade
deactivate SNSUserSto
"AddUserUI" - -> Receptionist : Shows the data and asks for confirmation
deactivate "AddUserUI"
deactivate "AddUserController"
"Receptionist"- -> "AddUserUI": Confirms the data
activate "AddUserUI"
"AddUserUI"- ->"AddUserController": saveNewUser()
activate "AddUserController"
"AddUserController"- ->SNSUserSto: saveNewUser(snsuser)
activate SNSUserSto
SNSUserSto- -> SNSUserSto: validateSNSUser(snsuser)
activate SNSUserSto
deactivate SNSUserSto
SNSUserSto- -> SNSUser:email=getEmail()
activate SNSUser
deactivate SNSUser
SNSUserSto- ->SNSUser: name= getName()
activate SNSUser
deactivate SNSUser
SNSUserSto- ->SNSUserSto: password= generatePassword()
activate SNSUserSto
deactivate SNSUserSto
SNSUserSto- ->SNSUser: b= AddUser(email, name, password)
activate SNSUser
deactivate SNSUser
SNSUserSto- -> SNSUserSto: AddSNSUser(snsuser)
activate SNSUserSto
deactivate SNSUserSto
SNSUserSto- -> SNSUserSto: sendConfirmation(user,password)
activate SNSUserSto
deactivate SNSUserSto

"AddUserUI"- ->"Receptionist": Informs operation success




@enduml

@startuml

autonumber

activate "Receptionist"
activate "AddUserUI"
"Receptionist" -> "AddUserUI": Starts the register of SNS User
"AddUserUI" - -> "Receptionist": Requests the data
deactivate "AddUserUI"

Receptionist - -> AddUserUI: Types the data
activate "AddUserUI"
AddUserUI - -> AddUserController: createNewUser(Name, Address, Sex, Phone Number, E-mail, Birth Date, SNS User Number,Citizen Card Number)
activate "AddUserController"
"AddUserController"- -> Company: store= getSNSUserStore()
activate Company
deactivate Company
"AddUserController"- ->"SNSUserSto": SnsUser=createSnsUser(Name, Address, Sex, Phone Number, E-mail, Birth Date, SNS User Number, Citizen Card Number)
activate SNSUserSto
SNSUserSto- -> SNSUser**:create(Name, Address, Sex, Phone Number, E-mail, Birth Date, SNS User Number, Citizen Card Number)
activate SNSUser
SNSUser- ->SNSUser:name=getName();
activate SNSUser
deactivate SNSUser
deactivate SNSUser
deactivate SNSUserSto
"AddUserController"- ->SNSUserSto:validateSNSUser(snsuser)
activate SNSUserSto
SNSUserSto- ->SNSUser: email= getEmail()
activate SNSUser
deactivate SNSUser
SNSUserSto- -> AuthFacade: e= existsUser(email)
activate AuthFacade
deactivate AuthFacade
SNSUserSto- ->SNSUserSto: checksDuplicates(email)
activate SNSUserSto
deactivate SNSUserSto
deactivate AuthFacade
deactivate SNSUserSto
"AddUserUI" - -> Receptionist : Shows the data and asks for confirmation
deactivate "AddUserUI"
deactivate "AddUserController"
"Receptionist"- -> "AddUserUI": Confirms the data
activate "AddUserUI"
"AddUserUI"- ->"AddUserController": saveNewUser()
activate "AddUserController"
"AddUserController"- ->SNSUserSto: saveNewUser(snsuser)
activate SNSUserSto
SNSUserSto- -> SNSUserSto: validateSNSUser(snsuser)
activate SNSUserSto
deactivate SNSUserSto
SNSUserSto- -> SNSUser:email=getEmail()
activate SNSUser
deactivate SNSUser
SNSUserSto- ->SNSUser: name= getName()
activate SNSUser
deactivate SNSUser
SNSUserSto- ->SNSUserSto: password= generatePassword()
activate SNSUserSto
deactivate SNSUserSto
SNSUserSto- ->SNSUser: b= AddUser(email, name, password)
activate SNSUser
deactivate SNSUser
SNSUserSto- -> SNSUserSto: AddSNSUser(snsuser)
activate SNSUserSto
deactivate SNSUserSto
SNSUserSto- -> SNSUserSto: sendConfirmation(user,password)
activate SNSUserSto
deactivate SNSUserSto

"AddUserUI"- ->"Receptionist": Informs operation success




@enduml

PlantUML version 1.2022.1(Tue Feb 01 18:19:58 GMT 2022)
(GPL source distribution)
Java Runtime: OpenJDK Runtime Environment
JVM: OpenJDK 64-Bit Server VM
Default Encoding: Cp1252
Language: pt
Country: PT
--></g></svg>