<?xml version="1.0" encoding="UTF-8" standalone="no"?><svg xmlns="http://www.w3.org/2000/svg" xmlns:xlink="http://www.w3.org/1999/xlink" contentStyleType="text/css" height="596px" preserveAspectRatio="none" style="width:632px;height:596px;background:#FFFFFF;" version="1.1" viewBox="0 0 632 596" width="632px" zoomAndPan="magnify"><defs/><g><!--MD5=[02e4b9b7573f1156f41e60aa5b4e25a4]
class Company--><g id="elem_Company"><rect codeLine="5" fill="#F1F1F1" height="83.2188" id="Company" rx="2.5" ry="2.5" style="stroke:#181818;stroke-width:0.5;" width="172" x="277" y="7"/><ellipse cx="328.75" cy="23" fill="#ADD1B2" rx="11" ry="11" style="stroke:#181818;stroke-width:1.0;"/><path d="M330.75,19.5 Q330.9531,19 331.1875,18.75 Q331.4219,18.5 331.6875,18.5 Q332.1563,18.5 332.4531,18.7813 Q332.75,19.0625 332.75,19.7188 L332.75,21.2813 Q332.75,21.9375 332.4688,22.2188 Q332.1875,22.5 331.75,22.5 Q331.3594,22.5 331.1094,22.3281 Q330.8594,22.1563 330.75,21.7031 Q330.7031,21.3906 330.5313,21.2188 Q330.2188,20.8906 329.6563,20.7031 Q329.0938,20.5 328.5313,20.5 Q327.8281,20.5 327.2344,20.7813 Q326.6563,21.0625 326.2031,21.6875 Q325.75,22.3125 325.75,23.1719 L325.75,24.0938 Q325.75,25.125 326.5938,25.8125 Q327.4375,26.5 328.9375,26.5 Q329.8281,26.5 330.4531,26.2969 Q330.8125,26.1875 331.2188,25.8281 Q331.4844,25.625 331.625,25.5625 Q331.7656,25.5 331.9375,25.5 Q332.2656,25.5 332.5,25.7656 Q332.75,26.0156 332.75,26.375 Q332.75,26.7188 332.4063,27.125 Q331.9063,27.7188 331.1094,28.0469 Q330.0625,28.5 328.7813,28.5 Q327.2813,28.5 326.0781,27.9063 Q325.1094,27.4375 324.4219,26.4219 Q323.75,25.4063 323.75,24.2031 L323.75,23.1094 Q323.75,21.8594 324.3438,20.7656 Q324.9531,19.6719 326,19.0938 Q327.0625,18.5 328.25,18.5 Q328.9688,18.5 329.5938,18.75 Q330.2188,19 330.75,19.5 Z " fill="#000000"/><text fill="#000000" font-family="sans-serif" font-size="14" lengthAdjust="spacing" textLength="60" x="349.25" y="28.7285">Company</text><line style="stroke:#181818;stroke-width:0.5;" x1="278" x2="448" y1="39" y2="39"/><rect fill="none" height="6" style="stroke:#C82930;stroke-width:1.0;" width="6" x="285" y="47"/><text fill="#000000" font-family="sans-serif" font-size="14" lengthAdjust="spacing" textLength="73" x="297" y="57.5332">designation</text><line style="stroke:#181818;stroke-width:0.5;" x1="278" x2="448" y1="64.6094" y2="64.6094"/><ellipse cx="288" cy="75.6094" fill="#84BE84" rx="3" ry="3" style="stroke:#038048;stroke-width:1.0;"/><text fill="#000000" font-family="sans-serif" font-size="14" lengthAdjust="spacing" textLength="146" x="297" y="83.1426">getVaccineTypeStore()</text></g><!--MD5=[654b6611eea81d902b04013993589538]
class SpecifyNewVaccineTypeController--><g id="elem_SpecifyNewVaccineTypeController"><rect codeLine="10" fill="#F1F1F1" height="83.2188" id="SpecifyNewVaccineTypeController" rx="2.5" ry="2.5" style="stroke:#181818;stroke-width:0.5;" width="306" x="106" y="150"/><ellipse cx="147.1" cy="166" fill="#ADD1B2" rx="11" ry="11" style="stroke:#181818;stroke-width:1.0;"/><path d="M149.1,162.5 Q149.3031,162 149.5375,161.75 Q149.7719,161.5 150.0375,161.5 Q150.5063,161.5 150.8031,161.7813 Q151.1,162.0625 151.1,162.7188 L151.1,164.2813 Q151.1,164.9375 150.8188,165.2188 Q150.5375,165.5 150.1,165.5 Q149.7094,165.5 149.4594,165.3281 Q149.2094,165.1563 149.1,164.7031 Q149.0531,164.3906 148.8813,164.2188 Q148.5688,163.8906 148.0063,163.7031 Q147.4438,163.5 146.8813,163.5 Q146.1781,163.5 145.5844,163.7813 Q145.0063,164.0625 144.5531,164.6875 Q144.1,165.3125 144.1,166.1719 L144.1,167.0938 Q144.1,168.125 144.9438,168.8125 Q145.7875,169.5 147.2875,169.5 Q148.1781,169.5 148.8031,169.2969 Q149.1625,169.1875 149.5688,168.8281 Q149.8344,168.625 149.975,168.5625 Q150.1156,168.5 150.2875,168.5 Q150.6156,168.5 150.85,168.7656 Q151.1,169.0156 151.1,169.375 Q151.1,169.7188 150.7563,170.125 Q150.2563,170.7188 149.4594,171.0469 Q148.4125,171.5 147.1313,171.5 Q145.6313,171.5 144.4281,170.9063 Q143.4594,170.4375 142.7719,169.4219 Q142.1,168.4063 142.1,167.2031 L142.1,166.1094 Q142.1,164.8594 142.6938,163.7656 Q143.3031,162.6719 144.35,162.0938 Q145.4125,161.5 146.6,161.5 Q147.3188,161.5 147.9438,161.75 Q148.5688,162 149.1,162.5 Z " fill="#000000"/><text fill="#000000" font-family="sans-serif" font-size="14" lengthAdjust="spacing" textLength="216" x="166.9" y="171.7285">SpecifyNewVaccineTypeController</text><line style="stroke:#181818;stroke-width:0.5;" x1="107" x2="411" y1="182" y2="182"/><line style="stroke:#181818;stroke-width:0.5;" x1="107" x2="411" y1="190" y2="190"/><ellipse cx="117" cy="201" fill="#84BE84" rx="3" ry="3" style="stroke:#038048;stroke-width:1.0;"/><text fill="#000000" font-family="sans-serif" font-size="14" lengthAdjust="spacing" textLength="280" x="126" y="208.5332">createVaccineType(code,designation,whold)</text><ellipse cx="117" cy="218.6094" fill="#84BE84" rx="3" ry="3" style="stroke:#038048;stroke-width:1.0;"/><text fill="#000000" font-family="sans-serif" font-size="14" lengthAdjust="spacing" textLength="122" x="126" y="226.1426">saveVaccineType()</text></g><!--MD5=[5d1d7a5288013f6c79538ea633b579ef]
class SpecifyNewVaccineTypeUI--><g id="elem_SpecifyNewVaccineTypeUI"><rect codeLine="15" fill="#F1F1F1" height="48" id="SpecifyNewVaccineTypeUI" rx="2.5" ry="2.5" style="stroke:#181818;stroke-width:0.5;" width="198" x="7" y="328"/><ellipse cx="22" cy="344" fill="#ADD1B2" rx="11" ry="11" style="stroke:#181818;stroke-width:1.0;"/><path d="M24,340.5 Q24.2031,340 24.4375,339.75 Q24.6719,339.5 24.9375,339.5 Q25.4063,339.5 25.7031,339.7813 Q26,340.0625 26,340.7188 L26,342.2813 Q26,342.9375 25.7188,343.2188 Q25.4375,343.5 25,343.5 Q24.6094,343.5 24.3594,343.3281 Q24.1094,343.1563 24,342.7031 Q23.9531,342.3906 23.7813,342.2188 Q23.4688,341.8906 22.9063,341.7031 Q22.3438,341.5 21.7813,341.5 Q21.0781,341.5 20.4844,341.7813 Q19.9063,342.0625 19.4531,342.6875 Q19,343.3125 19,344.1719 L19,345.0938 Q19,346.125 19.8438,346.8125 Q20.6875,347.5 22.1875,347.5 Q23.0781,347.5 23.7031,347.2969 Q24.0625,347.1875 24.4688,346.8281 Q24.7344,346.625 24.875,346.5625 Q25.0156,346.5 25.1875,346.5 Q25.5156,346.5 25.75,346.7656 Q26,347.0156 26,347.375 Q26,347.7188 25.6563,348.125 Q25.1563,348.7188 24.3594,349.0469 Q23.3125,349.5 22.0313,349.5 Q20.5313,349.5 19.3281,348.9063 Q18.3594,348.4375 17.6719,347.4219 Q17,346.4063 17,345.2031 L17,344.1094 Q17,342.8594 17.5938,341.7656 Q18.2031,340.6719 19.25,340.0938 Q20.3125,339.5 21.5,339.5 Q22.2188,339.5 22.8438,339.75 Q23.4688,340 24,340.5 Z " fill="#000000"/><text fill="#000000" font-family="sans-serif" font-size="14" lengthAdjust="spacing" textLength="166" x="36" y="349.7285">SpecifyNewVaccineTypeUI</text><line style="stroke:#181818;stroke-width:0.5;" x1="8" x2="204" y1="360" y2="360"/><line style="stroke:#181818;stroke-width:0.5;" x1="8" x2="204" y1="368" y2="368"/></g><!--MD5=[0e501da62322464167c8ec4d233a6b7e]
class VaccineType--><g id="elem_VaccineType"><rect codeLine="19" fill="#F1F1F1" height="118.4375" id="VaccineType" rx="2.5" ry="2.5" style="stroke:#181818;stroke-width:0.5;" width="274" x="226" y="471"/><ellipse cx="317.75" cy="487" fill="#ADD1B2" rx="11" ry="11" style="stroke:#181818;stroke-width:1.0;"/><path d="M319.75,483.5 Q319.9531,483 320.1875,482.75 Q320.4219,482.5 320.6875,482.5 Q321.1563,482.5 321.4531,482.7813 Q321.75,483.0625 321.75,483.7188 L321.75,485.2813 Q321.75,485.9375 321.4688,486.2188 Q321.1875,486.5 320.75,486.5 Q320.3594,486.5 320.1094,486.3281 Q319.8594,486.1563 319.75,485.7031 Q319.7031,485.3906 319.5313,485.2188 Q319.2188,484.8906 318.6563,484.7031 Q318.0938,484.5 317.5313,484.5 Q316.8281,484.5 316.2344,484.7813 Q315.6563,485.0625 315.2031,485.6875 Q314.75,486.3125 314.75,487.1719 L314.75,488.0938 Q314.75,489.125 315.5938,489.8125 Q316.4375,490.5 317.9375,490.5 Q318.8281,490.5 319.4531,490.2969 Q319.8125,490.1875 320.2188,489.8281 Q320.4844,489.625 320.625,489.5625 Q320.7656,489.5 320.9375,489.5 Q321.2656,489.5 321.5,489.7656 Q321.75,490.0156 321.75,490.375 Q321.75,490.7188 321.4063,491.125 Q320.9063,491.7188 320.1094,492.0469 Q319.0625,492.5 317.7813,492.5 Q316.2813,492.5 315.0781,491.9063 Q314.1094,491.4375 313.4219,490.4219 Q312.75,489.4063 312.75,488.2031 L312.75,487.1094 Q312.75,485.8594 313.3438,484.7656 Q313.9531,483.6719 315,483.0938 Q316.0625,482.5 317.25,482.5 Q317.9688,482.5 318.5938,482.75 Q319.2188,483 319.75,483.5 Z " fill="#000000"/><text fill="#000000" font-family="sans-serif" font-size="14" lengthAdjust="spacing" textLength="82" x="338.25" y="492.7285">VaccineType</text><line style="stroke:#181818;stroke-width:0.5;" x1="227" x2="499" y1="503" y2="503"/><rect fill="none" height="6" style="stroke:#C82930;stroke-width:1.0;" width="6" x="234" y="511"/><text fill="#000000" font-family="sans-serif" font-size="14" lengthAdjust="spacing" textLength="31" x="246" y="521.5332">code</text><rect fill="none" height="6" style="stroke:#C82930;stroke-width:1.0;" width="6" x="234" y="528.6094"/><text fill="#000000" font-family="sans-serif" font-size="14" lengthAdjust="spacing" textLength="73" x="246" y="539.1426">designation</text><ellipse cx="237" cy="549.2188" fill="none" rx="3" ry="3" style="stroke:#038048;stroke-width:1.0;"/><text fill="#000000" font-family="sans-serif" font-size="14" lengthAdjust="spacing" textLength="36" x="246" y="556.752">whold</text><line style="stroke:#181818;stroke-width:0.5;" x1="227" x2="499" y1="563.8281" y2="563.8281"/><ellipse cx="237" cy="574.8281" fill="#84BE84" rx="3" ry="3" style="stroke:#038048;stroke-width:1.0;"/><text fill="#000000" font-family="sans-serif" font-size="14" lengthAdjust="spacing" textLength="248" x="246" y="582.3613">VaccineType(code, designation, whold)</text></g><!--MD5=[9532c95099058dfe385d7270fd32fc0d]
class VaccineTypeStore--><g id="elem_VaccineTypeStore"><rect codeLine="26" fill="#F1F1F1" height="118.4375" id="VaccineTypeStore" rx="2.5" ry="2.5" style="stroke:#181818;stroke-width:0.5;" width="314" x="311" y="293"/><ellipse cx="405.75" cy="309" fill="#ADD1B2" rx="11" ry="11" style="stroke:#181818;stroke-width:1.0;"/><path d="M407.75,305.5 Q407.9531,305 408.1875,304.75 Q408.4219,304.5 408.6875,304.5 Q409.1563,304.5 409.4531,304.7813 Q409.75,305.0625 409.75,305.7188 L409.75,307.2813 Q409.75,307.9375 409.4688,308.2188 Q409.1875,308.5 408.75,308.5 Q408.3594,308.5 408.1094,308.3281 Q407.8594,308.1563 407.75,307.7031 Q407.7031,307.3906 407.5313,307.2188 Q407.2188,306.8906 406.6563,306.7031 Q406.0938,306.5 405.5313,306.5 Q404.8281,306.5 404.2344,306.7813 Q403.6563,307.0625 403.2031,307.6875 Q402.75,308.3125 402.75,309.1719 L402.75,310.0938 Q402.75,311.125 403.5938,311.8125 Q404.4375,312.5 405.9375,312.5 Q406.8281,312.5 407.4531,312.2969 Q407.8125,312.1875 408.2188,311.8281 Q408.4844,311.625 408.625,311.5625 Q408.7656,311.5 408.9375,311.5 Q409.2656,311.5 409.5,311.7656 Q409.75,312.0156 409.75,312.375 Q409.75,312.7188 409.4063,313.125 Q408.9063,313.7188 408.1094,314.0469 Q407.0625,314.5 405.7813,314.5 Q404.2813,314.5 403.0781,313.9063 Q402.1094,313.4375 401.4219,312.4219 Q400.75,311.4063 400.75,310.2031 L400.75,309.1094 Q400.75,307.8594 401.3438,306.7656 Q401.9531,305.6719 403,305.0938 Q404.0625,304.5 405.25,304.5 Q405.9688,304.5 406.5938,304.75 Q407.2188,305 407.75,305.5 Z " fill="#000000"/><text fill="#000000" font-family="sans-serif" font-size="14" lengthAdjust="spacing" textLength="116" x="426.25" y="314.7285">VaccineTypeStore</text><line style="stroke:#181818;stroke-width:0.5;" x1="312" x2="624" y1="325" y2="325"/><line style="stroke:#181818;stroke-width:0.5;" x1="312" x2="624" y1="333" y2="333"/><ellipse cx="322" cy="344" fill="#84BE84" rx="3" ry="3" style="stroke:#038048;stroke-width:1.0;"/><text fill="#000000" font-family="sans-serif" font-size="14" lengthAdjust="spacing" textLength="288" x="331" y="351.5332">createVaccineType(code, designation, whold)</text><ellipse cx="322" cy="361.6094" fill="#84BE84" rx="3" ry="3" style="stroke:#038048;stroke-width:1.0;"/><text fill="#000000" font-family="sans-serif" font-size="14" lengthAdjust="spacing" textLength="152" x="331" y="369.1426">validateVaccineType(vt)</text><ellipse cx="322" cy="379.2188" fill="#84BE84" rx="3" ry="3" style="stroke:#038048;stroke-width:1.0;"/><text fill="#000000" font-family="sans-serif" font-size="14" lengthAdjust="spacing" textLength="133" x="331" y="386.752">saveVaccineType(vt)</text><rect fill="#F24D5C" height="6" style="stroke:#C82930;stroke-width:1.0;" width="6" x="319" y="393.8281"/><text fill="#000000" font-family="sans-serif" font-size="14" lengthAdjust="spacing" textLength="127" x="331" y="404.3613">addVaccineType(vt)</text></g><!--MD5=[771cdd68c2bcf0d397c686eec83914d1]
reverse link Company to SpecifyNewVaccineTypeController--><g id="link_Company_SpecifyNewVaccineTypeController"><path codeLine="33" d="M329.64,94.73 C316.59,112.43 301.73,132.57 289.01,149.81 " fill="none" id="Company-backto-SpecifyNewVaccineTypeController" style="stroke:#181818;stroke-width:1.0;stroke-dasharray:7.0,7.0;"/><polygon fill="#181818" points="332.92,90.28,324.3586,95.1486,329.9521,94.3038,330.7968,99.8973,332.92,90.28" style="stroke:#181818;stroke-width:1.0;"/></g><!--MD5=[093d3fabd3a4e29bf43cf850e47d2679]
reverse link SpecifyNewVaccineTypeController to SpecifyNewVaccineTypeUI--><g id="link_SpecifyNewVaccineTypeController_SpecifyNewVaccineTypeUI"><path codeLine="34" d="M215.8,237.25 C187.28,266.8 151.08,304.3 128.22,327.98 " fill="none" id="SpecifyNewVaccineTypeController-backto-SpecifyNewVaccineTypeUI" style="stroke:#181818;stroke-width:1.0;stroke-dasharray:7.0,7.0;"/><polygon fill="#181818" points="219.6,233.32,210.4734,237.0221,216.1293,236.9192,216.2322,242.5751,219.6,233.32" style="stroke:#181818;stroke-width:1.0;"/></g><!--MD5=[d4f5d74c0f21b1fe86c86597e8da5231]
reverse link VaccineTypeStore to Company--><g id="link_VaccineTypeStore_Company"><path codeLine="35" d="M462.58,287.57 C457.55,247.06 447.98,194.06 430,150 C421.44,129.03 408.18,107.87 395.71,90.41 " fill="none" id="VaccineTypeStore-backto-Company" style="stroke:#181818;stroke-width:1.0;"/><polygon fill="#181818" points="463.23,292.95,466.1196,283.5346,462.6292,287.9862,458.1775,284.4959,463.23,292.95" style="stroke:#181818;stroke-width:1.0;"/><text fill="#000000" font-family="sans-serif" font-size="13" lengthAdjust="spacing" textLength="7" x="450.9783" y="282.2682">1</text><text fill="#000000" font-family="sans-serif" font-size="13" lengthAdjust="spacing" textLength="7" x="393.1828" y="111.5578">1</text></g><!--MD5=[d008df8d9f8e445f2ab98a1ffd9c1902]
link VaccineTypeStore to VaccineType--><g id="link_VaccineTypeStore_VaccineType"><path codeLine="36" d="M433.33,411.12 C422.76,428.84 411.09,448.4 400.35,466.4 " fill="none" id="VaccineTypeStore-to-VaccineType" style="stroke:#181818;stroke-width:1.0;"/><polygon fill="#181818" points="397.64,470.94,405.6921,465.2687,400.2062,466.6488,398.8261,461.1628,397.64,470.94" style="stroke:#181818;stroke-width:1.0;"/><text fill="#000000" font-family="sans-serif" font-size="13" lengthAdjust="spacing" textLength="7" x="408.9468" y="432.7901">1</text><text fill="#000000" font-family="sans-serif" font-size="13" lengthAdjust="spacing" textLength="5" x="396.5571" y="460.2569">*</text></g><!--MD5=[09d92d8960d4f74b3a351a289ae43cb9]
link SpecifyNewVaccineTypeController to VaccineTypeStore--><g id="link_SpecifyNewVaccineTypeController_VaccineTypeStore"><path codeLine="37" d="M312.55,233.11 C335.28,250.35 362.27,270.82 387.33,289.82 " fill="none" id="SpecifyNewVaccineTypeController-to-VaccineTypeStore" style="stroke:#181818;stroke-width:1.0;stroke-dasharray:7.0,7.0;"/><polygon fill="#181818" points="391.33,292.86,386.5841,284.23,387.3489,289.8349,381.744,290.5998,391.33,292.86" style="stroke:#181818;stroke-width:1.0;"/></g><!--MD5=[da9ecb8ca0785a59b02b4979cbf94715]
link SpecifyNewVaccineTypeController to VaccineType--><g id="link_SpecifyNewVaccineTypeController_VaccineType"><path codeLine="38" d="M260.72,233.1 C263.65,277.85 271.58,351.39 293,411 C299.79,429.91 309.71,449.17 319.95,466.49 " fill="none" id="SpecifyNewVaccineTypeController-to-VaccineType" style="stroke:#181818;stroke-width:1.0;stroke-dasharray:7.0,7.0;"/><polygon fill="#181818" points="322.56,470.86,321.3978,461.08,320.0043,466.5625,314.5218,465.169,322.56,470.86" style="stroke:#181818;stroke-width:1.0;"/></g><!--MD5=[d769094d046dc13d4cfb30d423021380]
@startuml
'https://plantuml.com/class-diagram



class Company {
-designation
+getVaccineTypeStore()
}

class SpecifyNewVaccineTypeController {
+createVaccineType(code,designation,whold)
+saveVaccineType()
}

class SpecifyNewVaccineTypeUI{
}


class VaccineType{
-code
-designation
+whold
+VaccineType(code, designation, whold)
}

class VaccineTypeStore {
+createVaccineType(code, designation, whold)
+validateVaccineType(vt)
+saveVaccineType(vt)
-addVaccineType(vt)
}

Company <.. SpecifyNewVaccineTypeController
SpecifyNewVaccineTypeController <.. SpecifyNewVaccineTypeUI
VaccineTypeStore "1 " <- - "1" Company
VaccineTypeStore "1   " - -> "*" VaccineType
SpecifyNewVaccineTypeController ..> VaccineTypeStore
SpecifyNewVaccineTypeController ..> VaccineType


@enduml

@startuml



class Company {
-designation
+getVaccineTypeStore()
}

class SpecifyNewVaccineTypeController {
+createVaccineType(code,designation,whold)
+saveVaccineType()
}

class SpecifyNewVaccineTypeUI{
}


class VaccineType{
-code
-designation
+whold
+VaccineType(code, designation, whold)
}

class VaccineTypeStore {
+createVaccineType(code, designation, whold)
+validateVaccineType(vt)
+saveVaccineType(vt)
-addVaccineType(vt)
}

Company <.. SpecifyNewVaccineTypeController
SpecifyNewVaccineTypeController <.. SpecifyNewVaccineTypeUI
VaccineTypeStore "1 " <- - "1" Company
VaccineTypeStore "1   " - -> "*" VaccineType
SpecifyNewVaccineTypeController ..> VaccineTypeStore
SpecifyNewVaccineTypeController ..> VaccineType


@enduml

PlantUML version 1.2022.4(Sat Apr 09 14:29:17 BST 2022)
(GPL source distribution)
Java Runtime: OpenJDK Runtime Environment
JVM: OpenJDK 64-Bit Server VM
Default Encoding: Cp1252
Language: pt
Country: PT
--></g></svg>