<?xml version="1.0" encoding="UTF-8"?>
<!DOCTYPE svg PUBLIC '-//W3C//DTD SVG 1.0//EN'
          'http://www.w3.org/TR/2001/REC-SVG-20010904/DTD/svg10.dtd'>
<svg fill-opacity="0" xmlns:xlink="http://www.w3.org/1999/xlink" color-rendering="auto" color-interpolation="auto" text-rendering="auto" stroke="rgb(0,0,0)" stroke-linecap="square" width="456" stroke-miterlimit="10" shape-rendering="auto" stroke-opacity="0" fill="rgb(0,0,0)" stroke-dasharray="none" font-weight="normal" stroke-width="1" height="290" xmlns="http://www.w3.org/2000/svg" font-family="'Dialog'" font-style="normal" stroke-linejoin="miter" font-size="12px" stroke-dashoffset="0" image-rendering="auto"
><!--Generated by the Batik Graphics2D SVG Generator--><defs id="genericDefs"
  /><g
  ><defs id="defs1"
    ><clipPath clipPathUnits="userSpaceOnUse" id="clipPath1"
      ><path d="M-7 -7 L113 -7 L113 124 L-7 124 L-7 -7 Z"
      /></clipPath
      ><clipPath clipPathUnits="userSpaceOnUse" id="clipPath2"
      ><path d="M0 0 L0 98 L102 98 L102 0 Z"
      /></clipPath
      ><clipPath clipPathUnits="userSpaceOnUse" id="clipPath3"
      ><path d="M0 0 L0 15 L102 15 L102 0 Z"
      /></clipPath
      ><clipPath clipPathUnits="userSpaceOnUse" id="clipPath4"
      ><path d="M-7 -7 L91 -7 L91 79 L-7 79 L-7 -7 Z"
      /></clipPath
      ><clipPath clipPathUnits="userSpaceOnUse" id="clipPath5"
      ><path d="M0 0 L0 53 L80 53 L80 0 Z"
      /></clipPath
      ><clipPath clipPathUnits="userSpaceOnUse" id="clipPath6"
      ><path d="M0 0 L0 15 L80 15 L80 0 Z"
      /></clipPath
      ><clipPath clipPathUnits="userSpaceOnUse" id="clipPath7"
      ><path d="M-7 -7 L111 -7 L111 124 L-7 124 L-7 -7 Z"
      /></clipPath
      ><clipPath clipPathUnits="userSpaceOnUse" id="clipPath8"
      ><path d="M0 0 L0 83 L100 83 L100 0 Z"
      /></clipPath
      ><clipPath clipPathUnits="userSpaceOnUse" id="clipPath9"
      ><path d="M0 0 L0 30 L100 30 L100 0 Z"
      /></clipPath
      ><clipPath clipPathUnits="userSpaceOnUse" id="clipPath10"
      ><path d="M-7 -7 L127 -7 L127 154 L-7 154 L-7 -7 Z"
      /></clipPath
      ><clipPath clipPathUnits="userSpaceOnUse" id="clipPath11"
      ><path d="M0 0 L0 128 L116 128 L116 0 Z"
      /></clipPath
      ><clipPath clipPathUnits="userSpaceOnUse" id="clipPath12"
      ><path d="M0 0 L0 15 L116 15 L116 0 Z"
      /></clipPath
      ><clipPath clipPathUnits="userSpaceOnUse" id="clipPath13"
      ><path d="M0 0 L290 0 L290 104 L0 104 L0 0 Z"
      /></clipPath
      ><clipPath clipPathUnits="userSpaceOnUse" id="clipPath14"
      ><path d="M0 0 L0 104 L290 104 L290 0 Z"
      /></clipPath
      ><clipPath clipPathUnits="userSpaceOnUse" id="clipPath15"
      ><path d="M0 0 L104 0 L104 160 L0 160 L0 0 Z"
      /></clipPath
      ><clipPath clipPathUnits="userSpaceOnUse" id="clipPath16"
      ><path d="M0 0 L0 71 L44 71 L44 86 L0 86 L0 160 L104 160 L104 0 Z"
      /></clipPath
      ><clipPath clipPathUnits="userSpaceOnUse" id="clipPath17"
      ><path d="M0 0 L280 0 L280 104 L0 104 L0 0 Z"
      /></clipPath
      ><clipPath clipPathUnits="userSpaceOnUse" id="clipPath18"
      ><path d="M182 29 L182 44 L93 44 L93 29 ZM0 0 L0 104 L280 104 L280 0 Z"
      /></clipPath
      ><clipPath clipPathUnits="userSpaceOnUse" id="clipPath19"
      ><path d="M-89 -15 L178 -15 L178 30 L-89 30 L-89 -15 Z"
      /></clipPath
      ><clipPath clipPathUnits="userSpaceOnUse" id="clipPath20"
      ><path d="M-100 -15 L200 -15 L200 30 L-100 30 L-100 -15 Z"
      /></clipPath
    ></defs
    ><g fill="white" text-rendering="geometricPrecision" fill-opacity="1" stroke-opacity="1" stroke="white"
    ><rect x="0" width="456" height="290" y="0" stroke="none"
    /></g
    ><g font-size="11px" transform="translate(64,173)" fill-opacity="1" fill="rgb(122,207,245)" text-rendering="geometricPrecision" image-rendering="optimizeQuality" font-family="sans-serif" stroke="rgb(122,207,245)" font-weight="bold" stroke-opacity="1"
    ><rect x="0" width="102" height="113" y="0" clip-path="url(#clipPath1)" stroke="none"
    /></g
    ><g fill-opacity="1" text-rendering="geometricPrecision" stroke="black" stroke-linecap="butt" transform="translate(64,173)" stroke-miterlimit="0" stroke-opacity="1" fill="black" font-weight="bold" font-family="sans-serif" stroke-linejoin="round" font-size="11px" image-rendering="optimizeQuality"
    ><rect fill="none" x="0" width="102" height="113" y="0" clip-path="url(#clipPath1)"
      /><line y2="15" fill="none" x1="0" clip-path="url(#clipPath1)" x2="102" y1="15"
    /></g
    ><g font-size="11px" transform="matrix(1,0,0,1,64,188)" fill-opacity="1" fill="black" text-rendering="geometricPrecision" image-rendering="optimizeQuality" font-family="sans-serif" stroke="black" stroke-opacity="1"
    ><text x="2" xml:space="preserve" y="14" clip-path="url(#clipPath2)" stroke="none"
      >-name</text
    ></g
    ><g font-size="11px" transform="matrix(1,0,0,1,64,188)" fill-opacity="1" fill="black" text-rendering="geometricPrecision" image-rendering="optimizeQuality" font-family="sans-serif" stroke="black" stroke-opacity="1"
    ><text x="2" xml:space="preserve" y="29" clip-path="url(#clipPath2)" stroke="none"
      >-SNS User Number</text
    ></g
    ><g font-size="11px" transform="matrix(1,0,0,1,64,188)" fill-opacity="1" fill="black" text-rendering="geometricPrecision" image-rendering="optimizeQuality" font-family="sans-serif" stroke="black" stroke-opacity="1"
    ><text x="2" xml:space="preserve" y="44" clip-path="url(#clipPath2)" stroke="none"
      >-age</text
    ></g
    ><g font-size="11px" transform="matrix(1,0,0,1,64,188)" fill-opacity="1" fill="black" text-rendering="geometricPrecision" image-rendering="optimizeQuality" font-family="sans-serif" stroke="black" stroke-opacity="1"
    ><text x="2" xml:space="preserve" y="59" clip-path="url(#clipPath2)" stroke="none"
      >-adress</text
    ></g
    ><g font-size="11px" transform="matrix(1,0,0,1,64,188)" fill-opacity="1" fill="black" text-rendering="geometricPrecision" image-rendering="optimizeQuality" font-family="sans-serif" stroke="black" stroke-opacity="1"
    ><text x="2" xml:space="preserve" y="74" clip-path="url(#clipPath2)" stroke="none"
      >-email</text
    ></g
    ><g font-size="11px" transform="matrix(1,0,0,1,64,188)" fill-opacity="1" fill="black" text-rendering="geometricPrecision" image-rendering="optimizeQuality" font-family="sans-serif" stroke="black" stroke-opacity="1"
    ><text x="2" xml:space="preserve" y="89" clip-path="url(#clipPath2)" stroke="none"
      >-phone number</text
    ></g
    ><g font-size="11px" transform="translate(64,173)" fill-opacity="1" fill="black" text-rendering="geometricPrecision" image-rendering="optimizeQuality" font-family="sans-serif" stroke="black" font-weight="bold" stroke-opacity="1"
    ><text x="25" xml:space="preserve" y="12" clip-path="url(#clipPath3)" stroke="none"
      >SNS User</text
    ></g
    ><g font-size="11px" transform="translate(354,195)" fill-opacity="1" fill="rgb(122,207,245)" text-rendering="geometricPrecision" image-rendering="optimizeQuality" font-family="sans-serif" stroke="rgb(122,207,245)" font-weight="bold" stroke-opacity="1"
    ><rect x="0" width="80" height="68" y="0" clip-path="url(#clipPath4)" stroke="none"
    /></g
    ><g fill-opacity="1" text-rendering="geometricPrecision" stroke="black" stroke-linecap="butt" transform="translate(354,195)" stroke-miterlimit="0" stroke-opacity="1" fill="black" font-weight="bold" font-family="sans-serif" stroke-linejoin="round" font-size="11px" image-rendering="optimizeQuality"
    ><rect fill="none" x="0" width="80" height="68" y="0" clip-path="url(#clipPath4)"
      /><line y2="15" fill="none" x1="0" clip-path="url(#clipPath4)" x2="80" y1="15"
    /></g
    ><g font-size="11px" transform="matrix(1,0,0,1,354,210)" fill-opacity="1" fill="black" text-rendering="geometricPrecision" image-rendering="optimizeQuality" font-family="sans-serif" stroke="black" stroke-opacity="1"
    ><text x="2" xml:space="preserve" y="14" clip-path="url(#clipPath5)" stroke="none"
      >-name</text
    ></g
    ><g font-size="11px" transform="matrix(1,0,0,1,354,210)" fill-opacity="1" fill="black" text-rendering="geometricPrecision" image-rendering="optimizeQuality" font-family="sans-serif" stroke="black" stroke-opacity="1"
    ><text x="2" xml:space="preserve" y="29" clip-path="url(#clipPath5)" stroke="none"
      >-email</text
    ></g
    ><g font-size="11px" transform="matrix(1,0,0,1,354,210)" fill-opacity="1" fill="black" text-rendering="geometricPrecision" image-rendering="optimizeQuality" font-family="sans-serif" stroke="black" stroke-opacity="1"
    ><text x="2" xml:space="preserve" y="44" clip-path="url(#clipPath5)" stroke="none"
      >-password</text
    ></g
    ><g font-size="11px" transform="translate(354,195)" fill-opacity="1" fill="black" text-rendering="geometricPrecision" image-rendering="optimizeQuality" font-family="sans-serif" stroke="black" font-weight="bold" stroke-opacity="1"
    ><text x="27" xml:space="preserve" y="12" clip-path="url(#clipPath6)" stroke="none"
      >User</text
    ></g
    ><g font-size="11px" transform="translate(58,2)" fill-opacity="1" fill="rgb(122,207,245)" text-rendering="geometricPrecision" image-rendering="optimizeQuality" font-family="sans-serif" stroke="rgb(122,207,245)" font-weight="bold" stroke-opacity="1"
    ><rect x="0" width="100" height="113" y="0" clip-path="url(#clipPath7)" stroke="none"
    /></g
    ><g fill-opacity="1" text-rendering="geometricPrecision" stroke="black" stroke-linecap="butt" transform="translate(58,2)" stroke-miterlimit="0" stroke-opacity="1" fill="black" font-weight="bold" font-family="sans-serif" stroke-linejoin="round" font-size="11px" image-rendering="optimizeQuality"
    ><rect fill="none" x="0" width="100" height="113" y="0" clip-path="url(#clipPath7)"
      /><line y2="30" fill="none" x1="0" clip-path="url(#clipPath7)" x2="100" y1="30"
    /></g
    ><g font-size="11px" transform="matrix(1,0,0,1,58,32)" fill-opacity="1" fill="black" text-rendering="geometricPrecision" image-rendering="optimizeQuality" font-family="sans-serif" stroke="black" stroke-opacity="1"
    ><text x="2" xml:space="preserve" y="14" clip-path="url(#clipPath8)" stroke="none"
      >-SNS User number</text
    ></g
    ><g font-size="11px" transform="matrix(1,0,0,1,58,32)" fill-opacity="1" fill="black" text-rendering="geometricPrecision" image-rendering="optimizeQuality" font-family="sans-serif" stroke="black" stroke-opacity="1"
    ><text x="2" xml:space="preserve" y="29" clip-path="url(#clipPath8)" stroke="none"
      >-vaccination center</text
    ></g
    ><g font-size="11px" transform="matrix(1,0,0,1,58,32)" fill-opacity="1" fill="black" text-rendering="geometricPrecision" image-rendering="optimizeQuality" font-family="sans-serif" stroke="black" stroke-opacity="1"
    ><text x="2" xml:space="preserve" y="44" clip-path="url(#clipPath8)" stroke="none"
      >-Date</text
    ></g
    ><g font-size="11px" transform="matrix(1,0,0,1,58,32)" fill-opacity="1" fill="black" text-rendering="geometricPrecision" image-rendering="optimizeQuality" font-family="sans-serif" stroke="black" stroke-opacity="1"
    ><text x="2" xml:space="preserve" y="59" clip-path="url(#clipPath8)" stroke="none"
      >-Time</text
    ></g
    ><g font-size="11px" transform="matrix(1,0,0,1,58,32)" fill-opacity="1" fill="black" text-rendering="geometricPrecision" image-rendering="optimizeQuality" font-family="sans-serif" stroke="black" stroke-opacity="1"
    ><text x="2" xml:space="preserve" y="74" clip-path="url(#clipPath8)" stroke="none"
      >-Vaccine</text
    ></g
    ><g font-size="11px" transform="translate(58,2)" fill-opacity="1" fill="black" text-rendering="geometricPrecision" image-rendering="optimizeQuality" font-family="sans-serif" stroke="black" font-weight="bold" stroke-opacity="1"
    ><text x="28" xml:space="preserve" y="12" clip-path="url(#clipPath9)" stroke="none"
      >Vaccine</text
      ><text x="25" xml:space="preserve" y="27" clip-path="url(#clipPath9)" stroke="none"
      >Schedule</text
    ></g
    ><g font-size="11px" transform="translate(336,2)" fill-opacity="1" fill="rgb(122,207,245)" text-rendering="geometricPrecision" image-rendering="optimizeQuality" font-family="sans-serif" stroke="rgb(122,207,245)" font-weight="bold" stroke-opacity="1"
    ><rect x="0" width="116" height="143" y="0" clip-path="url(#clipPath10)" stroke="none"
    /></g
    ><g fill-opacity="1" text-rendering="geometricPrecision" stroke="black" stroke-linecap="butt" transform="translate(336,2)" stroke-miterlimit="0" stroke-opacity="1" fill="black" font-weight="bold" font-family="sans-serif" stroke-linejoin="round" font-size="11px" image-rendering="optimizeQuality"
    ><rect fill="none" x="0" width="116" height="143" y="0" clip-path="url(#clipPath10)"
      /><line y2="15" fill="none" x1="0" clip-path="url(#clipPath10)" x2="116" y1="15"
    /></g
    ><g font-size="11px" transform="matrix(1,0,0,1,336,17)" fill-opacity="1" fill="black" text-rendering="geometricPrecision" image-rendering="optimizeQuality" font-family="sans-serif" stroke="black" stroke-opacity="1"
    ><text x="2" xml:space="preserve" y="14" clip-path="url(#clipPath11)" stroke="none"
      >-name</text
    ></g
    ><g font-size="11px" transform="matrix(1,0,0,1,336,17)" fill-opacity="1" fill="black" text-rendering="geometricPrecision" image-rendering="optimizeQuality" font-family="sans-serif" stroke="black" stroke-opacity="1"
    ><text x="2" xml:space="preserve" y="29" clip-path="url(#clipPath11)" stroke="none"
      >-adress</text
    ></g
    ><g font-size="11px" transform="matrix(1,0,0,1,336,17)" fill-opacity="1" fill="black" text-rendering="geometricPrecision" image-rendering="optimizeQuality" font-family="sans-serif" stroke="black" stroke-opacity="1"
    ><text x="2" xml:space="preserve" y="44" clip-path="url(#clipPath11)" stroke="none"
      >-phone</text
    ></g
    ><g font-size="11px" transform="matrix(1,0,0,1,336,17)" fill-opacity="1" fill="black" text-rendering="geometricPrecision" image-rendering="optimizeQuality" font-family="sans-serif" stroke="black" stroke-opacity="1"
    ><text x="2" xml:space="preserve" y="59" clip-path="url(#clipPath11)" stroke="none"
      >-email adress</text
    ></g
    ><g font-size="11px" transform="matrix(1,0,0,1,336,17)" fill-opacity="1" fill="black" text-rendering="geometricPrecision" image-rendering="optimizeQuality" font-family="sans-serif" stroke="black" stroke-opacity="1"
    ><text x="2" xml:space="preserve" y="74" clip-path="url(#clipPath11)" stroke="none"
      >-fax number</text
    ></g
    ><g font-size="11px" transform="matrix(1,0,0,1,336,17)" fill-opacity="1" fill="black" text-rendering="geometricPrecision" image-rendering="optimizeQuality" font-family="sans-serif" stroke="black" stroke-opacity="1"
    ><text x="2" xml:space="preserve" y="89" clip-path="url(#clipPath11)" stroke="none"
      >-website adress</text
    ></g
    ><g font-size="11px" transform="matrix(1,0,0,1,336,17)" fill-opacity="1" fill="black" text-rendering="geometricPrecision" image-rendering="optimizeQuality" font-family="sans-serif" stroke="black" stroke-opacity="1"
    ><text x="2" xml:space="preserve" y="104" clip-path="url(#clipPath11)" stroke="none"
      >-slot duration</text
    ></g
    ><g font-size="11px" transform="matrix(1,0,0,1,336,17)" fill-opacity="1" fill="black" text-rendering="geometricPrecision" image-rendering="optimizeQuality" font-family="sans-serif" stroke="black" stroke-opacity="1"
    ><text x="2" xml:space="preserve" y="119" clip-path="url(#clipPath11)" stroke="none"
      >-max vaccines per slot</text
    ></g
    ><g font-size="11px" transform="translate(336,2)" fill-opacity="1" fill="black" text-rendering="geometricPrecision" image-rendering="optimizeQuality" font-family="sans-serif" stroke="black" font-weight="bold" stroke-opacity="1"
    ><text x="8" xml:space="preserve" y="12" clip-path="url(#clipPath12)" stroke="none"
      >Vaccination Center</text
    ></g
    ><g stroke-linecap="butt" font-size="11px" transform="translate(117,179)" fill-opacity="1" fill="black" text-rendering="geometricPrecision" image-rendering="optimizeQuality" font-family="sans-serif" stroke-linejoin="round" stroke="black" stroke-opacity="1"
    ><line y2="50" fill="none" x1="236" clip-path="url(#clipPath14)" x2="50" y1="50"
      /><polygon fill="white" clip-path="url(#clipPath14)" points=" 236 50 224 44 224 56" stroke="none"
      /><polygon fill="none" points=" 236 50 224 44 224 56" clip-path="url(#clipPath14)"
    /></g
    ><g stroke-linecap="butt" font-size="11px" transform="translate(58,66)" fill-opacity="1" fill="black" text-rendering="geometricPrecision" image-rendering="optimizeQuality" font-family="sans-serif" stroke-linejoin="round" stroke="black" stroke-opacity="1"
    ><line y2="106" fill="none" x1="50" clip-path="url(#clipPath16)" x2="50" y1="50"
    /></g
    ><g stroke-linecap="butt" font-size="11px" transform="translate(109,8)" fill-opacity="1" fill="black" text-rendering="geometricPrecision" image-rendering="optimizeQuality" font-family="sans-serif" stroke-linejoin="round" stroke="black" stroke-opacity="1"
    ><line y2="50" fill="none" x1="50" clip-path="url(#clipPath18)" x2="226" y1="50"
    /></g
    ><g font-size="11px" transform="translate(202,37)" fill-opacity="1" fill="black" text-rendering="geometricPrecision" image-rendering="optimizeQuality" font-family="sans-serif" stroke="black" stroke-opacity="1"
    ><text x="9" xml:space="preserve" y="12" clip-path="url(#clipPath19)" stroke="none"
      >checked by ▶</text
    ></g
    ><g font-size="11px" transform="translate(2,137)" fill-opacity="1" fill="black" text-rendering="geometricPrecision" image-rendering="optimizeQuality" font-family="sans-serif" stroke="black" stroke-opacity="1"
    ><text x="10" xml:space="preserve" y="12" clip-path="url(#clipPath20)" stroke="none"
      >created by/for ▶</text
    ></g
    ><g font-size="8px" fill-opacity="1" fill="rgb(120,120,120)" text-rendering="geometricPrecision" image-rendering="optimizeQuality" stroke="rgb(120,120,120)" stroke-opacity="1"
    ><text x="0" xml:space="preserve" y="10" stroke="none"
      >Visual Paradigm Standard(Gabriel(Instituto Superior de Engenharia do Porto))</text
    ></g
  ></g
></svg
>
