<?xml version="1.0" encoding="UTF-8" standalone="no"?><svg xmlns="http://www.w3.org/2000/svg" xmlns:xlink="http://www.w3.org/1999/xlink" contentScriptType="application/ecmascript" contentStyleType="text/css" height="709px" preserveAspectRatio="none" style="width:1044px;height:709px;background:#FFFFFF;" version="1.1" viewBox="0 0 1044 709" width="1044px" zoomAndPan="magnify"><defs><filter height="300%" id="fkths7i4pmw9n" width="300%" x="-1" y="-1"><feGaussianBlur result="blurOut" stdDeviation="2.0"/><feColorMatrix in="blurOut" result="blurOut2" type="matrix" values="0 0 0 0 0 0 0 0 0 0 0 0 0 0 0 0 0 0 .4 0"/><feOffset dx="4.0" dy="4.0" in="blurOut2" result="blurOut3"/><feBlend in="SourceGraphic" in2="blurOut3" mode="normal"/></filter></defs><g><!--MD5=[0656dbbf7a85e3a7e9f76bc4d114940c]
class RegisterVaccCenterUI--><rect codeLine="4" fill="#FEFECE" filter="url(#fkths7i4pmw9n)" height="48" id="RegisterVaccCenterUI" style="stroke:#A80036;stroke-width:1.5;" width="155" x="441" y="7"/><ellipse cx="456" cy="23" fill="#A9DCDF" rx="11" ry="11" style="stroke:#A80036;stroke-width:1.0;"/><path d="M457.75,24.5 L454.4531,24.5 L454.0156,25.5 L454.0156,25.5 L454.4844,25.5 L455,26.125 L455,26.5 L455,26.875 L454.4844,27.5 L454.0156,27.5 L452.125,27.5 L451.5156,27.5 L451,26.875 L451,26.5 L451,26.125 L451.5156,25.5 L452.125,25.5 L454.4375,19.5 L453.5625,19.5 L452.5156,19.5 L452,18.875 L452,18.5 L452,18.125 L452.5156,17.5 L453.5625,17.5 L457.2344,17.5 L459.9219,25.5 L460.4844,25.5 L460.4844,25.5 L461,26.125 L461,26.5 L461,26.875 L460.4844,27.5 L459.9219,27.5 L458.0313,27.5 L457.5156,27.5 L457,26.875 L457,26.5 L457,26.125 L457.5156,25.5 L458.0313,25.5 L458.0313,25.5 L457.75,24.5 Z M457.2031,22.5 L456,18.9219 L454.9688,22.5 L457.2031,22.5 Z " fill="#000000"/><text fill="#000000" font-family="sans-serif" font-size="12" font-style="italic" lengthAdjust="spacing" textLength="123" x="470" y="27.9102">RegisterVaccCenterUI</text><line style="stroke:#A80036;stroke-width:1.5;" x1="442" x2="595" y1="39" y2="39"/><line style="stroke:#A80036;stroke-width:1.5;" x1="442" x2="595" y1="47" y2="47"/><!--MD5=[c655c36eb17231cf14c783b335b7cf8b]
class RegisterVaccCenterController--><rect codeLine="41" fill="#FEFECE" filter="url(#fkths7i4pmw9n)" height="75.6719" id="RegisterVaccCenterController" style="stroke:#A80036;stroke-width:1.5;" width="1023" x="7" y="115"/><ellipse cx="432.25" cy="131" fill="#ADD1B2" rx="11" ry="11" style="stroke:#A80036;stroke-width:1.0;"/><path d="M434.25,127.5 Q434.4531,127 434.6875,126.75 Q434.9219,126.5 435.1875,126.5 Q435.6563,126.5 435.9531,126.7813 Q436.25,127.0625 436.25,127.7188 L436.25,129.2813 Q436.25,129.9375 435.9688,130.2188 Q435.6875,130.5 435.25,130.5 Q434.8594,130.5 434.6094,130.3281 Q434.3594,130.1563 434.25,129.7031 Q434.2031,129.3906 434.0313,129.2188 Q433.7188,128.8906 433.1563,128.7031 Q432.5938,128.5 432.0313,128.5 Q431.3281,128.5 430.7344,128.7813 Q430.1563,129.0625 429.7031,129.6875 Q429.25,130.3125 429.25,131.1719 L429.25,132.0938 Q429.25,133.125 430.0938,133.8125 Q430.9375,134.5 432.4375,134.5 Q433.3281,134.5 433.9531,134.2969 Q434.3125,134.1875 434.7188,133.8281 Q434.9844,133.625 435.125,133.5625 Q435.2656,133.5 435.4375,133.5 Q435.7656,133.5 436,133.7656 Q436.25,134.0156 436.25,134.375 Q436.25,134.7188 435.9063,135.125 Q435.4063,135.7188 434.6094,136.0469 Q433.5625,136.5 432.2813,136.5 Q430.7813,136.5 429.5781,135.9063 Q428.6094,135.4375 427.9219,134.4219 Q427.25,133.4063 427.25,132.2031 L427.25,131.1094 Q427.25,129.8594 427.8438,128.7656 Q428.4531,127.6719 429.5,127.0938 Q430.5625,126.5 431.75,126.5 Q432.4688,126.5 433.0938,126.75 Q433.7188,127 434.25,127.5 Z " fill="#000000"/><text fill="#000000" font-family="sans-serif" font-size="12" lengthAdjust="spacing" textLength="164" x="452.75" y="135.9102">RegisterVaccCenterController</text><line style="stroke:#A80036;stroke-width:1.5;" x1="8" x2="1029" y1="147" y2="147"/><line style="stroke:#A80036;stroke-width:1.5;" x1="8" x2="1029" y1="155" y2="155"/><text fill="#000000" font-family="sans-serif" font-size="11" lengthAdjust="spacing" textLength="1011" x="13" y="170.4189">public registerVacinationCenter(String name, String address, int phone, String email, String website, int fax, int openingHour, int closingHour, int slotDuration, int slotDuration, int maxVaccSlot, String coordinator) {</text><text fill="#000000" font-family="sans-serif" font-size="11" lengthAdjust="spacing" textLength="994" x="13" y="184.2549">public boolean VallidatedData(String name, String address, int phone, String email, String website, int fax, int openingHour, int closingHour, int slotDuration, int slotDuration, int maxVaccSlot, String coordinator)</text><!--MD5=[878dcf7b2b90697aa18a6ced68a66fc9]
class VaccCenter--><rect codeLine="37" fill="#FEFECE" filter="url(#fkths7i4pmw9n)" height="48" id="VaccCenter" style="stroke:#A80036;stroke-width:1.5;" width="95" x="423" y="373"/><ellipse cx="438" cy="389" fill="#ADD1B2" rx="11" ry="11" style="stroke:#A80036;stroke-width:1.0;"/><path d="M440,385.5 Q440.2031,385 440.4375,384.75 Q440.6719,384.5 440.9375,384.5 Q441.4063,384.5 441.7031,384.7813 Q442,385.0625 442,385.7188 L442,387.2813 Q442,387.9375 441.7188,388.2188 Q441.4375,388.5 441,388.5 Q440.6094,388.5 440.3594,388.3281 Q440.1094,388.1563 440,387.7031 Q439.9531,387.3906 439.7813,387.2188 Q439.4688,386.8906 438.9063,386.7031 Q438.3438,386.5 437.7813,386.5 Q437.0781,386.5 436.4844,386.7813 Q435.9063,387.0625 435.4531,387.6875 Q435,388.3125 435,389.1719 L435,390.0938 Q435,391.125 435.8438,391.8125 Q436.6875,392.5 438.1875,392.5 Q439.0781,392.5 439.7031,392.2969 Q440.0625,392.1875 440.4688,391.8281 Q440.7344,391.625 440.875,391.5625 Q441.0156,391.5 441.1875,391.5 Q441.5156,391.5 441.75,391.7656 Q442,392.0156 442,392.375 Q442,392.7188 441.6563,393.125 Q441.1563,393.7188 440.3594,394.0469 Q439.3125,394.5 438.0313,394.5 Q436.5313,394.5 435.3281,393.9063 Q434.3594,393.4375 433.6719,392.4219 Q433,391.4063 433,390.2031 L433,389.1094 Q433,387.8594 433.5938,386.7656 Q434.2031,385.6719 435.25,385.0938 Q436.3125,384.5 437.5,384.5 Q438.2188,384.5 438.8438,384.75 Q439.4688,385 440,385.5 Z " fill="#000000"/><text fill="#000000" font-family="sans-serif" font-size="12" lengthAdjust="spacing" textLength="63" x="452" y="393.9102">VaccCenter</text><line style="stroke:#A80036;stroke-width:1.5;" x1="424" x2="517" y1="405" y2="405"/><line style="stroke:#A80036;stroke-width:1.5;" x1="424" x2="517" y1="413" y2="413"/><!--MD5=[02e4b9b7573f1156f41e60aa5b4e25a4]
class Company--><rect codeLine="32" fill="#FEFECE" filter="url(#fkths7i4pmw9n)" height="61.8359" id="Company" style="stroke:#A80036;stroke-width:1.5;" width="85" x="524" y="251"/><ellipse cx="539" cy="267" fill="#ADD1B2" rx="11" ry="11" style="stroke:#A80036;stroke-width:1.0;"/><path d="M541,263.5 Q541.2031,263 541.4375,262.75 Q541.6719,262.5 541.9375,262.5 Q542.4063,262.5 542.7031,262.7813 Q543,263.0625 543,263.7188 L543,265.2813 Q543,265.9375 542.7188,266.2188 Q542.4375,266.5 542,266.5 Q541.6094,266.5 541.3594,266.3281 Q541.1094,266.1563 541,265.7031 Q540.9531,265.3906 540.7813,265.2188 Q540.4688,264.8906 539.9063,264.7031 Q539.3438,264.5 538.7813,264.5 Q538.0781,264.5 537.4844,264.7813 Q536.9063,265.0625 536.4531,265.6875 Q536,266.3125 536,267.1719 L536,268.0938 Q536,269.125 536.8438,269.8125 Q537.6875,270.5 539.1875,270.5 Q540.0781,270.5 540.7031,270.2969 Q541.0625,270.1875 541.4688,269.8281 Q541.7344,269.625 541.875,269.5625 Q542.0156,269.5 542.1875,269.5 Q542.5156,269.5 542.75,269.7656 Q543,270.0156 543,270.375 Q543,270.7188 542.6563,271.125 Q542.1563,271.7188 541.3594,272.0469 Q540.3125,272.5 539.0313,272.5 Q537.5313,272.5 536.3281,271.9063 Q535.3594,271.4375 534.6719,270.4219 Q534,269.4063 534,268.2031 L534,267.1094 Q534,265.8594 534.5938,264.7656 Q535.2031,263.6719 536.25,263.0938 Q537.3125,262.5 538.5,262.5 Q539.2188,262.5 539.8438,262.75 Q540.4688,263 541,263.5 Z " fill="#000000"/><text fill="#000000" font-family="sans-serif" font-size="12" lengthAdjust="spacing" textLength="53" x="553" y="271.9102">Company</text><line style="stroke:#A80036;stroke-width:1.5;" x1="525" x2="608" y1="283" y2="283"/><line style="stroke:#A80036;stroke-width:1.5;" x1="525" x2="608" y1="291" y2="291"/><text fill="#000000" font-family="sans-serif" font-size="11" lengthAdjust="spacing" textLength="71" x="530" y="306.4189">VallidateData()</text><!--MD5=[07e78906444ade49d9e4e5ecbfa46ff5]
class vaccCenter--><rect codeLine="17" fill="#FEFECE" filter="url(#fkths7i4pmw9n)" height="214.0313" id="vaccCenter" style="stroke:#A80036;stroke-width:1.5;" width="921" x="60" y="481"/><ellipse cx="485.75" cy="497" fill="#ADD1B2" rx="11" ry="11" style="stroke:#A80036;stroke-width:1.0;"/><path d="M487.75,493.5 Q487.9531,493 488.1875,492.75 Q488.4219,492.5 488.6875,492.5 Q489.1563,492.5 489.4531,492.7813 Q489.75,493.0625 489.75,493.7188 L489.75,495.2813 Q489.75,495.9375 489.4688,496.2188 Q489.1875,496.5 488.75,496.5 Q488.3594,496.5 488.1094,496.3281 Q487.8594,496.1563 487.75,495.7031 Q487.7031,495.3906 487.5313,495.2188 Q487.2188,494.8906 486.6563,494.7031 Q486.0938,494.5 485.5313,494.5 Q484.8281,494.5 484.2344,494.7813 Q483.6563,495.0625 483.2031,495.6875 Q482.75,496.3125 482.75,497.1719 L482.75,498.0938 Q482.75,499.125 483.5938,499.8125 Q484.4375,500.5 485.9375,500.5 Q486.8281,500.5 487.4531,500.2969 Q487.8125,500.1875 488.2188,499.8281 Q488.4844,499.625 488.625,499.5625 Q488.7656,499.5 488.9375,499.5 Q489.2656,499.5 489.5,499.7656 Q489.75,500.0156 489.75,500.375 Q489.75,500.7188 489.4063,501.125 Q488.9063,501.7188 488.1094,502.0469 Q487.0625,502.5 485.7813,502.5 Q484.2813,502.5 483.0781,501.9063 Q482.1094,501.4375 481.4219,500.4219 Q480.75,499.4063 480.75,498.2031 L480.75,497.1094 Q480.75,495.8594 481.3438,494.7656 Q481.9531,493.6719 483,493.0938 Q484.0625,492.5 485.25,492.5 Q485.9688,492.5 486.5938,492.75 Q487.2188,493 487.75,493.5 Z " fill="#000000"/><text fill="#000000" font-family="sans-serif" font-size="12" lengthAdjust="spacing" textLength="61" x="506.25" y="501.9102">vaccCenter</text><line style="stroke:#A80036;stroke-width:1.5;" x1="61" x2="980" y1="513" y2="513"/><text fill="#000000" font-family="sans-serif" font-size="11" lengthAdjust="spacing" textLength="57" x="66" y="528.4189">String name</text><text fill="#000000" font-family="sans-serif" font-size="11" lengthAdjust="spacing" textLength="65" x="66" y="542.2549">String adress</text><text fill="#000000" font-family="sans-serif" font-size="11" lengthAdjust="spacing" textLength="44" x="66" y="556.0908">int phone</text><text fill="#000000" font-family="sans-serif" font-size="11" lengthAdjust="spacing" textLength="55" x="66" y="569.9268">String email</text><text fill="#000000" font-family="sans-serif" font-size="11" lengthAdjust="spacing" textLength="30" x="66" y="583.7627">int fax</text><text fill="#000000" font-family="sans-serif" font-size="11" lengthAdjust="spacing" textLength="70" x="66" y="597.5986">String website</text><text fill="#000000" font-family="sans-serif" font-size="11" lengthAdjust="spacing" textLength="75" x="66" y="611.4346">int openingHour</text><text fill="#000000" font-family="sans-serif" font-size="11" lengthAdjust="spacing" textLength="71" x="66" y="625.2705">int closingHour</text><text fill="#000000" font-family="sans-serif" font-size="11" lengthAdjust="spacing" textLength="71" x="66" y="639.1064">int slotDuration</text><text fill="#000000" font-family="sans-serif" font-size="11" lengthAdjust="spacing" textLength="78" x="66" y="652.9424">int maxVaccSlot</text><text fill="#000000" font-family="sans-serif" font-size="11" lengthAdjust="spacing" textLength="86" x="66" y="666.7783">String coordinator</text><line style="stroke:#A80036;stroke-width:1.5;" x1="61" x2="980" y1="673.1953" y2="673.1953"/><text fill="#000000" font-family="sans-serif" font-size="11" lengthAdjust="spacing" textLength="909" x="66" y="688.6143">vaccCenter(String name, String address, int phone, String email, String website, int fax, int openingHour, int closingHour, int slotDuration, int slotDuration, int maxVaccSlot, String coordinator)</text><!--MD5=[182a41fbf71752ec3d086bb11facdad2]
link RegisterVaccCenterUI to RegisterVaccCenterController--><path codeLine="10" d="M518.5,55.14 C518.5,70.58 518.5,91.33 518.5,109.67 " fill="none" id="RegisterVaccCenterUI-to-RegisterVaccCenterController" style="stroke:#A80036;stroke-width:1.0;"/><polygon fill="#A80036" points="518.5,114.77,522.5,105.77,518.5,109.77,514.5,105.77,518.5,114.77" style="stroke:#A80036;stroke-width:1.0;"/><!--MD5=[06b736a8b9045c71d33ab96da4449aa0]
link RegisterVaccCenterController to VaccCenter--><path codeLine="11" d="M511.16,191.02 C501.52,239.62 484.8,323.9 476.11,367.71 " fill="none" id="RegisterVaccCenterController-to-VaccCenter" style="stroke:#A80036;stroke-width:1.0;"/><polygon fill="#A80036" points="475.09,372.85,480.7638,364.7997,476.0623,367.9455,472.9166,363.244,475.09,372.85" style="stroke:#A80036;stroke-width:1.0;"/><!--MD5=[fec7da2d50743a700894a582c3327158]
link RegisterVaccCenterController to Company--><path codeLine="12" d="M532.51,191.08 C539.09,208.47 546.88,229.1 553.35,246.2 " fill="none" id="RegisterVaccCenterController-to-Company" style="stroke:#A80036;stroke-width:1.0;"/><polygon fill="#A80036" points="555.13,250.93,555.679,241.0965,553.3572,246.2548,548.1988,243.933,555.13,250.93" style="stroke:#A80036;stroke-width:1.0;"/><!--MD5=[c97ee71df5cea6400db924ca05c1db94]
link Company to VaccCenter--><path codeLine="13" d="M532.9909,322.4171 C532.9909,322.4171 509.16,350.5 498.63,362.89 " fill="none" id="Company-VaccCenter" style="stroke:#A80036;stroke-width:1.0;"/><polygon fill="#A80036" points="490.2,372.81,499.0769,368.5439,493.4386,369.0006,492.9819,363.3622,490.2,372.81" style="stroke:#A80036;stroke-width:1.0;"/><line style="stroke:#A80036;stroke-width:1.0;" x1="493.4386" x2="498.62" y1="369.0006" y2="362.9"/><polygon fill="#A80036" points="540.77,313.28,533.8348,315.2555,532.9909,322.4171,539.9262,320.4416,540.77,313.28" style="stroke:#A80036;stroke-width:1.0;"/><!--MD5=[fb84d3b2abdda1e80c0b519f21704340]
link Company to vaccCenter--><path codeLine="14" d="M561.92,313.26 C556.22,350.94 546.16,417.44 537.38,475.46 " fill="none" id="Company-to-vaccCenter" style="stroke:#A80036;stroke-width:1.0;"/><polygon fill="#A80036" points="536.59,480.69,541.8796,472.3822,537.331,475.7452,533.968,471.1966,536.59,480.69" style="stroke:#A80036;stroke-width:1.0;"/><!--MD5=[ddebf53216dea545e515c2e20bcfd5af]
link VaccCenter to vaccCenter--><path codeLine="15" d="M476.63,421.18 C480.42,435.5 485.59,455.06 491.06,475.72 " fill="none" id="VaccCenter-to-vaccCenter" style="stroke:#A80036;stroke-width:1.0;"/><polygon fill="#A80036" points="492.38,480.71,493.9564,470.9881,491.1068,475.8748,486.2201,473.0252,492.38,480.71" style="stroke:#A80036;stroke-width:1.0;"/><!--MD5=[5aeec597584bbb61953d7e160af1f31c]
@startuml



abstract class RegisterVaccCenterUI
class RegisterVaccCenterController
class VaccCenter
class Company
class vaccCenter

RegisterVaccCenterUI -down-> RegisterVaccCenterController
RegisterVaccCenterController -down-> VaccCenter
RegisterVaccCenterController -down-> Company
Company *-down-> VaccCenter
Company -down-> vaccCenter
VaccCenter -down-> vaccCenter

class vaccCenter{
String name
String adress
int phone
String email
int fax
String website
int openingHour
int closingHour
int slotDuration
int maxVaccSlot
String coordinator
vaccCenter(String name, String address, int phone, String email, String website, int fax, int openingHour, int closingHour, int slotDuration, int slotDuration, int maxVaccSlot, String coordinator)
}

class Company{

VallidateData()
}

class VaccCenter {

}

class RegisterVaccCenterController {

public registerVacinationCenter(String name, String address, int phone, String email, String website, int fax, int openingHour, int closingHour, int slotDuration, int slotDuration, int maxVaccSlot, String coordinator) {
public boolean VallidatedData(String name, String address, int phone, String email, String website, int fax, int openingHour, int closingHour, int slotDuration, int slotDuration, int maxVaccSlot, String coordinator)
}


@enduml

PlantUML version 1.2022.1(Tue Feb 01 18:19:58 GMT 2022)
(GPL source distribution)
Java Runtime: OpenJDK Runtime Environment
JVM: OpenJDK 64-Bit Server VM
Default Encoding: Cp1252
Language: pt
Country: PT
--></g></svg>