<?xml version="1.0" encoding="UTF-8" standalone="no"?><svg xmlns="http://www.w3.org/2000/svg" xmlns:xlink="http://www.w3.org/1999/xlink" contentScriptType="application/ecmascript" contentStyleType="text/css" height="561px" preserveAspectRatio="none" style="width:2012px;height:561px;background:#FFFFFF;" version="1.1" viewBox="0 0 2012 561" width="2012px" zoomAndPan="magnify"><defs><filter height="300%" id="fx6h47uz8x4jq" width="300%" x="-1" y="-1"><feGaussianBlur result="blurOut" stdDeviation="2.0"/><feColorMatrix in="blurOut" result="blurOut2" type="matrix" values="0 0 0 0 0 0 0 0 0 0 0 0 0 0 0 0 0 0 .4 0"/><feOffset dx="4.0" dy="4.0" in="blurOut2" result="blurOut3"/><feBlend in="SourceGraphic" in2="blurOut3" mode="normal"/></filter></defs><g><rect fill="#FFFFFF" filter="url(#fx6h47uz8x4jq)" height="30.3516" style="stroke:#A80036;stroke-width:1.0;" width="10" x="563.5" y="73.9609"/><rect fill="#FFFFFF" filter="url(#fx6h47uz8x4jq)" height="30.3516" style="stroke:#A80036;stroke-width:1.0;" width="10" x="563.5" y="134.6641"/><rect fill="#FFFFFF" filter="url(#fx6h47uz8x4jq)" height="151.4063" style="stroke:#A80036;stroke-width:1.0;" width="10" x="563.5" y="195.3672"/><rect fill="#FFFFFF" filter="url(#fx6h47uz8x4jq)" height="130.4063" style="stroke:#A80036;stroke-width:1.0;" width="10" x="563.5" y="377.125"/><rect fill="#FFFFFF" filter="url(#fx6h47uz8x4jq)" height="121.0547" style="stroke:#A80036;stroke-width:1.0;" width="10" x="786.5" y="225.7188"/><rect fill="#FFFFFF" filter="url(#fx6h47uz8x4jq)" height="100.0547" style="stroke:#A80036;stroke-width:1.0;" width="10" x="786.5" y="407.4766"/><rect fill="#FFFFFF" filter="url(#fx6h47uz8x4jq)" height="60.3516" style="stroke:#A80036;stroke-width:1.0;" width="10" x="1089.5" y="256.0703"/><rect fill="#FFFFFF" filter="url(#fx6h47uz8x4jq)" height="69.7031" style="stroke:#A80036;stroke-width:1.0;" width="10" x="1089.5" y="437.8281"/><rect fill="#FFFFFF" filter="url(#fx6h47uz8x4jq)" height="60.3516" style="stroke:#A80036;stroke-width:1.0;" width="10" x="1911.5" y="286.4219"/><rect fill="#FFFFFF" filter="url(#fx6h47uz8x4jq)" height="39.3516" style="stroke:#A80036;stroke-width:1.0;" width="10" x="1911.5" y="468.1797"/><line style="stroke:#A80036;stroke-width:1.0;stroke-dasharray:5.0,5.0;" x1="55" x2="55" y1="41.6094" y2="516.5313"/><line style="stroke:#A80036;stroke-width:1.0;stroke-dasharray:5.0,5.0;" x1="568" x2="568" y1="41.6094" y2="516.5313"/><line style="stroke:#A80036;stroke-width:1.0;stroke-dasharray:5.0,5.0;" x1="791" x2="791" y1="41.6094" y2="516.5313"/><line style="stroke:#A80036;stroke-width:1.0;stroke-dasharray:5.0,5.0;" x1="1094.5" x2="1094.5" y1="41.6094" y2="516.5313"/><line style="stroke:#A80036;stroke-width:1.0;stroke-dasharray:5.0,5.0;" x1="1916.5" x2="1916.5" y1="41.6094" y2="516.5313"/><rect fill="#FEFECE" filter="url(#fx6h47uz8x4jq)" height="31.6094" style="stroke:#A80036;stroke-width:1.5;" width="97" x="5" y="5"/><text fill="#000000" font-family="sans-serif" font-size="14" lengthAdjust="spacing" textLength="83" x="12" y="26.5332">Administrator</text><rect fill="#FEFECE" filter="url(#fx6h47uz8x4jq)" height="31.6094" style="stroke:#A80036;stroke-width:1.5;" width="97" x="5" y="515.5313"/><text fill="#000000" font-family="sans-serif" font-size="14" lengthAdjust="spacing" textLength="83" x="12" y="537.0645">Administrator</text><rect fill="#FEFECE" filter="url(#fx6h47uz8x4jq)" height="31.6094" style="stroke:#A80036;stroke-width:1.5;" width="157" x="488" y="5"/><text fill="#000000" font-family="sans-serif" font-size="14" lengthAdjust="spacing" textLength="143" x="495" y="26.5332">:RegisterVaccCenterUI</text><rect fill="#FEFECE" filter="url(#fx6h47uz8x4jq)" height="31.6094" style="stroke:#A80036;stroke-width:1.5;" width="157" x="488" y="515.5313"/><text fill="#000000" font-family="sans-serif" font-size="14" lengthAdjust="spacing" textLength="143" x="495" y="537.0645">:RegisterVaccCenterUI</text><rect fill="#FEFECE" filter="url(#fx6h47uz8x4jq)" height="31.6094" style="stroke:#A80036;stroke-width:1.5;" width="207" x="686" y="5"/><text fill="#000000" font-family="sans-serif" font-size="14" lengthAdjust="spacing" textLength="193" x="693" y="26.5332">:RegisterVaccCenterController</text><rect fill="#FEFECE" filter="url(#fx6h47uz8x4jq)" height="31.6094" style="stroke:#A80036;stroke-width:1.5;" width="207" x="686" y="515.5313"/><text fill="#000000" font-family="sans-serif" font-size="14" lengthAdjust="spacing" textLength="193" x="693" y="537.0645">:RegisterVaccCenterController</text><rect fill="#FEFECE" filter="url(#fx6h47uz8x4jq)" height="31.6094" style="stroke:#A80036;stroke-width:1.5;" width="78" x="1053.5" y="5"/><text fill="#000000" font-family="sans-serif" font-size="14" lengthAdjust="spacing" textLength="64" x="1060.5" y="26.5332">:Company</text><rect fill="#FEFECE" filter="url(#fx6h47uz8x4jq)" height="31.6094" style="stroke:#A80036;stroke-width:1.5;" width="78" x="1053.5" y="515.5313"/><text fill="#000000" font-family="sans-serif" font-size="14" lengthAdjust="spacing" textLength="64" x="1060.5" y="537.0645">:Company</text><rect fill="#FEFECE" filter="url(#fx6h47uz8x4jq)" height="31.6094" style="stroke:#A80036;stroke-width:1.5;" width="168" x="1830.5" y="5"/><text fill="#000000" font-family="sans-serif" font-size="14" lengthAdjust="spacing" textLength="154" x="1837.5" y="26.5332">vaccCenter: VaccCenter</text><rect fill="#FEFECE" filter="url(#fx6h47uz8x4jq)" height="31.6094" style="stroke:#A80036;stroke-width:1.5;" width="168" x="1830.5" y="515.5313"/><text fill="#000000" font-family="sans-serif" font-size="14" lengthAdjust="spacing" textLength="154" x="1837.5" y="537.0645">vaccCenter: VaccCenter</text><rect fill="#FFFFFF" filter="url(#fx6h47uz8x4jq)" height="30.3516" style="stroke:#A80036;stroke-width:1.0;" width="10" x="563.5" y="73.9609"/><rect fill="#FFFFFF" filter="url(#fx6h47uz8x4jq)" height="30.3516" style="stroke:#A80036;stroke-width:1.0;" width="10" x="563.5" y="134.6641"/><rect fill="#FFFFFF" filter="url(#fx6h47uz8x4jq)" height="151.4063" style="stroke:#A80036;stroke-width:1.0;" width="10" x="563.5" y="195.3672"/><rect fill="#FFFFFF" filter="url(#fx6h47uz8x4jq)" height="130.4063" style="stroke:#A80036;stroke-width:1.0;" width="10" x="563.5" y="377.125"/><rect fill="#FFFFFF" filter="url(#fx6h47uz8x4jq)" height="121.0547" style="stroke:#A80036;stroke-width:1.0;" width="10" x="786.5" y="225.7188"/><rect fill="#FFFFFF" filter="url(#fx6h47uz8x4jq)" height="100.0547" style="stroke:#A80036;stroke-width:1.0;" width="10" x="786.5" y="407.4766"/><rect fill="#FFFFFF" filter="url(#fx6h47uz8x4jq)" height="60.3516" style="stroke:#A80036;stroke-width:1.0;" width="10" x="1089.5" y="256.0703"/><rect fill="#FFFFFF" filter="url(#fx6h47uz8x4jq)" height="69.7031" style="stroke:#A80036;stroke-width:1.0;" width="10" x="1089.5" y="437.8281"/><rect fill="#FFFFFF" filter="url(#fx6h47uz8x4jq)" height="60.3516" style="stroke:#A80036;stroke-width:1.0;" width="10" x="1911.5" y="286.4219"/><rect fill="#FFFFFF" filter="url(#fx6h47uz8x4jq)" height="39.3516" style="stroke:#A80036;stroke-width:1.0;" width="10" x="1911.5" y="468.1797"/><polygon fill="#A80036" points="551.5,69.9609,561.5,73.9609,551.5,77.9609,555.5,73.9609" style="stroke:#A80036;stroke-width:1.0;"/><line style="stroke:#A80036;stroke-width:1.0;" x1="55.5" x2="557.5" y1="73.9609" y2="73.9609"/><text fill="#000000" font-family="sans-serif" font-size="13" font-weight="bold" lengthAdjust="spacing" textLength="7" x="62.5" y="69.1045">1</text><text fill="#000000" font-family="sans-serif" font-size="13" lengthAdjust="spacing" textLength="236" x="73.5" y="69.1045">asks to register a new vaccination center</text><polygon fill="#A80036" points="66.5,100.3125,56.5,104.3125,66.5,108.3125,62.5,104.3125" style="stroke:#A80036;stroke-width:1.0;"/><line style="stroke:#A80036;stroke-width:1.0;stroke-dasharray:2.0,2.0;" x1="60.5" x2="567.5" y1="104.3125" y2="104.3125"/><text fill="#000000" font-family="sans-serif" font-size="13" font-weight="bold" lengthAdjust="spacing" textLength="7" x="72.5" y="99.4561">2</text><text fill="#000000" font-family="sans-serif" font-size="13" lengthAdjust="spacing" textLength="473" x="83.5" y="99.4561">requests vaccination center data (e.g. name, adress, phone number, slot duration)</text><polygon fill="#A80036" points="551.5,130.6641,561.5,134.6641,551.5,138.6641,555.5,134.6641" style="stroke:#A80036;stroke-width:1.0;"/><line style="stroke:#A80036;stroke-width:1.0;" x1="55.5" x2="557.5" y1="134.6641" y2="134.6641"/><text fill="#000000" font-family="sans-serif" font-size="13" font-weight="bold" lengthAdjust="spacing" textLength="7" x="62.5" y="129.8076">3</text><text fill="#000000" font-family="sans-serif" font-size="13" lengthAdjust="spacing" textLength="230" x="73.5" y="129.8076">types requested vaccination center data</text><polygon fill="#A80036" points="66.5,161.0156,56.5,165.0156,66.5,169.0156,62.5,165.0156" style="stroke:#A80036;stroke-width:1.0;"/><line style="stroke:#A80036;stroke-width:1.0;stroke-dasharray:2.0,2.0;" x1="60.5" x2="567.5" y1="165.0156" y2="165.0156"/><text fill="#000000" font-family="sans-serif" font-size="13" font-weight="bold" lengthAdjust="spacing" textLength="7" x="72.5" y="160.1592">4</text><text fill="#000000" font-family="sans-serif" font-size="13" lengthAdjust="spacing" textLength="144" x="83.5" y="160.1592">asks to set a coordinator</text><polygon fill="#A80036" points="551.5,191.3672,561.5,195.3672,551.5,199.3672,555.5,195.3672" style="stroke:#A80036;stroke-width:1.0;"/><line style="stroke:#A80036;stroke-width:1.0;" x1="55.5" x2="557.5" y1="195.3672" y2="195.3672"/><text fill="#000000" font-family="sans-serif" font-size="13" font-weight="bold" lengthAdjust="spacing" textLength="7" x="62.5" y="190.5107">5</text><text fill="#000000" font-family="sans-serif" font-size="13" lengthAdjust="spacing" textLength="104" x="73.5" y="190.5107">sets a coordinator</text><polygon fill="#A80036" points="774.5,221.7188,784.5,225.7188,774.5,229.7188,778.5,225.7188" style="stroke:#A80036;stroke-width:1.0;"/><line style="stroke:#A80036;stroke-width:1.0;" x1="573.5" x2="780.5" y1="225.7188" y2="225.7188"/><text fill="#000000" font-family="sans-serif" font-size="13" font-weight="bold" lengthAdjust="spacing" textLength="7" x="580.5" y="220.8623">6</text><text fill="#000000" font-family="sans-serif" font-size="13" lengthAdjust="spacing" textLength="183" x="591.5" y="220.8623">registerVaccCenter(vaccCenter)</text><polygon fill="#A80036" points="1077.5,252.0703,1087.5,256.0703,1077.5,260.0703,1081.5,256.0703" style="stroke:#A80036;stroke-width:1.0;"/><line style="stroke:#A80036;stroke-width:1.0;" x1="796.5" x2="1083.5" y1="256.0703" y2="256.0703"/><text fill="#000000" font-family="sans-serif" font-size="13" font-weight="bold" lengthAdjust="spacing" textLength="7" x="803.5" y="251.2139">7</text><text fill="#000000" font-family="sans-serif" font-size="13" lengthAdjust="spacing" textLength="263" x="814.5" y="251.2139">vaccCenter = registerVaccCenter(vaccCenter)</text><polygon fill="#A80036" points="1899.5,282.4219,1909.5,286.4219,1899.5,290.4219,1903.5,286.4219" style="stroke:#A80036;stroke-width:1.0;"/><line style="stroke:#A80036;stroke-width:1.0;" x1="1099.5" x2="1905.5" y1="286.4219" y2="286.4219"/><text fill="#000000" font-family="sans-serif" font-size="13" font-weight="bold" lengthAdjust="spacing" textLength="7" x="1106.5" y="281.5654">8</text><text fill="#000000" font-family="sans-serif" font-size="13" lengthAdjust="spacing" textLength="782" x="1117.5" y="281.5654">register(center type,name,adress,phone,email,fax,website,openingClosingHours,vaccineType,slotDuration,maxVaccPerSlot,coordinator)</text><polygon fill="#A80036" points="66.5,342.7734,56.5,346.7734,66.5,350.7734,62.5,346.7734" style="stroke:#A80036;stroke-width:1.0;"/><line style="stroke:#A80036;stroke-width:1.0;stroke-dasharray:2.0,2.0;" x1="60.5" x2="567.5" y1="346.7734" y2="346.7734"/><text fill="#000000" font-family="sans-serif" font-size="13" font-weight="bold" lengthAdjust="spacing" textLength="7" x="72.5" y="341.917">9</text><text fill="#000000" font-family="sans-serif" font-size="13" lengthAdjust="spacing" textLength="236" x="83.5" y="341.917">shows all data and requests confirmation</text><polygon fill="#A80036" points="551.5,373.125,561.5,377.125,551.5,381.125,555.5,377.125" style="stroke:#A80036;stroke-width:1.0;"/><line style="stroke:#A80036;stroke-width:1.0;" x1="55.5" x2="557.5" y1="377.125" y2="377.125"/><text fill="#000000" font-family="sans-serif" font-size="13" font-weight="bold" lengthAdjust="spacing" textLength="14" x="62.5" y="372.2686">10</text><text fill="#000000" font-family="sans-serif" font-size="13" lengthAdjust="spacing" textLength="78" x="80.5" y="372.2686">confirms data</text><polygon fill="#A80036" points="774.5,403.4766,784.5,407.4766,774.5,411.4766,778.5,407.4766" style="stroke:#A80036;stroke-width:1.0;"/><line style="stroke:#A80036;stroke-width:1.0;" x1="573.5" x2="780.5" y1="407.4766" y2="407.4766"/><text fill="#000000" font-family="sans-serif" font-size="13" font-weight="bold" lengthAdjust="spacing" textLength="14" x="580.5" y="402.6201">11</text><text fill="#000000" font-family="sans-serif" font-size="13" lengthAdjust="spacing" textLength="102" x="598.5" y="402.6201">saveVaccCenter()</text><polygon fill="#A80036" points="1077.5,433.8281,1087.5,437.8281,1077.5,441.8281,1081.5,437.8281" style="stroke:#A80036;stroke-width:1.0;"/><line style="stroke:#A80036;stroke-width:1.0;" x1="796.5" x2="1083.5" y1="437.8281" y2="437.8281"/><text fill="#000000" font-family="sans-serif" font-size="13" font-weight="bold" lengthAdjust="spacing" textLength="14" x="803.5" y="432.9717">12</text><text fill="#000000" font-family="sans-serif" font-size="13" lengthAdjust="spacing" textLength="166" x="821.5" y="432.9717">saveVaccCenter(vaccCenter)</text><polygon fill="#A80036" points="1899.5,464.1797,1909.5,468.1797,1899.5,472.1797,1903.5,468.1797" style="stroke:#A80036;stroke-width:1.0;"/><line style="stroke:#A80036;stroke-width:1.0;" x1="1099.5" x2="1905.5" y1="468.1797" y2="468.1797"/><text fill="#000000" font-family="sans-serif" font-size="13" font-weight="bold" lengthAdjust="spacing" textLength="14" x="1106.5" y="463.3232">13</text><text fill="#000000" font-family="sans-serif" font-size="13" lengthAdjust="spacing" textLength="125" x="1124.5" y="463.3232">confirmsVaccCenter()</text><polygon fill="#A80036" points="551.5,494.5313,561.5,498.5313,551.5,502.5313,555.5,498.5313" style="stroke:#A80036;stroke-width:1.0;"/><line style="stroke:#A80036;stroke-width:1.0;stroke-dasharray:2.0,2.0;" x1="55.5" x2="557.5" y1="498.5313" y2="498.5313"/><text fill="#000000" font-family="sans-serif" font-size="13" font-weight="bold" lengthAdjust="spacing" textLength="14" x="62.5" y="493.6748">14</text><text fill="#000000" font-family="sans-serif" font-size="13" lengthAdjust="spacing" textLength="174" x="80.5" y="493.6748">informs the operation success</text><!--MD5=[92c8b0959da5a975074cf15bc6b112f3]
@startuml
autonumber

participant Administrator as Admin
participant ":RegisterVaccCenterUI" as RegisterUI
participant ":RegisterVaccCenterController" as RegisterController
participant ":Company" as Company
participant "vaccCenter: VaccCenter" as vaccCenter

Admin -> RegisterUI : asks to register a new vaccination center
activate RegisterUI
Admin <- - RegisterUI : requests vaccination center data (e.g. name, adress, phone number, slot duration)
deactivate RegisterUI
Admin -> RegisterUI : types requested vaccination center data
activate RegisterUI
Admin <- - RegisterUI : asks to set a coordinator
deactivate RegisterUI
Admin -> RegisterUI : sets a coordinator
activate RegisterUI
RegisterUI -> RegisterController : registerVaccCenter(vaccCenter)
activate RegisterController
RegisterController -> Company :     vaccCenter = registerVaccCenter(vaccCenter)
activate Company
Company -> vaccCenter : register(center type,name,adress,phone,email,fax,website,openingClosingHours,vaccineType,slotDuration,maxVaccPerSlot,coordinator)
activate vaccCenter
deactivate Company
Admin <- - RegisterUI : shows all data and requests confirmation
deactivate vaccCenter
deactivate RegisterUI
deactivate RegisterController
Admin -> RegisterUI : confirms data
activate RegisterUI
RegisterUI -> RegisterController : saveVaccCenter()
activate RegisterController
RegisterController -> Company : saveVaccCenter(vaccCenter)
activate Company
Company -> vaccCenter : confirmsVaccCenter()
activate vaccCenter
RegisterUI <- - Admin: informs the operation success


@enduml

PlantUML version 1.2022.1(Tue Feb 01 18:19:58 GMT 2022)
(GPL source distribution)
Java Runtime: OpenJDK Runtime Environment
JVM: OpenJDK 64-Bit Server VM
Default Encoding: Cp1252
Language: pt
Country: PT
--></g></svg>