<?xml version="1.0" encoding="UTF-8" standalone="no"?><svg xmlns="http://www.w3.org/2000/svg" xmlns:xlink="http://www.w3.org/1999/xlink" contentStyleType="text/css" height="289.87px" preserveAspectRatio="none" style="width:549px;height:289px;background:#FFFFFF;" version="1.1" viewBox="0 0 549 289" width="549.81px" zoomAndPan="magnify"><defs/><g><rect fill="#FFFFFF" height="251.9578" style="stroke:#181818;stroke-width:0.41;" width="4.1" x="19.885" y="19.5198"/><rect fill="#FFFFFF" height="12.4441" style="stroke:#181818;stroke-width:0.41;" width="4.1" x="142.065" y="28.684"/><rect fill="#FFFFFF" height="104.2905" style="stroke:#181818;stroke-width:0.41;" width="4.1" x="142.065" y="53.5723"/><rect fill="#FFFFFF" height="97.4807" style="stroke:#181818;stroke-width:0.41;" width="4.1" x="142.065" y="170.307"/><rect fill="#FFFFFF" height="91.8464" style="stroke:#181818;stroke-width:0.41;" width="4.1" x="269.165" y="66.0164"/><rect fill="#FFFFFF" height="85.0366" style="stroke:#181818;stroke-width:0.41;" width="4.1" x="269.165" y="182.7511"/><rect fill="#FFFFFF" height="12.3" style="stroke:#181818;stroke-width:0.41;" width="4.1" x="358.135" y="78.4605"/><rect fill="#FFFFFF" height="12.4441" style="stroke:#181818;stroke-width:0.41;" width="4.1" x="413.075" y="103.2047"/><rect fill="#FFFFFF" height="12.3" style="stroke:#181818;stroke-width:0.41;" width="4.1" x="413.075" y="133.1187"/><rect fill="#FFFFFF" height="76.2824" style="stroke:#181818;stroke-width:0.41;" width="4.1" x="413.075" y="195.1952"/><rect fill="#FFFFFF" height="11.48" style="stroke:#181818;stroke-width:0.41;" width="4.1" x="415.125" y="210.9194"/><rect fill="#FFFFFF" height="11.48" style="stroke:#181818;stroke-width:0.41;" width="4.1" x="415.125" y="240.9935"/><line style="stroke:#181818;stroke-width:0.205;stroke-dasharray:5.0,5.0;" x1="21.73" x2="21.73" y1="15.4198" y2="275.1677"/><line style="stroke:#181818;stroke-width:0.205;stroke-dasharray:5.0,5.0;" x1="144.115" x2="144.115" y1="15.4198" y2="275.1677"/><line style="stroke:#181818;stroke-width:0.205;stroke-dasharray:5.0,5.0;" x1="271.215" x2="271.215" y1="15.4198" y2="275.1677"/><line style="stroke:#181818;stroke-width:0.205;stroke-dasharray:5.0,5.0;" x1="360.185" x2="360.185" y1="15.4198" y2="275.1677"/><line style="stroke:#181818;stroke-width:0.205;stroke-dasharray:5.0,5.0;" x1="415.125" x2="415.125" y1="15.4198" y2="275.1677"/><line style="stroke:#181818;stroke-width:0.205;stroke-dasharray:5.0,5.0;" x1="527.875" x2="527.875" y1="119.3196" y2="275.1677"/><rect fill="#E2E2F0" height="12.9598" rx="1.025" ry="1.025" style="stroke:#181818;stroke-width:0.205;" width="39.77" x="2.05" y="2.05"/><text fill="#000000" font-family="sans-serif" font-size="5.74" lengthAdjust="spacing" textLength="34.03" x="4.92" y="10.8786">Administrator</text><rect fill="#E2E2F0" height="12.9598" rx="1.025" ry="1.025" style="stroke:#181818;stroke-width:0.205;" width="39.77" x="2.05" y="274.7577"/><text fill="#000000" font-family="sans-serif" font-size="5.74" lengthAdjust="spacing" textLength="34.03" x="4.92" y="283.5863">Administrator</text><rect fill="#E2E2F0" height="12.9598" rx="1.025" ry="1.025" style="stroke:#181818;stroke-width:0.205;" width="75.44" x="106.395" y="2.05"/><text fill="#000000" font-family="sans-serif" font-size="5.74" lengthAdjust="spacing" textLength="69.7" x="109.265" y="10.8786">:SpecifyNewVaccineTypeUI</text><rect fill="#E2E2F0" height="12.9598" rx="1.025" ry="1.025" style="stroke:#181818;stroke-width:0.205;" width="75.44" x="106.395" y="274.7577"/><text fill="#000000" font-family="sans-serif" font-size="5.74" lengthAdjust="spacing" textLength="69.7" x="109.265" y="283.5863">:SpecifyNewVaccineTypeUI</text><rect fill="#E2E2F0" height="12.9598" rx="1.025" ry="1.025" style="stroke:#181818;stroke-width:0.205;" width="95.94" x="223.245" y="2.05"/><text fill="#000000" font-family="sans-serif" font-size="5.74" lengthAdjust="spacing" textLength="90.2" x="226.115" y="10.8786">:SpecifyNewVaccineTypeController</text><rect fill="#E2E2F0" height="12.9598" rx="1.025" ry="1.025" style="stroke:#181818;stroke-width:0.205;" width="95.94" x="223.245" y="274.7577"/><text fill="#000000" font-family="sans-serif" font-size="5.74" lengthAdjust="spacing" textLength="90.2" x="226.115" y="283.5863">:SpecifyNewVaccineTypeController</text><rect fill="#E2E2F0" height="12.9598" rx="1.025" ry="1.025" style="stroke:#181818;stroke-width:0.205;" width="31.98" x="344.195" y="2.05"/><text fill="#000000" font-family="sans-serif" font-size="5.74" lengthAdjust="spacing" textLength="26.24" x="347.065" y="10.8786">:Company</text><rect fill="#E2E2F0" height="12.9598" rx="1.025" ry="1.025" style="stroke:#181818;stroke-width:0.205;" width="31.98" x="344.195" y="274.7577"/><text fill="#000000" font-family="sans-serif" font-size="5.74" lengthAdjust="spacing" textLength="26.24" x="347.065" y="283.5863">:Company</text><rect fill="#E2E2F0" height="12.9598" rx="1.025" ry="1.025" style="stroke:#181818;stroke-width:0.205;" width="69.7" x="380.275" y="2.05"/><text fill="#000000" font-family="sans-serif" font-size="5.74" lengthAdjust="spacing" textLength="63.96" x="383.145" y="10.8786">store: VaccineTypeStore</text><rect fill="#E2E2F0" height="12.9598" rx="1.025" ry="1.025" style="stroke:#181818;stroke-width:0.205;" width="69.7" x="380.275" y="274.7577"/><text fill="#000000" font-family="sans-serif" font-size="5.74" lengthAdjust="spacing" textLength="63.96" x="383.145" y="283.5863">store: VaccineTypeStore</text><rect fill="#E2E2F0" height="12.9598" rx="1.025" ry="1.025" style="stroke:#181818;stroke-width:0.205;" width="39.36" x="508.195" y="274.7577"/><text fill="#000000" font-family="sans-serif" font-size="5.74" lengthAdjust="spacing" textLength="33.62" x="511.065" y="283.5863">VaccineType</text><rect fill="#FFFFFF" height="251.9578" style="stroke:#181818;stroke-width:0.41;" width="4.1" x="19.885" y="19.5198"/><rect fill="#FFFFFF" height="12.4441" style="stroke:#181818;stroke-width:0.41;" width="4.1" x="142.065" y="28.684"/><rect fill="#FFFFFF" height="104.2905" style="stroke:#181818;stroke-width:0.41;" width="4.1" x="142.065" y="53.5723"/><rect fill="#FFFFFF" height="97.4807" style="stroke:#181818;stroke-width:0.41;" width="4.1" x="142.065" y="170.307"/><rect fill="#FFFFFF" height="91.8464" style="stroke:#181818;stroke-width:0.41;" width="4.1" x="269.165" y="66.0164"/><rect fill="#FFFFFF" height="85.0366" style="stroke:#181818;stroke-width:0.41;" width="4.1" x="269.165" y="182.7511"/><rect fill="#FFFFFF" height="12.3" style="stroke:#181818;stroke-width:0.41;" width="4.1" x="358.135" y="78.4605"/><rect fill="#FFFFFF" height="12.4441" style="stroke:#181818;stroke-width:0.41;" width="4.1" x="413.075" y="103.2047"/><rect fill="#FFFFFF" height="12.3" style="stroke:#181818;stroke-width:0.41;" width="4.1" x="413.075" y="133.1187"/><rect fill="#FFFFFF" height="76.2824" style="stroke:#181818;stroke-width:0.41;" width="4.1" x="413.075" y="195.1952"/><rect fill="#FFFFFF" height="11.48" style="stroke:#181818;stroke-width:0.41;" width="4.1" x="415.125" y="210.9194"/><rect fill="#FFFFFF" height="11.48" style="stroke:#181818;stroke-width:0.41;" width="4.1" x="415.125" y="240.9935"/><polygon fill="#181818" points="137.145,27.044,141.245,28.684,137.145,30.324,138.785,28.684" style="stroke:#181818;stroke-width:0.41;"/><line style="stroke:#181818;stroke-width:0.41;" x1="23.985" x2="139.605" y1="28.684" y2="28.684"/><text fill="#000000" font-family="sans-serif" font-size="5.33" font-weight="bold" lengthAdjust="spacing" textLength="2.87" x="26.855" y="26.6928">1</text><text fill="#000000" font-family="sans-serif" font-size="5.33" lengthAdjust="spacing" textLength="85.69" x="31.365" y="26.6928">starts specifying a new vaccine type</text><polygon fill="#181818" points="28.495,39.4881,24.395,41.1281,28.495,42.7681,26.855,41.1281" style="stroke:#181818;stroke-width:0.41;"/><line style="stroke:#181818;stroke-width:0.41;stroke-dasharray:2.0,2.0;" x1="26.035" x2="143.705" y1="41.1281" y2="41.1281"/><text fill="#000000" font-family="sans-serif" font-size="5.33" font-weight="bold" lengthAdjust="spacing" textLength="2.87" x="30.955" y="39.137">2</text><text fill="#000000" font-family="sans-serif" font-size="5.33" lengthAdjust="spacing" textLength="103.73" x="35.465" y="39.137">request data (i.e., code, designation, whold)</text><polygon fill="#181818" points="137.145,51.9323,141.245,53.5723,137.145,55.2123,138.785,53.5723" style="stroke:#181818;stroke-width:0.41;"/><line style="stroke:#181818;stroke-width:0.41;" x1="23.985" x2="139.605" y1="53.5723" y2="53.5723"/><text fill="#000000" font-family="sans-serif" font-size="5.33" font-weight="bold" lengthAdjust="spacing" textLength="2.87" x="26.855" y="51.5811">3</text><text fill="#000000" font-family="sans-serif" font-size="5.33" lengthAdjust="spacing" textLength="50.02" x="31.365" y="51.5811">types requested data</text><polygon fill="#181818" points="264.245,64.3764,268.345,66.0164,264.245,67.6564,265.885,66.0164" style="stroke:#181818;stroke-width:0.41;"/><line style="stroke:#181818;stroke-width:0.41;" x1="146.165" x2="266.705" y1="66.0164" y2="66.0164"/><text fill="#000000" font-family="sans-serif" font-size="5.33" font-weight="bold" lengthAdjust="spacing" textLength="2.87" x="149.035" y="64.0253">4</text><text fill="#000000" font-family="sans-serif" font-size="5.33" lengthAdjust="spacing" textLength="110.7" x="153.545" y="64.0253">create Vaccine Type(code, designation, whold)</text><polygon fill="#181818" points="353.215,76.8205,357.315,78.4605,353.215,80.1005,354.855,78.4605" style="stroke:#181818;stroke-width:0.41;"/><line style="stroke:#181818;stroke-width:0.41;" x1="273.265" x2="355.675" y1="78.4605" y2="78.4605"/><text fill="#000000" font-family="sans-serif" font-size="5.33" font-weight="bold" lengthAdjust="spacing" textLength="2.87" x="276.135" y="76.4694">5</text><text fill="#000000" font-family="sans-serif" font-size="5.33" lengthAdjust="spacing" textLength="72.57" x="280.645" y="76.4694">store = getVaccineTypeStore()</text><polygon fill="#181818" points="408.155,101.5647,412.255,103.2047,408.155,104.8447,409.795,103.2047" style="stroke:#181818;stroke-width:0.41;"/><line style="stroke:#181818;stroke-width:0.41;" x1="273.265" x2="410.615" y1="103.2047" y2="103.2047"/><text fill="#000000" font-family="sans-serif" font-size="5.33" font-weight="bold" lengthAdjust="spacing" textLength="2.87" x="276.135" y="101.2135">6</text><text fill="#000000" font-family="sans-serif" font-size="5.33" lengthAdjust="spacing" textLength="117.67" x="280.645" y="101.2135">vt = createVaccineType(code, designation, whold)</text><polygon fill="#181818" points="503.275,114.0088,507.375,115.6488,503.275,117.2888,504.915,115.6488" style="stroke:#181818;stroke-width:0.41;"/><line style="stroke:#181818;stroke-width:0.41;stroke-dasharray:2.0,2.0;" x1="415.125" x2="505.735" y1="115.6488" y2="115.6488"/><text fill="#000000" font-family="sans-serif" font-size="5.33" font-weight="bold" lengthAdjust="spacing" textLength="2.87" x="417.995" y="113.6577">7</text><text fill="#000000" font-family="sans-serif" font-size="5.33" lengthAdjust="spacing" textLength="76.67" x="422.505" y="113.6577">create(code, designation, whold)</text><rect fill="#E2E2F0" height="12.9598" rx="1.025" ry="1.025" style="stroke:#181818;stroke-width:0.205;" width="39.36" x="508.195" y="106.4847"/><text fill="#000000" font-family="sans-serif" font-size="5.74" lengthAdjust="spacing" textLength="33.62" x="511.065" y="115.3133">VaccineType</text><polygon fill="#181818" points="408.155,131.4787,412.255,133.1187,408.155,134.7587,409.795,133.1187" style="stroke:#181818;stroke-width:0.41;"/><line style="stroke:#181818;stroke-width:0.41;" x1="273.265" x2="410.615" y1="133.1187" y2="133.1187"/><text fill="#000000" font-family="sans-serif" font-size="5.33" font-weight="bold" lengthAdjust="spacing" textLength="2.87" x="276.135" y="131.1275">8</text><text fill="#000000" font-family="sans-serif" font-size="5.33" lengthAdjust="spacing" textLength="55.35" x="280.645" y="131.1275">validateVaccineType(vt)</text><polygon fill="#181818" points="28.495,156.2228,24.395,157.8628,28.495,159.5028,26.855,157.8628" style="stroke:#181818;stroke-width:0.41;"/><line style="stroke:#181818;stroke-width:0.41;stroke-dasharray:2.0,2.0;" x1="26.035" x2="143.705" y1="157.8628" y2="157.8628"/><text fill="#000000" font-family="sans-serif" font-size="5.33" font-weight="bold" lengthAdjust="spacing" textLength="2.87" x="30.955" y="155.8717">9</text><text fill="#000000" font-family="sans-serif" font-size="5.33" lengthAdjust="spacing" textLength="103.32" x="35.465" y="155.8717">shows the data and requests a confirmation</text><polygon fill="#181818" points="137.145,168.667,141.245,170.307,137.145,171.947,138.785,170.307" style="stroke:#181818;stroke-width:0.41;"/><line style="stroke:#181818;stroke-width:0.41;" x1="23.985" x2="139.605" y1="170.307" y2="170.307"/><text fill="#000000" font-family="sans-serif" font-size="5.33" font-weight="bold" lengthAdjust="spacing" textLength="5.74" x="26.855" y="168.3158">10</text><text fill="#000000" font-family="sans-serif" font-size="5.33" lengthAdjust="spacing" textLength="41" x="34.235" y="168.3158">confirms the data</text><polygon fill="#181818" points="264.245,181.1111,268.345,182.7511,264.245,184.3911,265.885,182.7511" style="stroke:#181818;stroke-width:0.41;"/><line style="stroke:#181818;stroke-width:0.41;" x1="146.165" x2="266.705" y1="182.7511" y2="182.7511"/><text fill="#000000" font-family="sans-serif" font-size="5.33" font-weight="bold" lengthAdjust="spacing" textLength="5.74" x="149.035" y="180.76">11</text><text fill="#000000" font-family="sans-serif" font-size="5.33" lengthAdjust="spacing" textLength="46.33" x="156.415" y="180.76">saveVaccine Type()</text><polygon fill="#181818" points="408.155,193.5552,412.255,195.1952,408.155,196.8352,409.795,195.1952" style="stroke:#181818;stroke-width:0.41;"/><line style="stroke:#181818;stroke-width:0.41;" x1="273.265" x2="410.615" y1="195.1952" y2="195.1952"/><text fill="#000000" font-family="sans-serif" font-size="5.33" font-weight="bold" lengthAdjust="spacing" textLength="5.74" x="276.135" y="193.2041">12</text><text fill="#000000" font-family="sans-serif" font-size="5.33" lengthAdjust="spacing" textLength="48.38" x="283.515" y="193.2041">saveVaccineType(vt)</text><line style="stroke:#181818;stroke-width:0.41;" x1="419.225" x2="436.445" y1="207.6394" y2="207.6394"/><line style="stroke:#181818;stroke-width:0.41;" x1="436.445" x2="436.445" y1="207.6394" y2="212.9694"/><line style="stroke:#181818;stroke-width:0.41;" x1="419.635" x2="436.445" y1="212.9694" y2="212.9694"/><polygon fill="#181818" points="423.735,211.3294,419.635,212.9694,423.735,214.6094,422.095,212.9694" style="stroke:#181818;stroke-width:0.41;"/><text fill="#000000" font-family="sans-serif" font-size="5.33" font-weight="bold" lengthAdjust="spacing" textLength="5.74" x="422.095" y="205.6482">13</text><text fill="#000000" font-family="sans-serif" font-size="5.33" lengthAdjust="spacing" textLength="55.35" x="429.475" y="205.6482">validateVaccineType(vt)</text><line style="stroke:#181818;stroke-width:0.41;" x1="419.225" x2="436.445" y1="237.7135" y2="237.7135"/><line style="stroke:#181818;stroke-width:0.41;" x1="436.445" x2="436.445" y1="237.7135" y2="243.0435"/><line style="stroke:#181818;stroke-width:0.41;" x1="419.635" x2="436.445" y1="243.0435" y2="243.0435"/><polygon fill="#181818" points="423.735,241.4035,419.635,243.0435,423.735,244.6835,422.095,243.0435" style="stroke:#181818;stroke-width:0.41;"/><text fill="#000000" font-family="sans-serif" font-size="5.33" font-weight="bold" lengthAdjust="spacing" textLength="5.74" x="422.095" y="235.7224">14</text><text fill="#000000" font-family="sans-serif" font-size="5.33" lengthAdjust="spacing" textLength="46.33" x="429.475" y="235.7224">addVaccineType(vt)</text><polygon fill="#181818" points="28.495,266.1477,24.395,267.7877,28.495,269.4277,26.855,267.7877" style="stroke:#181818;stroke-width:0.41;"/><line style="stroke:#181818;stroke-width:0.41;stroke-dasharray:2.0,2.0;" x1="26.035" x2="143.705" y1="267.7877" y2="267.7877"/><text fill="#000000" font-family="sans-serif" font-size="5.33" font-weight="bold" lengthAdjust="spacing" textLength="5.74" x="30.955" y="265.7965">15</text><text fill="#000000" font-family="sans-serif" font-size="5.33" lengthAdjust="spacing" textLength="62.32" x="38.335" y="265.7965">informs operation success</text><!--MD5=[546dc567d6992bdade4d7e8375fa3f66]
@startuml
'https://plantuml.com/sequence-diagram

autonumber
activate Administrator
actor "Administrator"
Administrator -> ":SpecifyNewVaccineTypeUI" : starts specifying a new vaccine type
activate ":SpecifyNewVaccineTypeUI"
":SpecifyNewVaccineTypeUI" - -> Administrator : request data (i.e., code, designation, whold)
deactivate

Administrator -> ":SpecifyNewVaccineTypeUI" : types requested data
activate ":SpecifyNewVaccineTypeUI"
":SpecifyNewVaccineTypeUI" -> ":SpecifyNewVaccineTypeController" : create Vaccine Type(code, designation, whold)
activate ":SpecifyNewVaccineTypeController"

":SpecifyNewVaccineTypeController" -> ":Company" : store = getVaccineTypeStore()
activate ":Company"
deactivate ":Company"
":SpecifyNewVaccineTypeController" -> "store: VaccineTypeStore" : vt = createVaccineType(code, designation, whold)
activate "store: VaccineTypeStore"
create "VaccineType"
"store: VaccineTypeStore" - -> "VaccineType" : create(code, designation, whold)
deactivate "store: VaccineTypeStore"

":SpecifyNewVaccineTypeController" -> "store: VaccineTypeStore" : validateVaccineType(vt)
activate "store: VaccineTypeStore"
deactivate "store: VaccineTypeStore"
":SpecifyNewVaccineTypeUI" - -> Administrator : shows the data and requests a confirmation
deactivate ":SpecifyNewVaccineTypeController"
deactivate ":SpecifyNewVaccineTypeUI"

Administrator -> ":SpecifyNewVaccineTypeUI" : confirms the data
activate ":SpecifyNewVaccineTypeUI"
":SpecifyNewVaccineTypeUI" -> ":SpecifyNewVaccineTypeController" : saveVaccine Type()
activate ":SpecifyNewVaccineTypeController"

":SpecifyNewVaccineTypeController" -> "store: VaccineTypeStore" : saveVaccineType(vt)
activate "store: VaccineTypeStore"
"store: VaccineTypeStore"-> "store: VaccineTypeStore" : validateVaccineType(vt)
activate "store: VaccineTypeStore"
deactivate "store: VaccineTypeStore"


"store: VaccineTypeStore"-> "store: VaccineTypeStore" : addVaccineType(vt)
activate "store: VaccineTypeStore"
deactivate "store: VaccineTypeStore"
":SpecifyNewVaccineTypeUI" - -> Administrator : informs operation success
deactivate ":SpecifyNewVaccineTypeUI"
deactivate ":SpecifyNewVaccineTypeController"


@enduml

@startuml

autonumber
activate Administrator
actor "Administrator"
Administrator -> ":SpecifyNewVaccineTypeUI" : starts specifying a new vaccine type
activate ":SpecifyNewVaccineTypeUI"
":SpecifyNewVaccineTypeUI" - -> Administrator : request data (i.e., code, designation, whold)
deactivate

Administrator -> ":SpecifyNewVaccineTypeUI" : types requested data
activate ":SpecifyNewVaccineTypeUI"
":SpecifyNewVaccineTypeUI" -> ":SpecifyNewVaccineTypeController" : create Vaccine Type(code, designation, whold)
activate ":SpecifyNewVaccineTypeController"

":SpecifyNewVaccineTypeController" -> ":Company" : store = getVaccineTypeStore()
activate ":Company"
deactivate ":Company"
":SpecifyNewVaccineTypeController" -> "store: VaccineTypeStore" : vt = createVaccineType(code, designation, whold)
activate "store: VaccineTypeStore"
create "VaccineType"
"store: VaccineTypeStore" - -> "VaccineType" : create(code, designation, whold)
deactivate "store: VaccineTypeStore"

":SpecifyNewVaccineTypeController" -> "store: VaccineTypeStore" : validateVaccineType(vt)
activate "store: VaccineTypeStore"
deactivate "store: VaccineTypeStore"
":SpecifyNewVaccineTypeUI" - -> Administrator : shows the data and requests a confirmation
deactivate ":SpecifyNewVaccineTypeController"
deactivate ":SpecifyNewVaccineTypeUI"

Administrator -> ":SpecifyNewVaccineTypeUI" : confirms the data
activate ":SpecifyNewVaccineTypeUI"
":SpecifyNewVaccineTypeUI" -> ":SpecifyNewVaccineTypeController" : saveVaccine Type()
activate ":SpecifyNewVaccineTypeController"

":SpecifyNewVaccineTypeController" -> "store: VaccineTypeStore" : saveVaccineType(vt)
activate "store: VaccineTypeStore"
"store: VaccineTypeStore"-> "store: VaccineTypeStore" : validateVaccineType(vt)
activate "store: VaccineTypeStore"
deactivate "store: VaccineTypeStore"


"store: VaccineTypeStore"-> "store: VaccineTypeStore" : addVaccineType(vt)
activate "store: VaccineTypeStore"
deactivate "store: VaccineTypeStore"
":SpecifyNewVaccineTypeUI" - -> Administrator : informs operation success
deactivate ":SpecifyNewVaccineTypeUI"
deactivate ":SpecifyNewVaccineTypeController"


@enduml

PlantUML version 1.2022.4(Sat Apr 09 14:29:17 BST 2022)
(GPL source distribution)
Java Runtime: OpenJDK Runtime Environment
JVM: OpenJDK 64-Bit Server VM
Default Encoding: Cp1252
Language: pt
Country: PT
--></g></svg>