<?xml version="1.0" encoding="UTF-8" standalone="no"?><svg xmlns="http://www.w3.org/2000/svg" xmlns:xlink="http://www.w3.org/1999/xlink" contentScriptType="application/ecmascript" contentStyleType="text/css" height="304px" preserveAspectRatio="none" style="width:896px;height:304px;background:#FFFFFF;" version="1.1" viewBox="0 0 896 304" width="896px" zoomAndPan="magnify"><defs><filter height="300%" id="fdeh6qrdsu5sh" width="300%" x="-1" y="-1"><feGaussianBlur result="blurOut" stdDeviation="2.0"/><feColorMatrix in="blurOut" result="blurOut2" type="matrix" values="0 0 0 0 0 0 0 0 0 0 0 0 0 0 0 0 0 0 .4 0"/><feOffset dx="4.0" dy="4.0" in="blurOut2" result="blurOut3"/><feBlend in="SourceGraphic" in2="blurOut3" mode="normal"/></filter></defs><g><!--MD5=[a059576e163b46f56762f12600c49258]
class Nurse--><rect codeLine="3" fill="#FEFECE" filter="url(#fdeh6qrdsu5sh)" height="48" id="Nurse" style="stroke:#A80036;stroke-width:1.5;" width="66" x="350.5" y="133"/><ellipse cx="365.5" cy="149" fill="#ADD1B2" rx="11" ry="11" style="stroke:#A80036;stroke-width:1.0;"/><path d="M367.5,145.5 Q367.7031,145 367.9375,144.75 Q368.1719,144.5 368.4375,144.5 Q368.9063,144.5 369.2031,144.7813 Q369.5,145.0625 369.5,145.7188 L369.5,147.2813 Q369.5,147.9375 369.2188,148.2188 Q368.9375,148.5 368.5,148.5 Q368.1094,148.5 367.8594,148.3281 Q367.6094,148.1563 367.5,147.7031 Q367.4531,147.3906 367.2813,147.2188 Q366.9688,146.8906 366.4063,146.7031 Q365.8438,146.5 365.2813,146.5 Q364.5781,146.5 363.9844,146.7813 Q363.4063,147.0625 362.9531,147.6875 Q362.5,148.3125 362.5,149.1719 L362.5,150.0938 Q362.5,151.125 363.3438,151.8125 Q364.1875,152.5 365.6875,152.5 Q366.5781,152.5 367.2031,152.2969 Q367.5625,152.1875 367.9688,151.8281 Q368.2344,151.625 368.375,151.5625 Q368.5156,151.5 368.6875,151.5 Q369.0156,151.5 369.25,151.7656 Q369.5,152.0156 369.5,152.375 Q369.5,152.7188 369.1563,153.125 Q368.6563,153.7188 367.8594,154.0469 Q366.8125,154.5 365.5313,154.5 Q364.0313,154.5 362.8281,153.9063 Q361.8594,153.4375 361.1719,152.4219 Q360.5,151.4063 360.5,150.2031 L360.5,149.1094 Q360.5,147.8594 361.0938,146.7656 Q361.7031,145.6719 362.75,145.0938 Q363.8125,144.5 365,144.5 Q365.7188,144.5 366.3438,144.75 Q366.9688,145 367.5,145.5 Z " fill="#000000"/><text fill="#000000" font-family="sans-serif" font-size="12" lengthAdjust="spacing" textLength="34" x="379.5" y="153.9102">Nurse</text><line style="stroke:#A80036;stroke-width:1.5;" x1="351.5" x2="415.5" y1="165" y2="165"/><line style="stroke:#A80036;stroke-width:1.5;" x1="351.5" x2="415.5" y1="173" y2="173"/><!--MD5=[7421f545a0d8420c5bec41e74b387d9c]
class Employee--><rect codeLine="4" fill="#FEFECE" filter="url(#fdeh6qrdsu5sh)" height="48" id="Employee" style="stroke:#A80036;stroke-width:1.5;" width="87" x="171" y="133"/><ellipse cx="186" cy="149" fill="#ADD1B2" rx="11" ry="11" style="stroke:#A80036;stroke-width:1.0;"/><path d="M188,145.5 Q188.2031,145 188.4375,144.75 Q188.6719,144.5 188.9375,144.5 Q189.4063,144.5 189.7031,144.7813 Q190,145.0625 190,145.7188 L190,147.2813 Q190,147.9375 189.7188,148.2188 Q189.4375,148.5 189,148.5 Q188.6094,148.5 188.3594,148.3281 Q188.1094,148.1563 188,147.7031 Q187.9531,147.3906 187.7813,147.2188 Q187.4688,146.8906 186.9063,146.7031 Q186.3438,146.5 185.7813,146.5 Q185.0781,146.5 184.4844,146.7813 Q183.9063,147.0625 183.4531,147.6875 Q183,148.3125 183,149.1719 L183,150.0938 Q183,151.125 183.8438,151.8125 Q184.6875,152.5 186.1875,152.5 Q187.0781,152.5 187.7031,152.2969 Q188.0625,152.1875 188.4688,151.8281 Q188.7344,151.625 188.875,151.5625 Q189.0156,151.5 189.1875,151.5 Q189.5156,151.5 189.75,151.7656 Q190,152.0156 190,152.375 Q190,152.7188 189.6563,153.125 Q189.1563,153.7188 188.3594,154.0469 Q187.3125,154.5 186.0313,154.5 Q184.5313,154.5 183.3281,153.9063 Q182.3594,153.4375 181.6719,152.4219 Q181,151.4063 181,150.2031 L181,149.1094 Q181,147.8594 181.5938,146.7656 Q182.2031,145.6719 183.25,145.0938 Q184.3125,144.5 185.5,144.5 Q186.2188,144.5 186.8438,144.75 Q187.4688,145 188,145.5 Z " fill="#000000"/><text fill="#000000" font-family="sans-serif" font-size="12" lengthAdjust="spacing" textLength="55" x="200" y="153.9102">Employee</text><line style="stroke:#A80036;stroke-width:1.5;" x1="172" x2="257" y1="165" y2="165"/><line style="stroke:#A80036;stroke-width:1.5;" x1="172" x2="257" y1="173" y2="173"/><!--MD5=[72be06cc7ae02ccc98efe28a50e62246]
class SNSUser--><rect codeLine="5" fill="#FEFECE" filter="url(#fdeh6qrdsu5sh)" height="48" id="SNSUser" style="stroke:#A80036;stroke-width:1.5;" width="84" x="341.5" y="242"/><ellipse cx="356.5" cy="258" fill="#ADD1B2" rx="11" ry="11" style="stroke:#A80036;stroke-width:1.0;"/><path d="M358.5,254.5 Q358.7031,254 358.9375,253.75 Q359.1719,253.5 359.4375,253.5 Q359.9063,253.5 360.2031,253.7813 Q360.5,254.0625 360.5,254.7188 L360.5,256.2813 Q360.5,256.9375 360.2188,257.2188 Q359.9375,257.5 359.5,257.5 Q359.1094,257.5 358.8594,257.3281 Q358.6094,257.1563 358.5,256.7031 Q358.4531,256.3906 358.2813,256.2188 Q357.9688,255.8906 357.4063,255.7031 Q356.8438,255.5 356.2813,255.5 Q355.5781,255.5 354.9844,255.7813 Q354.4063,256.0625 353.9531,256.6875 Q353.5,257.3125 353.5,258.1719 L353.5,259.0938 Q353.5,260.125 354.3438,260.8125 Q355.1875,261.5 356.6875,261.5 Q357.5781,261.5 358.2031,261.2969 Q358.5625,261.1875 358.9688,260.8281 Q359.2344,260.625 359.375,260.5625 Q359.5156,260.5 359.6875,260.5 Q360.0156,260.5 360.25,260.7656 Q360.5,261.0156 360.5,261.375 Q360.5,261.7188 360.1563,262.125 Q359.6563,262.7188 358.8594,263.0469 Q357.8125,263.5 356.5313,263.5 Q355.0313,263.5 353.8281,262.9063 Q352.8594,262.4375 352.1719,261.4219 Q351.5,260.4063 351.5,259.2031 L351.5,258.1094 Q351.5,256.8594 352.0938,255.7656 Q352.7031,254.6719 353.75,254.0938 Q354.8125,253.5 356,253.5 Q356.7188,253.5 357.3438,253.75 Q357.9688,254 358.5,254.5 Z " fill="#000000"/><text fill="#000000" font-family="sans-serif" font-size="12" lengthAdjust="spacing" textLength="52" x="370.5" y="262.9102">SNSUser</text><line style="stroke:#A80036;stroke-width:1.5;" x1="342.5" x2="424.5" y1="274" y2="274"/><line style="stroke:#A80036;stroke-width:1.5;" x1="342.5" x2="424.5" y1="282" y2="282"/><!--MD5=[a6e3c52b0ef503fa87d5e9c46b771c07]
class VaccinationCentres--><rect codeLine="6" fill="#FEFECE" filter="url(#fdeh6qrdsu5sh)" height="48" id="VaccinationCentres" style="stroke:#A80036;stroke-width:1.5;" width="139" x="505" y="133"/><ellipse cx="520" cy="149" fill="#ADD1B2" rx="11" ry="11" style="stroke:#A80036;stroke-width:1.0;"/><path d="M522,145.5 Q522.2031,145 522.4375,144.75 Q522.6719,144.5 522.9375,144.5 Q523.4063,144.5 523.7031,144.7813 Q524,145.0625 524,145.7188 L524,147.2813 Q524,147.9375 523.7188,148.2188 Q523.4375,148.5 523,148.5 Q522.6094,148.5 522.3594,148.3281 Q522.1094,148.1563 522,147.7031 Q521.9531,147.3906 521.7813,147.2188 Q521.4688,146.8906 520.9063,146.7031 Q520.3438,146.5 519.7813,146.5 Q519.0781,146.5 518.4844,146.7813 Q517.9063,147.0625 517.4531,147.6875 Q517,148.3125 517,149.1719 L517,150.0938 Q517,151.125 517.8438,151.8125 Q518.6875,152.5 520.1875,152.5 Q521.0781,152.5 521.7031,152.2969 Q522.0625,152.1875 522.4688,151.8281 Q522.7344,151.625 522.875,151.5625 Q523.0156,151.5 523.1875,151.5 Q523.5156,151.5 523.75,151.7656 Q524,152.0156 524,152.375 Q524,152.7188 523.6563,153.125 Q523.1563,153.7188 522.3594,154.0469 Q521.3125,154.5 520.0313,154.5 Q518.5313,154.5 517.3281,153.9063 Q516.3594,153.4375 515.6719,152.4219 Q515,151.4063 515,150.2031 L515,149.1094 Q515,147.8594 515.5938,146.7656 Q516.2031,145.6719 517.25,145.0938 Q518.3125,144.5 519.5,144.5 Q520.2188,144.5 520.8438,144.75 Q521.4688,145 522,145.5 Z " fill="#000000"/><text fill="#000000" font-family="sans-serif" font-size="12" lengthAdjust="spacing" textLength="107" x="534" y="153.9102">VaccinationCentres</text><line style="stroke:#A80036;stroke-width:1.5;" x1="506" x2="643" y1="165" y2="165"/><line style="stroke:#A80036;stroke-width:1.5;" x1="506" x2="643" y1="173" y2="173"/><!--MD5=[88693adb725d43b8318c772d5a1fa81c]
class CommunityMassVaccinationCentre--><rect codeLine="7" fill="#FEFECE" filter="url(#fdeh6qrdsu5sh)" height="48" id="CommunityMassVaccinationCentre" style="stroke:#A80036;stroke-width:1.5;" width="225" x="657" y="242"/><ellipse cx="672" cy="258" fill="#ADD1B2" rx="11" ry="11" style="stroke:#A80036;stroke-width:1.0;"/><path d="M674,254.5 Q674.2031,254 674.4375,253.75 Q674.6719,253.5 674.9375,253.5 Q675.4063,253.5 675.7031,253.7813 Q676,254.0625 676,254.7188 L676,256.2813 Q676,256.9375 675.7188,257.2188 Q675.4375,257.5 675,257.5 Q674.6094,257.5 674.3594,257.3281 Q674.1094,257.1563 674,256.7031 Q673.9531,256.3906 673.7813,256.2188 Q673.4688,255.8906 672.9063,255.7031 Q672.3438,255.5 671.7813,255.5 Q671.0781,255.5 670.4844,255.7813 Q669.9063,256.0625 669.4531,256.6875 Q669,257.3125 669,258.1719 L669,259.0938 Q669,260.125 669.8438,260.8125 Q670.6875,261.5 672.1875,261.5 Q673.0781,261.5 673.7031,261.2969 Q674.0625,261.1875 674.4688,260.8281 Q674.7344,260.625 674.875,260.5625 Q675.0156,260.5 675.1875,260.5 Q675.5156,260.5 675.75,260.7656 Q676,261.0156 676,261.375 Q676,261.7188 675.6563,262.125 Q675.1563,262.7188 674.3594,263.0469 Q673.3125,263.5 672.0313,263.5 Q670.5313,263.5 669.3281,262.9063 Q668.3594,262.4375 667.6719,261.4219 Q667,260.4063 667,259.2031 L667,258.1094 Q667,256.8594 667.5938,255.7656 Q668.2031,254.6719 669.25,254.0938 Q670.3125,253.5 671.5,253.5 Q672.2188,253.5 672.8438,253.75 Q673.4688,254 674,254.5 Z " fill="#000000"/><text fill="#000000" font-family="sans-serif" font-size="12" lengthAdjust="spacing" textLength="193" x="686" y="262.9102">CommunityMassVaccinationCentre</text><line style="stroke:#A80036;stroke-width:1.5;" x1="658" x2="881" y1="274" y2="274"/><line style="stroke:#A80036;stroke-width:1.5;" x1="658" x2="881" y1="282" y2="282"/><!--MD5=[5aed9dadfada8b0b395a753e8fd4254d]
class HealthCareCentres--><rect codeLine="8" fill="#FEFECE" filter="url(#fdeh6qrdsu5sh)" height="48" id="HealthCareCentres" style="stroke:#A80036;stroke-width:1.5;" width="139" x="483" y="242"/><ellipse cx="498" cy="258" fill="#ADD1B2" rx="11" ry="11" style="stroke:#A80036;stroke-width:1.0;"/><path d="M500,254.5 Q500.2031,254 500.4375,253.75 Q500.6719,253.5 500.9375,253.5 Q501.4063,253.5 501.7031,253.7813 Q502,254.0625 502,254.7188 L502,256.2813 Q502,256.9375 501.7188,257.2188 Q501.4375,257.5 501,257.5 Q500.6094,257.5 500.3594,257.3281 Q500.1094,257.1563 500,256.7031 Q499.9531,256.3906 499.7813,256.2188 Q499.4688,255.8906 498.9063,255.7031 Q498.3438,255.5 497.7813,255.5 Q497.0781,255.5 496.4844,255.7813 Q495.9063,256.0625 495.4531,256.6875 Q495,257.3125 495,258.1719 L495,259.0938 Q495,260.125 495.8438,260.8125 Q496.6875,261.5 498.1875,261.5 Q499.0781,261.5 499.7031,261.2969 Q500.0625,261.1875 500.4688,260.8281 Q500.7344,260.625 500.875,260.5625 Q501.0156,260.5 501.1875,260.5 Q501.5156,260.5 501.75,260.7656 Q502,261.0156 502,261.375 Q502,261.7188 501.6563,262.125 Q501.1563,262.7188 500.3594,263.0469 Q499.3125,263.5 498.0313,263.5 Q496.5313,263.5 495.3281,262.9063 Q494.3594,262.4375 493.6719,261.4219 Q493,260.4063 493,259.2031 L493,258.1094 Q493,256.8594 493.5938,255.7656 Q494.2031,254.6719 495.25,254.0938 Q496.3125,253.5 497.5,253.5 Q498.2188,253.5 498.8438,253.75 Q499.4688,254 500,254.5 Z " fill="#000000"/><text fill="#000000" font-family="sans-serif" font-size="12" lengthAdjust="spacing" textLength="107" x="512" y="262.9102">HealthCareCentres</text><line style="stroke:#A80036;stroke-width:1.5;" x1="484" x2="621" y1="274" y2="274"/><line style="stroke:#A80036;stroke-width:1.5;" x1="484" x2="621" y1="282" y2="282"/><!--MD5=[02e4b9b7573f1156f41e60aa5b4e25a4]
class Company--><rect fill="#FEFECE" filter="url(#fdeh6qrdsu5sh)" height="48" id="Company" style="stroke:#A80036;stroke-width:1.5;" width="85" x="351" y="7"/><ellipse cx="366" cy="23" fill="#ADD1B2" rx="11" ry="11" style="stroke:#A80036;stroke-width:1.0;"/><path d="M368,19.5 Q368.2031,19 368.4375,18.75 Q368.6719,18.5 368.9375,18.5 Q369.4063,18.5 369.7031,18.7813 Q370,19.0625 370,19.7188 L370,21.2813 Q370,21.9375 369.7188,22.2188 Q369.4375,22.5 369,22.5 Q368.6094,22.5 368.3594,22.3281 Q368.1094,22.1563 368,21.7031 Q367.9531,21.3906 367.7813,21.2188 Q367.4688,20.8906 366.9063,20.7031 Q366.3438,20.5 365.7813,20.5 Q365.0781,20.5 364.4844,20.7813 Q363.9063,21.0625 363.4531,21.6875 Q363,22.3125 363,23.1719 L363,24.0938 Q363,25.125 363.8438,25.8125 Q364.6875,26.5 366.1875,26.5 Q367.0781,26.5 367.7031,26.2969 Q368.0625,26.1875 368.4688,25.8281 Q368.7344,25.625 368.875,25.5625 Q369.0156,25.5 369.1875,25.5 Q369.5156,25.5 369.75,25.7656 Q370,26.0156 370,26.375 Q370,26.7188 369.6563,27.125 Q369.1563,27.7188 368.3594,28.0469 Q367.3125,28.5 366.0313,28.5 Q364.5313,28.5 363.3281,27.9063 Q362.3594,27.4375 361.6719,26.4219 Q361,25.4063 361,24.2031 L361,23.1094 Q361,21.8594 361.5938,20.7656 Q362.2031,19.6719 363.25,19.0938 Q364.3125,18.5 365.5,18.5 Q366.2188,18.5 366.8438,18.75 Q367.4688,19 368,19.5 Z " fill="#000000"/><text fill="#000000" font-family="sans-serif" font-size="12" lengthAdjust="spacing" textLength="53" x="380" y="27.9102">Company</text><line style="stroke:#A80036;stroke-width:1.5;" x1="352" x2="435" y1="39" y2="39"/><line style="stroke:#A80036;stroke-width:1.5;" x1="352" x2="435" y1="47" y2="47"/><!--MD5=[aaa7e27c4ec43917c82a021675d2c87a]
class WaitingRoom--><rect fill="#FEFECE" filter="url(#fdeh6qrdsu5sh)" height="48" id="WaitingRoom" style="stroke:#A80036;stroke-width:1.5;" width="107" x="702" y="133"/><ellipse cx="717" cy="149" fill="#ADD1B2" rx="11" ry="11" style="stroke:#A80036;stroke-width:1.0;"/><path d="M719,145.5 Q719.2031,145 719.4375,144.75 Q719.6719,144.5 719.9375,144.5 Q720.4063,144.5 720.7031,144.7813 Q721,145.0625 721,145.7188 L721,147.2813 Q721,147.9375 720.7188,148.2188 Q720.4375,148.5 720,148.5 Q719.6094,148.5 719.3594,148.3281 Q719.1094,148.1563 719,147.7031 Q718.9531,147.3906 718.7813,147.2188 Q718.4688,146.8906 717.9063,146.7031 Q717.3438,146.5 716.7813,146.5 Q716.0781,146.5 715.4844,146.7813 Q714.9063,147.0625 714.4531,147.6875 Q714,148.3125 714,149.1719 L714,150.0938 Q714,151.125 714.8438,151.8125 Q715.6875,152.5 717.1875,152.5 Q718.0781,152.5 718.7031,152.2969 Q719.0625,152.1875 719.4688,151.8281 Q719.7344,151.625 719.875,151.5625 Q720.0156,151.5 720.1875,151.5 Q720.5156,151.5 720.75,151.7656 Q721,152.0156 721,152.375 Q721,152.7188 720.6563,153.125 Q720.1563,153.7188 719.3594,154.0469 Q718.3125,154.5 717.0313,154.5 Q715.5313,154.5 714.3281,153.9063 Q713.3594,153.4375 712.6719,152.4219 Q712,151.4063 712,150.2031 L712,149.1094 Q712,147.8594 712.5938,146.7656 Q713.2031,145.6719 714.25,145.0938 Q715.3125,144.5 716.5,144.5 Q717.2188,144.5 717.8438,144.75 Q718.4688,145 719,145.5 Z " fill="#000000"/><text fill="#000000" font-family="sans-serif" font-size="12" lengthAdjust="spacing" textLength="75" x="731" y="153.9102">WaitingRoom</text><line style="stroke:#A80036;stroke-width:1.5;" x1="703" x2="808" y1="165" y2="165"/><line style="stroke:#A80036;stroke-width:1.5;" x1="703" x2="808" y1="173" y2="173"/><!--MD5=[3fd616f346a44cd59a91eb10b19e157c]
class User--><rect fill="#FEFECE" filter="url(#fdeh6qrdsu5sh)" height="48" id="User" style="stroke:#A80036;stroke-width:1.5;" width="59" x="7" y="133"/><ellipse cx="22" cy="149" fill="#ADD1B2" rx="11" ry="11" style="stroke:#A80036;stroke-width:1.0;"/><path d="M24,145.5 Q24.2031,145 24.4375,144.75 Q24.6719,144.5 24.9375,144.5 Q25.4063,144.5 25.7031,144.7813 Q26,145.0625 26,145.7188 L26,147.2813 Q26,147.9375 25.7188,148.2188 Q25.4375,148.5 25,148.5 Q24.6094,148.5 24.3594,148.3281 Q24.1094,148.1563 24,147.7031 Q23.9531,147.3906 23.7813,147.2188 Q23.4688,146.8906 22.9063,146.7031 Q22.3438,146.5 21.7813,146.5 Q21.0781,146.5 20.4844,146.7813 Q19.9063,147.0625 19.4531,147.6875 Q19,148.3125 19,149.1719 L19,150.0938 Q19,151.125 19.8438,151.8125 Q20.6875,152.5 22.1875,152.5 Q23.0781,152.5 23.7031,152.2969 Q24.0625,152.1875 24.4688,151.8281 Q24.7344,151.625 24.875,151.5625 Q25.0156,151.5 25.1875,151.5 Q25.5156,151.5 25.75,151.7656 Q26,152.0156 26,152.375 Q26,152.7188 25.6563,153.125 Q25.1563,153.7188 24.3594,154.0469 Q23.3125,154.5 22.0313,154.5 Q20.5313,154.5 19.3281,153.9063 Q18.3594,153.4375 17.6719,152.4219 Q17,151.4063 17,150.2031 L17,149.1094 Q17,147.8594 17.5938,146.7656 Q18.2031,145.6719 19.25,145.0938 Q20.3125,144.5 21.5,144.5 Q22.2188,144.5 22.8438,144.75 Q23.4688,145 24,145.5 Z " fill="#000000"/><text fill="#000000" font-family="sans-serif" font-size="12" lengthAdjust="spacing" textLength="27" x="36" y="153.9102">User</text><line style="stroke:#A80036;stroke-width:1.5;" x1="8" x2="65" y1="165" y2="165"/><line style="stroke:#A80036;stroke-width:1.5;" x1="8" x2="65" y1="173" y2="173"/><!--MD5=[b71b66caf67976638439c0d1a3790473]
link Employee to Nurse--><path codeLine="10" d="M258.02,157 C286.77,157 323.88,157 350.27,157 " fill="none" id="Employee-Nurse" style="stroke:#A80036;stroke-width:1.0;"/><text fill="#000000" font-family="sans-serif" font-size="13" lengthAdjust="spacing" textLength="56" x="276.25" y="150.4951">plays role</text><text fill="#000000" font-family="sans-serif" font-size="13" lengthAdjust="spacing" textLength="5" x="265.9297" y="153.1503">*</text><text fill="#000000" font-family="sans-serif" font-size="13" lengthAdjust="spacing" textLength="7" x="335.6944" y="152.8814">1</text><!--MD5=[44ce67b9ae4b4a4a3bd0ed01886d6243]
link Nurse to SNSUser--><path codeLine="11" d="M383.5,181.22 C383.5,199.16 383.5,223.89 383.5,241.83 " fill="none" id="Nurse-SNSUser" style="stroke:#A80036;stroke-width:1.0;"/><!--MD5=[32b0249a1ed18a620bfda59f79e3b80b]
link Nurse to VaccinationCentres--><path codeLine="12" d="M416.77,157 C441.03,157 474.78,157 504.84,157 " fill="none" id="Nurse-VaccinationCentres" style="stroke:#A80036;stroke-width:1.0;"/><text fill="#000000" font-family="sans-serif" font-size="13" lengthAdjust="spacing" textLength="52" x="434.75" y="150.4951">works on</text><text fill="#000000" font-family="sans-serif" font-size="13" lengthAdjust="spacing" textLength="7" x="424.3538" y="152.8814">1</text><text fill="#000000" font-family="sans-serif" font-size="13" lengthAdjust="spacing" textLength="5" x="491.9475" y="153.6393">*</text><!--MD5=[2bf50753d45a80022560e182af0d5d34]
reverse link VaccinationCentres to HealthCareCentres--><path codeLine="13" d="M565.64,201.09 C562.78,215.01 559.71,229.92 557.26,241.83 " fill="none" id="VaccinationCentres-backto-HealthCareCentres" style="stroke:#A80036;stroke-width:1.0;"/><polygon fill="none" points="558.84,199.4,569.73,181.22,572.55,202.22,558.84,199.4" style="stroke:#A80036;stroke-width:1.0;"/><!--MD5=[653230426a39bffb50c460145c7fb28b]
reverse link VaccinationCentres to CommunityMassVaccinationCentre--><path codeLine="14" d="M634.65,191 C664.64,207.46 700.2,226.97 727.27,241.83 " fill="none" id="VaccinationCentres-backto-CommunityMassVaccinationCentre" style="stroke:#A80036;stroke-width:1.0;"/><polygon fill="none" points="630.98,196.98,616.81,181.22,637.71,184.7,630.98,196.98" style="stroke:#A80036;stroke-width:1.0;"/><!--MD5=[53cea7f35a2e3b73e4d1bae4aee0df3e]
link Company to VaccinationCentres--><path codeLine="15" d="M427.12,55.03 C459.53,77.24 508.3,110.65 540.75,132.88 " fill="none" id="Company-VaccinationCentres" style="stroke:#A80036;stroke-width:1.0;"/><!--MD5=[09366576ee87d48d594df10cacc83f45]
link Company to Employee--><path codeLine="16" d="M360.25,55.03 C328.2,77.24 279.97,110.65 247.87,132.88 " fill="none" id="Company-Employee" style="stroke:#A80036;stroke-width:1.0;"/><text fill="#000000" font-family="sans-serif" font-size="13" lengthAdjust="spacing" textLength="42" x="316.5" y="99.4951">employ</text><text fill="#000000" font-family="sans-serif" font-size="13" lengthAdjust="spacing" textLength="7" x="344.2922" y="76.3753">1</text><text fill="#000000" font-family="sans-serif" font-size="13" lengthAdjust="spacing" textLength="5" x="250.7804" y="122.1894">*</text><!--MD5=[52aa0eb02180c7862e77e7366b13affc]
link VaccinationCentres to WaitingRoom--><path codeLine="17" d="M644.22,157 C663.34,157 683.77,157 701.84,157 " fill="none" id="VaccinationCentres-WaitingRoom" style="stroke:#A80036;stroke-width:1.0;"/><text fill="#000000" font-family="sans-serif" font-size="13" lengthAdjust="spacing" textLength="21" x="662.5" y="150.4951">has</text><text fill="#000000" font-family="sans-serif" font-size="13" lengthAdjust="spacing" textLength="7" x="652.2284" y="153.6393">1</text><text fill="#000000" font-family="sans-serif" font-size="13" lengthAdjust="spacing" textLength="5" x="688.9425" y="153.3948">*</text><!--MD5=[48afc90033d240f0c7566c2ff402e39b]
link User to Employee--><path codeLine="18" d="M66.29,157 C94.9,157 138.43,157 170.92,157 " fill="none" id="User-Employee" style="stroke:#A80036;stroke-width:1.0;"/><text fill="#000000" font-family="sans-serif" font-size="13" lengthAdjust="spacing" textLength="68" x="84.5" y="150.4951">is related to</text><!--MD5=[f9564e87c5ab5598427828bcaf796077]
@startuml
'https://plantuml.com/class-diagram

class Nurse
class Employee
class SNSUser
class VaccinationCentres
class CommunityMassVaccinationCentre
class HealthCareCentres

Employee"*"-"1"Nurse:plays role
Nurse- -SNSUser
Nurse"1"-"*"VaccinationCentres: works on
VaccinationCentres<|- -HealthCareCentres
VaccinationCentres<|- -CommunityMassVaccinationCentre
Company- -VaccinationCentres
Company"1"- -"*"Employee: employ
VaccinationCentres"1"-"*"WaitingRoom: has
User-Employee:is related to

@enduml

@startuml

class Nurse
class Employee
class SNSUser
class VaccinationCentres
class CommunityMassVaccinationCentre
class HealthCareCentres

Employee"*"-"1"Nurse:plays role
Nurse- -SNSUser
Nurse"1"-"*"VaccinationCentres: works on
VaccinationCentres<|- -HealthCareCentres
VaccinationCentres<|- -CommunityMassVaccinationCentre
Company- -VaccinationCentres
Company"1"- -"*"Employee: employ
VaccinationCentres"1"-"*"WaitingRoom: has
User-Employee:is related to

@enduml

PlantUML version 1.2022.1(Tue Feb 01 18:19:58 GMT 2022)
(GPL source distribution)
Java Runtime: OpenJDK Runtime Environment
JVM: OpenJDK 64-Bit Server VM
Default Encoding: Cp1252
Language: pt
Country: PT
--></g></svg>