<?xml version="1.0" encoding="UTF-8" standalone="no"?><svg xmlns="http://www.w3.org/2000/svg" xmlns:xlink="http://www.w3.org/1999/xlink" contentScriptType="application/ecmascript" contentStyleType="text/css" height="581.7px" preserveAspectRatio="none" style="width:770px;height:581px;background:#FFFFFF;" version="1.1" viewBox="0 0 770 581" width="770.7px" zoomAndPan="magnify"><defs><filter height="300%" id="f14tw4clr00w43" width="300%" x="-1" y="-1"><feGaussianBlur result="blurOut" stdDeviation="1.3999999999999997"/><feColorMatrix in="blurOut" result="blurOut2" type="matrix" values="0 0 0 0 0 0 0 0 0 0 0 0 0 0 0 0 0 0 .4 0"/><feOffset dx="2.7999999999999994" dy="2.7999999999999994" in="blurOut2" result="blurOut3"/><feBlend in="SourceGraphic" in2="blurOut3" mode="normal"/></filter></defs><g><!--MD5=[01435ace8273dc3cae88e7f376e4d373]
cluster core--><polygon fill="#FFFFFF" filter="url(#f14tw4clr00w43)" points="11.2,4.2,37.8,4.2,42.7,20.7266,758.8,20.7266,758.8,576.8,11.2,576.8,11.2,4.2" style="stroke:#000000;stroke-width:1.0499999999999998;"/><line style="stroke:#000000;stroke-width:1.0499999999999998;" x1="11.2" x2="42.7" y1="20.7266" y2="20.7266"/><text fill="#000000" font-family="sans-serif" font-size="9.8" font-weight="bold" lengthAdjust="spacing" textLength="22.4" x="14" y="15.7732">core</text><!--MD5=[121a8bf1197281ab89ed693fab589f94]
cluster Domain--><polygon fill="#FFFFFF" filter="url(#f14tw4clr00w43)" points="28,35,68.6,35,73.5,51.5266,742,51.5266,742,560,28,560,28,35" style="stroke:#000000;stroke-width:1.0499999999999998;"/><line style="stroke:#000000;stroke-width:1.0499999999999998;" x1="28" x2="73.5" y1="51.5266" y2="51.5266"/><text fill="#000000" font-family="sans-serif" font-size="9.8" font-weight="bold" lengthAdjust="spacing" textLength="36.4" x="30.8" y="46.5732">Domain</text><!--MD5=[32ff0bc6350c7c18bc045f793eb2f657]
cluster Mapper--><polygon fill="#FFFFFF" filter="url(#f14tw4clr00w43)" points="405.3,65.8,447.3,65.8,452.2,82.3266,504.7,82.3266,504.7,135.8,405.3,135.8,405.3,65.8" style="stroke:#000000;stroke-width:1.0499999999999998;"/><line style="stroke:#000000;stroke-width:1.0499999999999998;" x1="405.3" x2="452.2" y1="82.3266" y2="82.3266"/><text fill="#000000" font-family="sans-serif" font-size="9.8" font-weight="bold" lengthAdjust="spacing" textLength="37.8" x="408.1" y="77.3732">Mapper</text><!--MD5=[a7e26d82dece3a99be33d8557e72e039]
cluster Dto--><polygon fill="#FFFFFF" filter="url(#f14tw4clr00w43)" points="459.9,158.9,480.9,158.9,485.8,175.4266,543.9,175.4266,543.9,228.9,459.9,228.9,459.9,158.9" style="stroke:#000000;stroke-width:1.0499999999999998;"/><line style="stroke:#000000;stroke-width:1.0499999999999998;" x1="459.9" x2="485.8" y1="175.4266" y2="175.4266"/><text fill="#000000" font-family="sans-serif" font-size="9.8" font-weight="bold" lengthAdjust="spacing" textLength="16.8" x="462.7" y="170.4732">Dto</text><!--MD5=[15636c1ca4a123c16a2a1a8e90aca7a9]
cluster Model--><polygon fill="#FFFFFF" filter="url(#f14tw4clr00w43)" points="44.8,158.9,79.8,158.9,84.7,175.4266,443.1,175.4266,443.1,472.5,44.8,472.5,44.8,158.9" style="stroke:#000000;stroke-width:1.0499999999999998;"/><line style="stroke:#000000;stroke-width:1.0499999999999998;" x1="44.8" x2="84.7" y1="175.4266" y2="175.4266"/><text fill="#000000" font-family="sans-serif" font-size="9.8" font-weight="bold" lengthAdjust="spacing" textLength="30.8" x="47.6" y="170.4732">Model</text><!--MD5=[7ce1723ddb6e6233854253973eae5a71]
cluster Store--><polygon fill="#FFFFFF" filter="url(#f14tw4clr00w43)" points="459.9,263.9,490.7,263.9,495.6,280.4266,725.2,280.4266,725.2,353.5,459.9,353.5,459.9,263.9" style="stroke:#000000;stroke-width:1.0499999999999998;"/><line style="stroke:#000000;stroke-width:1.0499999999999998;" x1="459.9" x2="495.6" y1="280.4266" y2="280.4266"/><text fill="#000000" font-family="sans-serif" font-size="9.8" font-weight="bold" lengthAdjust="spacing" textLength="26.6" x="462.7" y="275.4732">Store</text><!--MD5=[53ae8b34bebe44116eb8626f99f3fe78]
class Runnable--><rect codeLine="29" fill="#FEFECE" filter="url(#f14tw4clr00w43)" height="43.2852" id="Runnable" style="stroke:#A80036;stroke-width:1.0499999999999998;" width="60.9" x="178.85" y="505.4"/><ellipse cx="189.35" cy="516.6" fill="#B4A7E5" rx="7.7" ry="7.7" style="stroke:#A80036;stroke-width:0.6999999999999998;"/><path d="M190.05,514.5 L190.05,518.7 L191.45,518.7 L191.7891,518.7 L192.15,519.1375 L192.15,519.4 L192.15,519.6625 L191.7891,520.1 L191.45,520.1 L187.25,520.1 L186.9109,520.1 L186.55,519.6625 L186.55,519.4 L186.55,519.1375 L186.9109,518.7 L187.25,518.7 L188.65,518.7 L188.65,514.5 L187.25,514.5 L186.9109,514.5 L186.55,514.0625 L186.55,513.8 L186.55,513.5375 L186.9109,513.1 L187.25,513.1 L191.45,513.1 L191.7891,513.1 L192.15,513.5375 L192.15,513.8 L192.15,514.0625 L191.7891,514.5 L191.45,514.5 L190.05,514.5 Z " fill="#000000"/><text fill="#000000" font-family="sans-serif" font-size="8.4" font-style="italic" lengthAdjust="spacing" textLength="38.5" x="199.15" y="520.0371">Runnable</text><line style="stroke:#A80036;stroke-width:1.0499999999999998;" x1="179.55" x2="239.05" y1="527.8" y2="527.8"/><line style="stroke:#A80036;stroke-width:1.0499999999999998;" x1="179.55" x2="239.05" y1="533.4" y2="533.4"/><text fill="#000000" font-family="sans-serif" font-size="7.7" lengthAdjust="spacing" textLength="16.8" x="183.05" y="544.1933">run()</text><!--MD5=[e51c4742fcf571c6679ecb13fa84e3e1]
class CentreMapper--><rect codeLine="7" fill="#FEFECE" filter="url(#f14tw4clr00w43)" height="33.6" id="CentreMapper" style="stroke:#A80036;stroke-width:1.0499999999999998;" width="77" x="416.5" y="91"/><ellipse cx="427" cy="102.2" fill="#ADD1B2" rx="7.7" ry="7.7" style="stroke:#A80036;stroke-width:0.6999999999999998;"/><path d="M428.4,99.75 Q428.5422,99.4 428.7062,99.225 Q428.8703,99.05 429.0562,99.05 Q429.3844,99.05 429.5922,99.2469 Q429.8,99.4437 429.8,99.9031 L429.8,100.9969 Q429.8,101.4562 429.6031,101.6531 Q429.4062,101.85 429.1,101.85 Q428.8266,101.85 428.6516,101.7297 Q428.4766,101.6094 428.4,101.2922 Q428.3672,101.0734 428.2469,100.9531 Q428.0281,100.7234 427.6344,100.5922 Q427.2406,100.45 426.8469,100.45 Q426.3547,100.45 425.9391,100.6469 Q425.5344,100.8437 425.2172,101.2812 Q424.9,101.7187 424.9,102.3203 L424.9,102.9656 Q424.9,103.6875 425.4906,104.1687 Q426.0812,104.65 427.1312,104.65 Q427.7547,104.65 428.1922,104.5078 Q428.4437,104.4312 428.7281,104.1797 Q428.9141,104.0375 429.0125,103.9937 Q429.1109,103.95 429.2312,103.95 Q429.4609,103.95 429.625,104.1359 Q429.8,104.3109 429.8,104.5625 Q429.8,104.8031 429.5594,105.0875 Q429.2094,105.5031 428.6516,105.7328 Q427.9187,106.05 427.0219,106.05 Q425.9719,106.05 425.1297,105.6344 Q424.4516,105.3062 423.9703,104.5953 Q423.5,103.8844 423.5,103.0422 L423.5,102.2766 Q423.5,101.4016 423.9156,100.6359 Q424.3422,99.8703 425.075,99.4656 Q425.8187,99.05 426.65,99.05 Q427.1531,99.05 427.5906,99.225 Q428.0281,99.4 428.4,99.75 Z " fill="#000000"/><text fill="#000000" font-family="sans-serif" font-size="8.4" lengthAdjust="spacing" textLength="54.6" x="436.8" y="105.6371">CentreMapper</text><line style="stroke:#A80036;stroke-width:1.0499999999999998;" x1="417.2" x2="492.8" y1="113.4" y2="113.4"/><line style="stroke:#A80036;stroke-width:1.0499999999999998;" x1="417.2" x2="492.8" y1="119" y2="119"/><!--MD5=[6fadcff70f5e86b95982a740df2d826f]
class CentreDto--><rect codeLine="11" fill="#FEFECE" filter="url(#f14tw4clr00w43)" height="33.6" id="CentreDto" style="stroke:#A80036;stroke-width:1.0499999999999998;" width="61.6" x="471.1" y="184.1"/><ellipse cx="481.6" cy="195.3" fill="#ADD1B2" rx="7.7" ry="7.7" style="stroke:#A80036;stroke-width:0.6999999999999998;"/><path d="M483,192.85 Q483.1422,192.5 483.3062,192.325 Q483.4703,192.15 483.6562,192.15 Q483.9844,192.15 484.1922,192.3469 Q484.4,192.5437 484.4,193.0031 L484.4,194.0969 Q484.4,194.5562 484.2031,194.7531 Q484.0062,194.95 483.7,194.95 Q483.4266,194.95 483.2516,194.8297 Q483.0766,194.7094 483,194.3922 Q482.9672,194.1734 482.8469,194.0531 Q482.6281,193.8234 482.2344,193.6922 Q481.8406,193.55 481.4469,193.55 Q480.9547,193.55 480.5391,193.7469 Q480.1344,193.9437 479.8172,194.3812 Q479.5,194.8187 479.5,195.4203 L479.5,196.0656 Q479.5,196.7875 480.0906,197.2687 Q480.6812,197.75 481.7312,197.75 Q482.3547,197.75 482.7922,197.6078 Q483.0437,197.5312 483.3281,197.2797 Q483.5141,197.1375 483.6125,197.0937 Q483.7109,197.05 483.8312,197.05 Q484.0609,197.05 484.225,197.2359 Q484.4,197.4109 484.4,197.6625 Q484.4,197.9031 484.1594,198.1875 Q483.8094,198.6031 483.2516,198.8328 Q482.5187,199.15 481.6219,199.15 Q480.5719,199.15 479.7297,198.7344 Q479.0516,198.4062 478.5703,197.6953 Q478.1,196.9844 478.1,196.1422 L478.1,195.3766 Q478.1,194.5016 478.5156,193.7359 Q478.9422,192.9703 479.675,192.5656 Q480.4187,192.15 481.25,192.15 Q481.7531,192.15 482.1906,192.325 Q482.6281,192.5 483,192.85 Z " fill="#000000"/><text fill="#000000" font-family="sans-serif" font-size="8.4" lengthAdjust="spacing" textLength="39.2" x="491.4" y="198.7371">CentreDto</text><line style="stroke:#A80036;stroke-width:1.0499999999999998;" x1="471.8" x2="532" y1="206.5" y2="206.5"/><line style="stroke:#A80036;stroke-width:1.0499999999999998;" x1="471.8" x2="532" y1="212.1" y2="212.1"/><!--MD5=[ccb44fe056f271cc83e3e05fbe04c017]
class AdministrateVaccine--><rect codeLine="15" fill="#FEFECE" filter="url(#f14tw4clr00w43)" height="33.6" id="AdministrateVaccine" style="stroke:#A80036;stroke-width:1.0499999999999998;" width="100.8" x="331.1" y="298.9"/><ellipse cx="341.6" cy="310.1" fill="#ADD1B2" rx="7.7" ry="7.7" style="stroke:#A80036;stroke-width:0.6999999999999998;"/><path d="M343,307.65 Q343.1422,307.3 343.3062,307.125 Q343.4703,306.95 343.6562,306.95 Q343.9844,306.95 344.1922,307.1469 Q344.4,307.3437 344.4,307.8031 L344.4,308.8969 Q344.4,309.3562 344.2031,309.5531 Q344.0062,309.75 343.7,309.75 Q343.4266,309.75 343.2516,309.6297 Q343.0766,309.5094 343,309.1922 Q342.9672,308.9734 342.8469,308.8531 Q342.6281,308.6234 342.2344,308.4922 Q341.8406,308.35 341.4469,308.35 Q340.9547,308.35 340.5391,308.5469 Q340.1344,308.7437 339.8172,309.1812 Q339.5,309.6187 339.5,310.2203 L339.5,310.8656 Q339.5,311.5875 340.0906,312.0687 Q340.6812,312.55 341.7312,312.55 Q342.3547,312.55 342.7922,312.4078 Q343.0437,312.3312 343.3281,312.0797 Q343.5141,311.9375 343.6125,311.8937 Q343.7109,311.85 343.8312,311.85 Q344.0609,311.85 344.225,312.0359 Q344.4,312.2109 344.4,312.4625 Q344.4,312.7031 344.1594,312.9875 Q343.8094,313.4031 343.2516,313.6328 Q342.5187,313.95 341.6219,313.95 Q340.5719,313.95 339.7297,313.5344 Q339.0516,313.2062 338.5703,312.4953 Q338.1,311.7844 338.1,310.9422 L338.1,310.1766 Q338.1,309.3016 338.5156,308.5359 Q338.9422,307.7703 339.675,307.3656 Q340.4187,306.95 341.25,306.95 Q341.7531,306.95 342.1906,307.125 Q342.6281,307.3 343,307.65 Z " fill="#000000"/><text fill="#000000" font-family="sans-serif" font-size="8.4" lengthAdjust="spacing" textLength="78.4" x="351.4" y="313.5371">AdministrateVaccine</text><line style="stroke:#A80036;stroke-width:1.0499999999999998;" x1="331.8" x2="431.2" y1="321.3" y2="321.3"/><line style="stroke:#A80036;stroke-width:1.0499999999999998;" x1="331.8" x2="431.2" y1="326.9" y2="326.9"/><!--MD5=[a513ff35cc2fa14f214851ba5226c8d3]
class Centre--><rect codeLine="16" fill="#FEFECE" filter="url(#f14tw4clr00w43)" height="33.6" id="Centre" style="stroke:#A80036;stroke-width:1.0499999999999998;" width="48.3" x="383.25" y="184.1"/><ellipse cx="393.75" cy="195.3" fill="#ADD1B2" rx="7.7" ry="7.7" style="stroke:#A80036;stroke-width:0.6999999999999998;"/><path d="M395.15,192.85 Q395.2922,192.5 395.4562,192.325 Q395.6203,192.15 395.8062,192.15 Q396.1344,192.15 396.3422,192.3469 Q396.55,192.5437 396.55,193.0031 L396.55,194.0969 Q396.55,194.5562 396.3531,194.7531 Q396.1562,194.95 395.85,194.95 Q395.5766,194.95 395.4016,194.8297 Q395.2266,194.7094 395.15,194.3922 Q395.1172,194.1734 394.9969,194.0531 Q394.7781,193.8234 394.3844,193.6922 Q393.9906,193.55 393.5969,193.55 Q393.1047,193.55 392.6891,193.7469 Q392.2844,193.9437 391.9672,194.3812 Q391.65,194.8187 391.65,195.4203 L391.65,196.0656 Q391.65,196.7875 392.2406,197.2687 Q392.8312,197.75 393.8812,197.75 Q394.5047,197.75 394.9422,197.6078 Q395.1937,197.5312 395.4781,197.2797 Q395.6641,197.1375 395.7625,197.0937 Q395.8609,197.05 395.9812,197.05 Q396.2109,197.05 396.375,197.2359 Q396.55,197.4109 396.55,197.6625 Q396.55,197.9031 396.3094,198.1875 Q395.9594,198.6031 395.4016,198.8328 Q394.6687,199.15 393.7719,199.15 Q392.7219,199.15 391.8797,198.7344 Q391.2016,198.4062 390.7203,197.6953 Q390.25,196.9844 390.25,196.1422 L390.25,195.3766 Q390.25,194.5016 390.6656,193.7359 Q391.0922,192.9703 391.825,192.5656 Q392.5687,192.15 393.4,192.15 Q393.9031,192.15 394.3406,192.325 Q394.7781,192.5 395.15,192.85 Z " fill="#000000"/><text fill="#000000" font-family="sans-serif" font-size="8.4" lengthAdjust="spacing" textLength="25.9" x="403.55" y="198.7371">Centre</text><line style="stroke:#A80036;stroke-width:1.0499999999999998;" x1="383.95" x2="430.85" y1="206.5" y2="206.5"/><line style="stroke:#A80036;stroke-width:1.0499999999999998;" x1="383.95" x2="430.85" y1="212.1" y2="212.1"/><!--MD5=[02e4b9b7573f1156f41e60aa5b4e25a4]
class Company--><rect codeLine="17" fill="#FEFECE" filter="url(#f14tw4clr00w43)" height="33.6" id="Company" style="stroke:#A80036;stroke-width:1.0499999999999998;" width="59.5" x="255.15" y="184.1"/><ellipse cx="265.65" cy="195.3" fill="#ADD1B2" rx="7.7" ry="7.7" style="stroke:#A80036;stroke-width:0.6999999999999998;"/><path d="M267.05,192.85 Q267.1922,192.5 267.3562,192.325 Q267.5203,192.15 267.7062,192.15 Q268.0344,192.15 268.2422,192.3469 Q268.45,192.5437 268.45,193.0031 L268.45,194.0969 Q268.45,194.5562 268.2531,194.7531 Q268.0562,194.95 267.75,194.95 Q267.4766,194.95 267.3016,194.8297 Q267.1266,194.7094 267.05,194.3922 Q267.0172,194.1734 266.8969,194.0531 Q266.6781,193.8234 266.2844,193.6922 Q265.8906,193.55 265.4969,193.55 Q265.0047,193.55 264.5891,193.7469 Q264.1844,193.9437 263.8672,194.3812 Q263.55,194.8187 263.55,195.4203 L263.55,196.0656 Q263.55,196.7875 264.1406,197.2687 Q264.7312,197.75 265.7812,197.75 Q266.4047,197.75 266.8422,197.6078 Q267.0937,197.5312 267.3781,197.2797 Q267.5641,197.1375 267.6625,197.0937 Q267.7609,197.05 267.8812,197.05 Q268.1109,197.05 268.275,197.2359 Q268.45,197.4109 268.45,197.6625 Q268.45,197.9031 268.2094,198.1875 Q267.8594,198.6031 267.3016,198.8328 Q266.5687,199.15 265.6719,199.15 Q264.6219,199.15 263.7797,198.7344 Q263.1016,198.4062 262.6203,197.6953 Q262.15,196.9844 262.15,196.1422 L262.15,195.3766 Q262.15,194.5016 262.5656,193.7359 Q262.9922,192.9703 263.725,192.5656 Q264.4687,192.15 265.3,192.15 Q265.8031,192.15 266.2406,192.325 Q266.6781,192.5 267.05,192.85 Z " fill="#000000"/><text fill="#000000" font-family="sans-serif" font-size="8.4" lengthAdjust="spacing" textLength="37.1" x="275.45" y="198.7371">Company</text><line style="stroke:#A80036;stroke-width:1.0499999999999998;" x1="255.85" x2="313.95" y1="206.5" y2="206.5"/><line style="stroke:#A80036;stroke-width:1.0499999999999998;" x1="255.85" x2="313.95" y1="212.1" y2="212.1"/><!--MD5=[7ad70090f2868a0fc30f0d31d5f49d7d]
class TimerDemo--><rect codeLine="18" fill="#FEFECE" filter="url(#f14tw4clr00w43)" height="33.6" id="TimerDemo" style="stroke:#A80036;stroke-width:1.0499999999999998;" width="68.6" x="56" y="298.9"/><ellipse cx="66.5" cy="310.1" fill="#ADD1B2" rx="7.7" ry="7.7" style="stroke:#A80036;stroke-width:0.6999999999999998;"/><path d="M67.9,307.65 Q68.0422,307.3 68.2062,307.125 Q68.3703,306.95 68.5562,306.95 Q68.8844,306.95 69.0922,307.1469 Q69.3,307.3437 69.3,307.8031 L69.3,308.8969 Q69.3,309.3562 69.1031,309.5531 Q68.9062,309.75 68.6,309.75 Q68.3266,309.75 68.1516,309.6297 Q67.9766,309.5094 67.9,309.1922 Q67.8672,308.9734 67.7469,308.8531 Q67.5281,308.6234 67.1344,308.4922 Q66.7406,308.35 66.3469,308.35 Q65.8547,308.35 65.4391,308.5469 Q65.0344,308.7437 64.7172,309.1812 Q64.4,309.6187 64.4,310.2203 L64.4,310.8656 Q64.4,311.5875 64.9906,312.0687 Q65.5812,312.55 66.6312,312.55 Q67.2547,312.55 67.6922,312.4078 Q67.9437,312.3312 68.2281,312.0797 Q68.4141,311.9375 68.5125,311.8937 Q68.6109,311.85 68.7312,311.85 Q68.9609,311.85 69.125,312.0359 Q69.3,312.2109 69.3,312.4625 Q69.3,312.7031 69.0594,312.9875 Q68.7094,313.4031 68.1516,313.6328 Q67.4187,313.95 66.5219,313.95 Q65.4719,313.95 64.6297,313.5344 Q63.9516,313.2062 63.4703,312.4953 Q63,311.7844 63,310.9422 L63,310.1766 Q63,309.3016 63.4156,308.5359 Q63.8422,307.7703 64.575,307.3656 Q65.3187,306.95 66.15,306.95 Q66.6531,306.95 67.0906,307.125 Q67.5281,307.3 67.9,307.65 Z " fill="#000000"/><text fill="#000000" font-family="sans-serif" font-size="8.4" lengthAdjust="spacing" textLength="46.2" x="76.3" y="313.5371">TimerDemo</text><line style="stroke:#A80036;stroke-width:1.0499999999999998;" x1="56.7" x2="123.9" y1="321.3" y2="321.3"/><line style="stroke:#A80036;stroke-width:1.0499999999999998;" x1="56.7" x2="123.9" y1="326.9" y2="326.9"/><!--MD5=[d8f3877d75fa48bedde49050e85b5760]
class CounterTask--><rect codeLine="19" fill="#FEFECE" filter="url(#f14tw4clr00w43)" height="43.2852" id="CounterTask" style="stroke:#A80036;stroke-width:1.0499999999999998;" width="72.1" x="173.25" y="294"/><ellipse cx="183.75" cy="305.2" fill="#ADD1B2" rx="7.7" ry="7.7" style="stroke:#A80036;stroke-width:0.6999999999999998;"/><path d="M185.15,302.75 Q185.2922,302.4 185.4562,302.225 Q185.6203,302.05 185.8062,302.05 Q186.1344,302.05 186.3422,302.2469 Q186.55,302.4437 186.55,302.9031 L186.55,303.9969 Q186.55,304.4562 186.3531,304.6531 Q186.1562,304.85 185.85,304.85 Q185.5766,304.85 185.4016,304.7297 Q185.2266,304.6094 185.15,304.2922 Q185.1172,304.0734 184.9969,303.9531 Q184.7781,303.7234 184.3844,303.5922 Q183.9906,303.45 183.5969,303.45 Q183.1047,303.45 182.6891,303.6469 Q182.2844,303.8437 181.9672,304.2812 Q181.65,304.7187 181.65,305.3203 L181.65,305.9656 Q181.65,306.6875 182.2406,307.1687 Q182.8312,307.65 183.8812,307.65 Q184.5047,307.65 184.9422,307.5078 Q185.1937,307.4312 185.4781,307.1797 Q185.6641,307.0375 185.7625,306.9937 Q185.8609,306.95 185.9812,306.95 Q186.2109,306.95 186.375,307.1359 Q186.55,307.3109 186.55,307.5625 Q186.55,307.8031 186.3094,308.0875 Q185.9594,308.5031 185.4016,308.7328 Q184.6687,309.05 183.7719,309.05 Q182.7219,309.05 181.8797,308.6344 Q181.2016,308.3062 180.7203,307.5953 Q180.25,306.8844 180.25,306.0422 L180.25,305.2766 Q180.25,304.4016 180.6656,303.6359 Q181.0922,302.8703 181.825,302.4656 Q182.5687,302.05 183.4,302.05 Q183.9031,302.05 184.3406,302.225 Q184.7781,302.4 185.15,302.75 Z " fill="#000000"/><text fill="#000000" font-family="sans-serif" font-size="8.4" lengthAdjust="spacing" textLength="49.7" x="193.55" y="308.6371">CounterTask</text><line style="stroke:#A80036;stroke-width:1.0499999999999998;" x1="173.95" x2="244.65" y1="316.4" y2="316.4"/><line style="stroke:#A80036;stroke-width:1.0499999999999998;" x1="173.95" x2="244.65" y1="322" y2="322"/><text fill="#000000" font-family="sans-serif" font-size="7.7" lengthAdjust="spacing" textLength="58.1" x="177.45" y="332.7933">WriteToCSVFile()</text><!--MD5=[74054751ba3b9eca75fda5044dcc84d9]
class TimerTask--><rect codeLine="22" fill="#FEFECE" filter="url(#f14tw4clr00w43)" height="62.6555" id="TimerTask" style="stroke:#A80036;stroke-width:1.0499999999999998;" width="97.3" x="160.65" y="398.3"/><ellipse cx="186.27" cy="409.5" fill="#A9DCDF" rx="7.7" ry="7.7" style="stroke:#A80036;stroke-width:0.6999999999999998;"/><path d="M187.495,410.55 L185.1872,410.55 L184.8809,411.25 L184.8809,411.25 L185.2091,411.25 L185.57,411.6875 L185.57,411.95 L185.57,412.2125 L185.2091,412.65 L184.8809,412.65 L183.5575,412.65 L183.1309,412.65 L182.77,412.2125 L182.77,411.95 L182.77,411.6875 L183.1309,411.25 L183.5575,411.25 L185.1762,407.05 L184.5637,407.05 L183.8309,407.05 L183.47,406.6125 L183.47,406.35 L183.47,406.0875 L183.8309,405.65 L184.5637,405.65 L187.1341,405.65 L189.0153,411.25 L189.4091,411.25 L189.4091,411.25 L189.77,411.6875 L189.77,411.95 L189.77,412.2125 L189.4091,412.65 L189.0153,412.65 L187.6919,412.65 L187.3309,412.65 L186.97,412.2125 L186.97,411.95 L186.97,411.6875 L187.3309,411.25 L187.6919,411.25 L187.6919,411.25 L187.495,410.55 Z M187.1122,409.15 L186.27,406.6453 L185.5481,409.15 L187.1122,409.15 Z " fill="#000000"/><text fill="#000000" font-family="sans-serif" font-size="8.4" font-style="italic" lengthAdjust="spacing" textLength="41.3" x="199.43" y="412.9371">TimerTask</text><line style="stroke:#A80036;stroke-width:1.0499999999999998;" x1="161.35" x2="257.25" y1="420.7" y2="420.7"/><line style="stroke:#A80036;stroke-width:1.0499999999999998;" x1="161.35" x2="257.25" y1="426.3" y2="426.3"/><text fill="#000000" font-family="sans-serif" font-size="7.7" lengthAdjust="spacing" textLength="16.8" x="164.85" y="437.0933">run()</text><text fill="#000000" font-family="sans-serif" font-size="7.7" lengthAdjust="spacing" textLength="28" x="164.85" y="446.7784">cancel()</text><text fill="#000000" font-family="sans-serif" font-size="7.7" lengthAdjust="spacing" textLength="88.9" x="164.85" y="456.4636">scheduledTimeExecution()</text><!--MD5=[81fa984cdf6d05ac5438c5e934870497]
class CentreStore--><rect codeLine="34" fill="#FEFECE" filter="url(#f14tw4clr00w43)" height="33.6" id="CentreStore" style="stroke:#A80036;stroke-width:1.0499999999999998;" width="68.6" x="645.4" y="298.9"/><ellipse cx="655.9" cy="310.1" fill="#ADD1B2" rx="7.7" ry="7.7" style="stroke:#A80036;stroke-width:0.6999999999999998;"/><path d="M657.3,307.65 Q657.4422,307.3 657.6062,307.125 Q657.7703,306.95 657.9562,306.95 Q658.2844,306.95 658.4922,307.1469 Q658.7,307.3437 658.7,307.8031 L658.7,308.8969 Q658.7,309.3562 658.5031,309.5531 Q658.3062,309.75 658,309.75 Q657.7266,309.75 657.5516,309.6297 Q657.3766,309.5094 657.3,309.1922 Q657.2672,308.9734 657.1469,308.8531 Q656.9281,308.6234 656.5344,308.4922 Q656.1406,308.35 655.7469,308.35 Q655.2547,308.35 654.8391,308.5469 Q654.4344,308.7437 654.1172,309.1812 Q653.8,309.6187 653.8,310.2203 L653.8,310.8656 Q653.8,311.5875 654.3906,312.0687 Q654.9812,312.55 656.0312,312.55 Q656.6547,312.55 657.0922,312.4078 Q657.3437,312.3312 657.6281,312.0797 Q657.8141,311.9375 657.9125,311.8937 Q658.0109,311.85 658.1312,311.85 Q658.3609,311.85 658.525,312.0359 Q658.7,312.2109 658.7,312.4625 Q658.7,312.7031 658.4594,312.9875 Q658.1094,313.4031 657.5516,313.6328 Q656.8187,313.95 655.9219,313.95 Q654.8719,313.95 654.0297,313.5344 Q653.3516,313.2062 652.8703,312.4953 Q652.4,311.7844 652.4,310.9422 L652.4,310.1766 Q652.4,309.3016 652.8156,308.5359 Q653.2422,307.7703 653.975,307.3656 Q654.7187,306.95 655.55,306.95 Q656.0531,306.95 656.4906,307.125 Q656.9281,307.3 657.3,307.65 Z " fill="#000000"/><text fill="#000000" font-family="sans-serif" font-size="8.4" lengthAdjust="spacing" textLength="46.2" x="665.7" y="313.5371">CentreStore</text><line style="stroke:#A80036;stroke-width:1.0499999999999998;" x1="646.1" x2="713.3" y1="321.3" y2="321.3"/><line style="stroke:#A80036;stroke-width:1.0499999999999998;" x1="646.1" x2="713.3" y1="326.9" y2="326.9"/><!--MD5=[e4fde2dcc673e97a0cfed9ee55cec5ee]
class AdministrateVaccineStore--><rect codeLine="35" fill="#FEFECE" filter="url(#f14tw4clr00w43)" height="52.9703" id="AdministrateVaccineStore" style="stroke:#A80036;stroke-width:1.0499999999999998;" width="149.8" x="471.1" y="289.1"/><ellipse cx="494.515" cy="300.3" fill="#ADD1B2" rx="7.7" ry="7.7" style="stroke:#A80036;stroke-width:0.6999999999999998;"/><path d="M495.915,297.85 Q496.0572,297.5 496.2212,297.325 Q496.3853,297.15 496.5712,297.15 Q496.8994,297.15 497.1072,297.3469 Q497.315,297.5437 497.315,298.0031 L497.315,299.0969 Q497.315,299.5562 497.1181,299.7531 Q496.9212,299.95 496.615,299.95 Q496.3416,299.95 496.1666,299.8297 Q495.9916,299.7094 495.915,299.3922 Q495.8822,299.1734 495.7619,299.0531 Q495.5431,298.8234 495.1494,298.6922 Q494.7556,298.55 494.3619,298.55 Q493.8697,298.55 493.4541,298.7469 Q493.0494,298.9437 492.7322,299.3812 Q492.415,299.8187 492.415,300.4203 L492.415,301.0656 Q492.415,301.7875 493.0056,302.2687 Q493.5962,302.75 494.6462,302.75 Q495.2697,302.75 495.7072,302.6078 Q495.9587,302.5312 496.2431,302.2797 Q496.4291,302.1375 496.5275,302.0937 Q496.6259,302.05 496.7462,302.05 Q496.9759,302.05 497.14,302.2359 Q497.315,302.4109 497.315,302.6625 Q497.315,302.9031 497.0744,303.1875 Q496.7244,303.6031 496.1666,303.8328 Q495.4337,304.15 494.5369,304.15 Q493.4869,304.15 492.6447,303.7344 Q491.9666,303.4062 491.4853,302.6953 Q491.015,301.9844 491.015,301.1422 L491.015,300.3766 Q491.015,299.5016 491.4306,298.7359 Q491.8572,297.9703 492.59,297.5656 Q493.3337,297.15 494.165,297.15 Q494.6681,297.15 495.1056,297.325 Q495.5431,297.5 495.915,297.85 Z " fill="#000000"/><text fill="#000000" font-family="sans-serif" font-size="8.4" lengthAdjust="spacing" textLength="98.7" x="507.185" y="303.7371">AdministrateVaccineStore</text><line style="stroke:#A80036;stroke-width:1.0499999999999998;" x1="471.8" x2="620.2" y1="311.5" y2="311.5"/><text fill="#000000" font-family="sans-serif" font-size="7.7" lengthAdjust="spacing" textLength="141.4" x="475.3" y="322.2933">Arraylist&lt;AdministrateVaccine&gt; Vaccines</text><line style="stroke:#A80036;stroke-width:1.0499999999999998;" x1="471.8" x2="620.2" y1="326.7852" y2="326.7852"/><text fill="#000000" font-family="sans-serif" font-size="7.7" lengthAdjust="spacing" textLength="92.4" x="475.3" y="337.5784">CounterOfAdministrations()</text><!--MD5=[69e383ef1b86a032509c4e8f7f282d5b]
link Company to TimerDemo--><path codeLine="43" d="M255.066,212.828 C229.299,223.083 191.506,239.491 161,258.3 C142.919,269.451 124.25,284.606 110.635,296.443 " fill="none" id="Company-to-TimerDemo" style="stroke:#A80036;stroke-width:0.6999999999999998;stroke-dasharray:7.0,7.0;"/><polygon fill="#A80036" points="107.982,298.767,114.5632,296.7133,110.6117,296.4573,110.8676,292.5058,107.982,298.767" style="stroke:#A80036;stroke-width:0.6999999999999998;"/><text fill="#000000" font-family="sans-serif" font-size="9.1" lengthAdjust="spacing" textLength="30.8" x="193.9" y="250.2466">has a...</text><text fill="#000000" font-family="sans-serif" font-size="9.1" lengthAdjust="spacing" textLength="4.9" x="244.6172" y="212.1834">1</text><text fill="#000000" font-family="sans-serif" font-size="9.1" lengthAdjust="spacing" textLength="4.9" x="106.9852" y="291.271">1</text><!--MD5=[7991a83a7886398bbb3ef4e383188e40]
link TimerDemo to CounterTask--><path codeLine="44" d="M124.719,315.7 C138.705,315.7 154.952,315.7 169.449,315.7 " fill="none" id="TimerDemo-to-CounterTask" style="stroke:#A80036;stroke-width:0.6999999999999998;stroke-dasharray:7.0,7.0;"/><polygon fill="#A80036" points="173.089,315.7,166.789,312.9,169.589,315.7,166.789,318.5,173.089,315.7" style="stroke:#A80036;stroke-width:0.6999999999999998;"/><text fill="#000000" font-family="sans-serif" font-size="9.1" lengthAdjust="spacing" textLength="23.1" x="137.375" y="311.1466">has...</text><text fill="#000000" font-family="sans-serif" font-size="9.1" lengthAdjust="spacing" textLength="4.9" x="130.1341" y="313.1422">1</text><text fill="#000000" font-family="sans-serif" font-size="9.1" lengthAdjust="spacing" textLength="4.9" x="162.7523" y="313.1845">1</text><!--MD5=[6d57292df213dfa37fa540c170b4e2d9]
link CounterTask to TimerTask--><path codeLine="45" d="M209.3,337.596 C209.3,350.679 209.3,367.976 209.3,383.999 " fill="none" id="CounterTask-to-TimerTask" style="stroke:#A80036;stroke-width:0.6999999999999998;"/><polygon fill="none" points="214.2,384.209,209.3,398.209,204.4,384.209,214.2,384.209" style="stroke:#A80036;stroke-width:0.6999999999999998;"/><text fill="#000000" font-family="sans-serif" font-size="9.1" lengthAdjust="spacing" textLength="79.8" x="210" y="374.8466">is scheduled by a...</text><!--MD5=[d1e8a9c17617a8d4c9d7da7ce0d3de13]
link TimerTask to Runnable--><path codeLine="46" d="M209.3,461.37 C209.3,470.897 209.3,481.46 209.3,491.253 " fill="none" id="TimerTask-to-Runnable" style="stroke:#A80036;stroke-width:0.6999999999999998;stroke-dasharray:7.0,7.0;"/><polygon fill="none" points="214.2,491.288,209.3,505.288,204.4,491.288,214.2,491.288" style="stroke:#A80036;stroke-width:0.6999999999999998;"/><!--MD5=[2e568a6cc3d9d536caf38f98948c53d6]
link Company to Centre--><path codeLine="47" d="M314.867,200.9 C334.607,200.9 360.269,200.9 379.561,200.9 " fill="none" id="Company-to-Centre" style="stroke:#A80036;stroke-width:0.6999999999999998;"/><polygon fill="#A80036" points="383.082,200.9,376.782,198.1,379.582,200.9,376.782,203.7,383.082,200.9" style="stroke:#A80036;stroke-width:0.6999999999999998;"/><text fill="#000000" font-family="sans-serif" font-size="9.1" lengthAdjust="spacing" textLength="42.7" x="327.6" y="196.3466">contains...</text><text fill="#000000" font-family="sans-serif" font-size="9.1" lengthAdjust="spacing" textLength="4.9" x="320.2361" y="198.2395">1</text><text fill="#000000" font-family="sans-serif" font-size="9.1" lengthAdjust="spacing" textLength="3.5" x="374.2055" y="198.017">*</text><!--MD5=[ea67760941618c4ba24c9054a4924091]
link CentreMapper to Centre--><path codeLine="48" d="M446.6,124.684 C438.494,140.301 426.209,163.968 417.557,180.635 " fill="none" id="CentreMapper-to-Centre" style="stroke:#A80036;stroke-width:0.6999999999999998;stroke-dasharray:7.0,7.0;"/><polygon fill="#A80036" points="415.877,183.869,421.2599,179.5615,417.4861,180.7608,416.2868,176.987,415.877,183.869" style="stroke:#A80036;stroke-width:0.6999999999999998;"/><!--MD5=[85222d5e1393036b5d149410f819a0bc]
link CentreMapper to CentreDto--><path codeLine="49" d="M463.274,124.684 C471.268,140.301 483.371,163.968 491.89,180.635 " fill="none" id="CentreMapper-to-CentreDto" style="stroke:#A80036;stroke-width:0.6999999999999998;stroke-dasharray:7.0,7.0;"/><polygon fill="#A80036" points="493.549,183.869,493.1657,176.9855,491.9519,180.7546,488.1827,179.5408,493.549,183.869" style="stroke:#A80036;stroke-width:0.6999999999999998;"/><!--MD5=[21ee4eaf8860cc9f9d1d8dfd68c91590]
link Company to CentreStore--><path codeLine="50" d="M314.769,215.229 C331.065,222.096 351.778,229.915 371,234.5 C394.429,240.093 401.59,234.045 424.9,240.1 C438.662,243.677 440.419,249.627 454.3,252.7 C473.746,257.012 615.643,249.473 633.5,258.3 C649.453,266.189 661.78,282.429 669.676,295.512 " fill="none" id="Company-to-CentreStore" style="stroke:#A80036;stroke-width:0.6999999999999998;"/><polygon fill="#A80036" points="671.587,298.767,670.8171,291.9159,669.8172,295.7474,665.9858,294.7475,671.587,298.767" style="stroke:#A80036;stroke-width:0.6999999999999998;"/><text fill="#000000" font-family="sans-serif" font-size="9.1" lengthAdjust="spacing" textLength="27.3" x="455" y="250.2466">Knows</text><text fill="#000000" font-family="sans-serif" font-size="9.1" lengthAdjust="spacing" textLength="4.9" x="320.3238" y="214.997">1</text><text fill="#000000" font-family="sans-serif" font-size="9.1" lengthAdjust="spacing" textLength="4.9" x="663.9802" y="291.271">1</text><!--MD5=[a0de903998e94ee115b3ba6b0164c7fb]
link CentreStore to Centre--><path codeLine="51" d="M671.041,298.683 C663.117,285.488 650.104,267.624 633.5,258.3 C599.55,239.232 496.503,247.779 459.9,234.5 C450.086,230.937 440.16,225.344 431.627,219.779 " fill="none" id="CentreStore-to-Centre" style="stroke:#A80036;stroke-width:0.6999999999999998;stroke-dasharray:7.0,7.0;"/><polygon fill="#A80036" points="428.547,217.728,432.245,223.5465,431.4622,219.6648,435.3439,218.8821,428.547,217.728" style="stroke:#A80036;stroke-width:0.6999999999999998;"/><!--MD5=[3266ea8c956006477f167e39d35c7bf8]
link Company to AdministrateVaccineStore--><path codeLine="52" d="M312.69,217.812 C334.04,229.481 364.651,244.552 393.4,252.7 C414.785,258.762 421.918,251.566 443.1,258.3 C464.324,265.048 486.157,276.353 504.231,287.105 " fill="none" id="Company-to-AdministrateVaccineStore" style="stroke:#A80036;stroke-width:0.6999999999999998;"/><polygon fill="#A80036" points="507.325,288.96,503.3634,283.3177,504.3238,287.1593,500.4822,288.1197,507.325,288.96" style="stroke:#A80036;stroke-width:0.6999999999999998;"/><text fill="#000000" font-family="sans-serif" font-size="9.1" lengthAdjust="spacing" textLength="27.3" x="394.1" y="250.2466">Knows</text><text fill="#000000" font-family="sans-serif" font-size="9.1" lengthAdjust="spacing" textLength="4.9" x="313.9666" y="232.7759">1</text><text fill="#000000" font-family="sans-serif" font-size="9.1" lengthAdjust="spacing" textLength="4.9" x="495.0996" y="281.4884">1</text><!--MD5=[35d5b09f8f10caa5b893deeb12c7ec45]
link AdministrateVaccineStore to AdministrateVaccine--><path codeLine="53" d="M470.925,315.7 C459.151,315.7 447.377,315.7 435.596,315.7 " fill="none" id="AdministrateVaccineStore-to-AdministrateVaccine" style="stroke:#A80036;stroke-width:0.6999999999999998;stroke-dasharray:7.0,7.0;"/><polygon fill="#A80036" points="431.942,315.7,438.242,318.5,435.442,315.7,438.242,312.9,431.942,315.7" style="stroke:#A80036;stroke-width:0.6999999999999998;"/><!--MD5=[ee9d0c5f4300de1be805edc5cbee28e1]
link CounterTask to AdministrateVaccine--><path codeLine="54" d="M245.399,315.7 C269.185,315.7 300.762,315.7 327.509,315.7 " fill="none" id="CounterTask-to-AdministrateVaccine" style="stroke:#A80036;stroke-width:0.6999999999999998;"/><polygon fill="#A80036" points="331.079,315.7,324.779,312.9,327.579,315.7,324.779,318.5,331.079,315.7" style="stroke:#A80036;stroke-width:0.6999999999999998;"/><text fill="#000000" font-family="sans-serif" font-size="9.1" lengthAdjust="spacing" textLength="60.2" x="258.125" y="311.1466">counts list of...</text><!--MD5=[8387d46b7e2e477ae71ad493c256d803]
@startuml
'https://plantuml.com/class-diagram
package core{
package Domain{


package Mapper{
class CentreMapper
}

package Dto{
class CentreDto
}

package Model{
class AdministrateVaccine
class Centre
class Company
class TimerDemo
class CounterTask{
WriteToCSVFile()
}
abstract class TimerTask{
run()
cancel()
scheduledTimeExecution()
}
}

Interface Runnable{
run()
}

package Store{
class CentreStore
class AdministrateVaccineStore{
Arraylist<AdministrateVaccine> Vaccines
CounterOfAdministrations()
}
}
}
}

Company"1"..>"1"TimerDemo: has a...
TimerDemo"1".>"1"CounterTask: has...
CounterTask- -|>TimerTask: is scheduled by a...
TimerTask..|>Runnable
Company"1"->"*" Centre:contains...
CentreMapper..>Centre
CentreMapper..> CentreDto
Company"1"- ->"1" CentreStore: Knows
CentreStore..>Centre
Company"1"- ->"1" AdministrateVaccineStore:Knows
AdministrateVaccineStore.>AdministrateVaccine
CounterTask->AdministrateVaccine: counts list of...


@enduml

@startuml
package core{
package Domain{


package Mapper{
class CentreMapper
}

package Dto{
class CentreDto
}

package Model{
class AdministrateVaccine
class Centre
class Company
class TimerDemo
class CounterTask{
WriteToCSVFile()
}
abstract class TimerTask{
run()
cancel()
scheduledTimeExecution()
}
}

Interface Runnable{
run()
}

package Store{
class CentreStore
class AdministrateVaccineStore{
Arraylist<AdministrateVaccine> Vaccines
CounterOfAdministrations()
}
}
}
}

Company"1"..>"1"TimerDemo: has a...
TimerDemo"1".>"1"CounterTask: has...
CounterTask- -|>TimerTask: is scheduled by a...
TimerTask..|>Runnable
Company"1"->"*" Centre:contains...
CentreMapper..>Centre
CentreMapper..> CentreDto
Company"1"- ->"1" CentreStore: Knows
CentreStore..>Centre
Company"1"- ->"1" AdministrateVaccineStore:Knows
AdministrateVaccineStore.>AdministrateVaccine
CounterTask->AdministrateVaccine: counts list of...


@enduml

PlantUML version 1.2022.1(Tue Feb 01 18:19:58 GMT 2022)
(GPL source distribution)
Java Runtime: OpenJDK Runtime Environment
JVM: OpenJDK 64-Bit Server VM
Default Encoding: Cp1252
Language: pt
Country: PT
--></g></svg>