<?xml version="1.0" encoding="UTF-8"?>
<!DOCTYPE svg PUBLIC '-//W3C//DTD SVG 1.0//EN'
          'http://www.w3.org/TR/2001/REC-SVG-20010904/DTD/svg10.dtd'>
<svg fill-opacity="0" xmlns:xlink="http://www.w3.org/1999/xlink" color-rendering="auto" color-interpolation="auto" text-rendering="auto" stroke="rgb(0,0,0)" stroke-linecap="square" width="855" stroke-miterlimit="10" shape-rendering="auto" stroke-opacity="0" fill="rgb(0,0,0)" stroke-dasharray="none" font-weight="normal" stroke-width="1" height="630" xmlns="http://www.w3.org/2000/svg" font-family="'Dialog'" font-style="normal" stroke-linejoin="miter" font-size="12px" stroke-dashoffset="0" image-rendering="auto"
><!--Generated by the Batik Graphics2D SVG Generator--><defs id="genericDefs"
  /><g
  ><defs id="defs1"
    ><clipPath clipPathUnits="userSpaceOnUse" id="clipPath1"
      ><path d="M-7 -7 L860 -7 L860 637 L-7 637 L-7 -7 Z"
      /></clipPath
      ><clipPath clipPathUnits="userSpaceOnUse" id="clipPath2"
      ><path d="M0 0 L0 626 L849 626 L849 0 Z"
      /></clipPath
      ><clipPath clipPathUnits="userSpaceOnUse" id="clipPath3"
      ><path d="M0 0 L0 18 L44 18 L44 0 Z"
      /></clipPath
      ><clipPath clipPathUnits="userSpaceOnUse" id="clipPath4"
      ><path d="M-7 -7 L734 -7 L734 348 L-7 348 L-7 -7 Z"
      /></clipPath
      ><clipPath clipPathUnits="userSpaceOnUse" id="clipPath5"
      ><path d="M0 0 L0 337 L723 337 L723 0 Z"
      /></clipPath
      ><clipPath clipPathUnits="userSpaceOnUse" id="clipPath6"
      ><path d="M0 0 L0 18 L58 18 L58 0 Z"
      /></clipPath
      ><clipPath clipPathUnits="userSpaceOnUse" id="clipPath7"
      ><path d="M-7 -7 L715 -7 L715 133 L-7 133 L-7 -7 Z"
      /></clipPath
      ><clipPath clipPathUnits="userSpaceOnUse" id="clipPath8"
      ><path d="M0 0 L0 122 L704 122 L704 0 Z"
      /></clipPath
      ><clipPath clipPathUnits="userSpaceOnUse" id="clipPath9"
      ><path d="M0 0 L0 18 L50 18 L50 0 Z"
      /></clipPath
      ><clipPath clipPathUnits="userSpaceOnUse" id="clipPath10"
      ><path d="M-7 -7 L168 -7 L168 98 L-7 98 L-7 -7 Z"
      /></clipPath
      ><clipPath clipPathUnits="userSpaceOnUse" id="clipPath11"
      ><path d="M0 0 L0 87 L157 87 L157 0 Z"
      /></clipPath
      ><clipPath clipPathUnits="userSpaceOnUse" id="clipPath12"
      ><path d="M0 0 L0 18 L31 18 L31 0 Z"
      /></clipPath
      ><clipPath clipPathUnits="userSpaceOnUse" id="clipPath13"
      ><path d="M-7 -7 L261 -7 L261 121 L-7 121 L-7 -7 Z"
      /></clipPath
      ><clipPath clipPathUnits="userSpaceOnUse" id="clipPath14"
      ><path d="M0 0 L0 110 L250 110 L250 0 Z"
      /></clipPath
      ><clipPath clipPathUnits="userSpaceOnUse" id="clipPath15"
      ><path d="M0 0 L0 18 L52 18 L52 0 Z"
      /></clipPath
      ><clipPath clipPathUnits="userSpaceOnUse" id="clipPath16"
      ><path d="M-7 -7 L315 -7 L315 114 L-7 114 L-7 -7 Z"
      /></clipPath
      ><clipPath clipPathUnits="userSpaceOnUse" id="clipPath17"
      ><path d="M0 0 L0 103 L304 103 L304 0 Z"
      /></clipPath
      ><clipPath clipPathUnits="userSpaceOnUse" id="clipPath18"
      ><path d="M0 0 L0 18 L74 18 L74 0 Z"
      /></clipPath
      ><clipPath clipPathUnits="userSpaceOnUse" id="clipPath19"
      ><path d="M-7 -7 L130 -7 L130 51 L-7 51 L-7 -7 Z"
      /></clipPath
      ><clipPath clipPathUnits="userSpaceOnUse" id="clipPath20"
      ><path d="M0 0 L0 25 L119 25 L119 0 Z"
      /></clipPath
      ><clipPath clipPathUnits="userSpaceOnUse" id="clipPath21"
      ><path d="M0 0 L0 15 L119 15 L119 0 Z"
      /></clipPath
      ><clipPath clipPathUnits="userSpaceOnUse" id="clipPath22"
      ><path d="M-7 -7 L283 -7 L283 79 L-7 79 L-7 -7 Z"
      /></clipPath
      ><clipPath clipPathUnits="userSpaceOnUse" id="clipPath23"
      ><path d="M0 0 L0 53 L272 53 L272 0 Z"
      /></clipPath
      ><clipPath clipPathUnits="userSpaceOnUse" id="clipPath24"
      ><path d="M0 0 L0 15 L272 15 L272 0 Z"
      /></clipPath
      ><clipPath clipPathUnits="userSpaceOnUse" id="clipPath25"
      ><path d="M-7 -7 L238 -7 L238 81 L-7 81 L-7 -7 Z"
      /></clipPath
      ><clipPath clipPathUnits="userSpaceOnUse" id="clipPath26"
      ><path d="M0 0 L0 55 L227 55 L227 0 Z"
      /></clipPath
      ><clipPath clipPathUnits="userSpaceOnUse" id="clipPath27"
      ><path d="M0 0 L0 15 L227 15 L227 0 Z"
      /></clipPath
      ><clipPath clipPathUnits="userSpaceOnUse" id="clipPath28"
      ><path d="M-7 -7 L251 -7 L251 93 L-7 93 L-7 -7 Z"
      /></clipPath
      ><clipPath clipPathUnits="userSpaceOnUse" id="clipPath29"
      ><path d="M0 0 L0 67 L240 67 L240 0 Z"
      /></clipPath
      ><clipPath clipPathUnits="userSpaceOnUse" id="clipPath30"
      ><path d="M0 0 L0 15 L240 15 L240 0 Z"
      /></clipPath
      ><clipPath clipPathUnits="userSpaceOnUse" id="clipPath31"
      ><path d="M-7 -7 L252 -7 L252 64 L-7 64 L-7 -7 Z"
      /></clipPath
      ><clipPath clipPathUnits="userSpaceOnUse" id="clipPath32"
      ><path d="M0 0 L0 38 L241 38 L241 0 Z"
      /></clipPath
      ><clipPath clipPathUnits="userSpaceOnUse" id="clipPath33"
      ><path d="M0 0 L0 15 L242 15 L242 0 Z"
      /></clipPath
      ><clipPath clipPathUnits="userSpaceOnUse" id="clipPath34"
      ><path d="M0 0 L70 0 L70 163 L0 163 L0 0 Z"
      /></clipPath
      ><clipPath clipPathUnits="userSpaceOnUse" id="clipPath35"
      ><path d="M0 0 L0 163 L70 163 L70 0 Z"
      /></clipPath
      ><clipPath clipPathUnits="userSpaceOnUse" id="clipPath36"
      ><path d="M0 0 L168 0 L168 341 L0 341 L0 0 Z"
      /></clipPath
      ><clipPath clipPathUnits="userSpaceOnUse" id="clipPath37"
      ><path d="M0 0 L0 341 L168 341 L168 0 Z"
      /></clipPath
      ><clipPath clipPathUnits="userSpaceOnUse" id="clipPath38"
      ><path d="M0 0 L135 0 L135 356 L0 356 L0 0 Z"
      /></clipPath
      ><clipPath clipPathUnits="userSpaceOnUse" id="clipPath39"
      ><path d="M0 0 L0 356 L135 356 L135 0 Z"
      /></clipPath
      ><clipPath clipPathUnits="userSpaceOnUse" id="clipPath40"
      ><path d="M0 0 L161 0 L161 151 L0 151 L0 0 Z"
      /></clipPath
      ><clipPath clipPathUnits="userSpaceOnUse" id="clipPath41"
      ><path d="M0 0 L0 151 L161 151 L161 0 Z"
      /></clipPath
      ><clipPath clipPathUnits="userSpaceOnUse" id="clipPath42"
      ><path d="M0 0 L70 0 L70 106 L0 106 L0 0 Z"
      /></clipPath
      ><clipPath clipPathUnits="userSpaceOnUse" id="clipPath43"
      ><path d="M0 0 L0 106 L70 106 L70 0 Z"
      /></clipPath
      ><clipPath clipPathUnits="userSpaceOnUse" id="clipPath44"
      ><path d="M0 0 L190 0 L190 124 L0 124 L0 0 Z"
      /></clipPath
      ><clipPath clipPathUnits="userSpaceOnUse" id="clipPath45"
      ><path d="M0 0 L0 124 L190 124 L190 0 Z"
      /></clipPath
    ></defs
    ><g fill="white" text-rendering="geometricPrecision" fill-opacity="1" stroke-opacity="1" stroke="white"
    ><rect x="0" width="855" height="630" y="0" stroke="none"
    /></g
    ><g stroke-linecap="butt" font-size="11px" transform="translate(2,0)" fill-opacity="1" fill="black" text-rendering="geometricPrecision" image-rendering="optimizeQuality" font-family="sans-serif" stroke-linejoin="round" stroke="black" stroke-opacity="1" stroke-miterlimit="0"
    ><rect fill="none" x="0" width="849" height="626" y="0" clip-path="url(#clipPath1)"
      /><path fill="none" d="M44 1 L44 10 L38 18 L1 18" clip-path="url(#clipPath2)"
    /></g
    ><g font-size="11px" transform="translate(3,1)" fill-opacity="1" fill="black" text-rendering="geometricPrecision" image-rendering="optimizeQuality" font-family="sans-serif" stroke="black" stroke-opacity="1"
    ><text x="10" xml:space="preserve" y="12" clip-path="url(#clipPath3)" stroke="none"
      >Core</text
    ></g
    ><g stroke-linecap="butt" font-size="11px" transform="translate(49,275)" fill-opacity="1" fill="black" text-rendering="geometricPrecision" image-rendering="optimizeQuality" font-family="sans-serif" stroke-linejoin="round" stroke="black" stroke-opacity="1" stroke-miterlimit="0"
    ><rect fill="none" x="0" width="723" height="337" y="0" clip-path="url(#clipPath4)"
      /><path fill="none" d="M58 1 L58 10 L52 18 L1 18" clip-path="url(#clipPath5)"
    /></g
    ><g font-size="11px" transform="translate(50,276)" fill-opacity="1" fill="black" text-rendering="geometricPrecision" image-rendering="optimizeQuality" font-family="sans-serif" stroke="black" stroke-opacity="1"
    ><text x="10" xml:space="preserve" y="12" clip-path="url(#clipPath6)" stroke="none"
      >Domain</text
    ></g
    ><g stroke-linecap="butt" font-size="11px" transform="translate(56,469)" fill-opacity="1" fill="black" text-rendering="geometricPrecision" image-rendering="optimizeQuality" font-family="sans-serif" stroke-linejoin="round" stroke="black" stroke-opacity="1" stroke-miterlimit="0"
    ><rect fill="none" x="0" width="704" height="122" y="0" clip-path="url(#clipPath7)"
      /><path fill="none" d="M50 1 L50 10 L44 18 L1 18" clip-path="url(#clipPath8)"
    /></g
    ><g font-size="11px" transform="translate(57,470)" fill-opacity="1" fill="black" text-rendering="geometricPrecision" image-rendering="optimizeQuality" font-family="sans-serif" stroke="black" stroke-opacity="1"
    ><text x="10" xml:space="preserve" y="12" clip-path="url(#clipPath9)" stroke="none"
      >Model</text
    ></g
    ><g stroke-linecap="butt" font-size="11px" transform="translate(341,15)" fill-opacity="1" fill="black" text-rendering="geometricPrecision" image-rendering="optimizeQuality" font-family="sans-serif" stroke-linejoin="round" stroke="black" stroke-opacity="1" stroke-miterlimit="0"
    ><rect fill="none" x="0" width="157" height="87" y="0" clip-path="url(#clipPath10)"
      /><path fill="none" d="M31 1 L31 10 L25 18 L1 18" clip-path="url(#clipPath11)"
    /></g
    ><g font-size="11px" transform="translate(342,16)" fill-opacity="1" fill="black" text-rendering="geometricPrecision" image-rendering="optimizeQuality" font-family="sans-serif" stroke="black" stroke-opacity="1"
    ><text x="10" xml:space="preserve" y="12" clip-path="url(#clipPath12)" stroke="none"
      >UI</text
    ></g
    ><g stroke-linecap="butt" font-size="11px" transform="translate(294,334)" fill-opacity="1" fill="black" text-rendering="geometricPrecision" image-rendering="optimizeQuality" font-family="sans-serif" stroke-linejoin="round" stroke="black" stroke-opacity="1" stroke-miterlimit="0"
    ><rect fill="none" x="0" width="250" height="110" y="0" clip-path="url(#clipPath13)"
      /><path fill="none" d="M52 1 L52 10 L46 18 L1 18" clip-path="url(#clipPath14)"
    /></g
    ><g font-size="11px" transform="translate(295,335)" fill-opacity="1" fill="black" text-rendering="geometricPrecision" image-rendering="optimizeQuality" font-family="sans-serif" stroke="black" stroke-opacity="1"
    ><text x="10" xml:space="preserve" y="12" clip-path="url(#clipPath15)" stroke="none"
      >Stores</text
    ></g
    ><g stroke-linecap="butt" font-size="11px" transform="translate(267,137)" fill-opacity="1" fill="black" text-rendering="geometricPrecision" image-rendering="optimizeQuality" font-family="sans-serif" stroke-linejoin="round" stroke="black" stroke-opacity="1" stroke-miterlimit="0"
    ><rect fill="none" x="0" width="304" height="103" y="0" clip-path="url(#clipPath16)"
      /><path fill="none" d="M74 1 L74 10 L68 18 L1 18" clip-path="url(#clipPath17)"
    /></g
    ><g font-size="11px" transform="translate(268,138)" fill-opacity="1" fill="black" text-rendering="geometricPrecision" image-rendering="optimizeQuality" font-family="sans-serif" stroke="black" stroke-opacity="1"
    ><text x="10" xml:space="preserve" y="12" clip-path="url(#clipPath18)" stroke="none"
      >Controllers</text
    ></g
    ><g font-size="11px" transform="translate(360,39)" fill-opacity="0.6" fill="rgb(192,192,192)" text-rendering="geometricPrecision" image-rendering="optimizeQuality" font-family="sans-serif" stroke="rgb(192,192,192)" font-weight="bold" stroke-opacity="0.6"
    ><rect x="0" width="119" height="40" y="0" clip-path="url(#clipPath19)" stroke="none"
    /></g
    ><g fill-opacity="1" text-rendering="geometricPrecision" stroke="black" stroke-linecap="butt" transform="translate(360,39)" stroke-miterlimit="0" stroke-opacity="1" fill="black" font-weight="bold" font-family="sans-serif" stroke-linejoin="round" font-size="11px" image-rendering="optimizeQuality"
    ><rect fill="none" x="0" width="119" height="40" y="0" clip-path="url(#clipPath19)"
      /><line y2="15" fill="none" x1="0" clip-path="url(#clipPath19)" x2="119" y1="15"
    /></g
    ><g font-size="11px" transform="translate(360,39)" fill-opacity="1" fill="black" text-rendering="geometricPrecision" image-rendering="optimizeQuality" font-family="sans-serif" stroke="black" font-weight="bold" stroke-opacity="1"
    ><text x="8" xml:space="preserve" y="12" clip-path="url(#clipPath21)" stroke="none"
      >ScheduleVaccineUI</text
    ></g
    ><g font-size="11px" transform="translate(283,154)" fill-opacity="0.6" fill="rgb(192,192,192)" text-rendering="geometricPrecision" image-rendering="optimizeQuality" font-family="sans-serif" stroke="rgb(192,192,192)" font-weight="bold" stroke-opacity="0.6"
    ><rect x="0" width="272" height="68" y="0" clip-path="url(#clipPath22)" stroke="none"
    /></g
    ><g fill-opacity="1" text-rendering="geometricPrecision" stroke="black" stroke-linecap="butt" transform="translate(283,154)" stroke-miterlimit="0" stroke-opacity="1" fill="black" font-weight="bold" font-family="sans-serif" stroke-linejoin="round" font-size="11px" image-rendering="optimizeQuality"
    ><rect fill="none" x="0" width="272" height="68" y="0" clip-path="url(#clipPath22)"
      /><line y2="15" fill="none" x1="0" clip-path="url(#clipPath22)" x2="272" y1="15"
    /></g
    ><g font-size="11px" transform="matrix(1,0,0,1,283,169)" fill-opacity="1" fill="black" text-rendering="geometricPrecision" image-rendering="optimizeQuality" font-family="sans-serif" stroke="black" stroke-opacity="1"
    ><text x="2" xml:space="preserve" y="14" clip-path="url(#clipPath23)" stroke="none"
      >+createScheduleVaccine(SnsUserNumber, date, time)</text
    ></g
    ><g font-size="11px" transform="matrix(1,0,0,1,283,169)" fill-opacity="1" fill="black" text-rendering="geometricPrecision" image-rendering="optimizeQuality" font-family="sans-serif" stroke="black" stroke-opacity="1"
    ><text x="2" xml:space="preserve" y="29" clip-path="url(#clipPath23)" stroke="none"
      >+getVaccinationCenter()</text
    ></g
    ><g font-size="11px" transform="matrix(1,0,0,1,283,169)" fill-opacity="1" fill="black" text-rendering="geometricPrecision" image-rendering="optimizeQuality" font-family="sans-serif" stroke="black" stroke-opacity="1"
    ><text x="2" xml:space="preserve" y="44" clip-path="url(#clipPath23)" stroke="none"
      >+saveScheduleVaccine()</text
    ></g
    ><g font-size="11px" transform="translate(283,154)" fill-opacity="1" fill="black" text-rendering="geometricPrecision" image-rendering="optimizeQuality" font-family="sans-serif" stroke="black" font-weight="bold" stroke-opacity="1"
    ><text x="63" xml:space="preserve" y="12" clip-path="url(#clipPath24)" stroke="none"
      >ScheduleVaccineController</text
    ></g
    ><g font-size="11px" transform="translate(306,354)" fill-opacity="0.6" fill="rgb(192,192,192)" text-rendering="geometricPrecision" image-rendering="optimizeQuality" font-family="sans-serif" stroke="rgb(192,192,192)" font-weight="bold" stroke-opacity="0.6"
    ><rect x="0" width="227" height="70" y="0" clip-path="url(#clipPath25)" stroke="none"
    /></g
    ><g fill-opacity="1" text-rendering="geometricPrecision" stroke="black" stroke-linecap="butt" transform="translate(306,354)" stroke-miterlimit="0" stroke-opacity="1" fill="black" font-weight="bold" font-family="sans-serif" stroke-linejoin="round" font-size="11px" image-rendering="optimizeQuality"
    ><rect fill="none" x="0" width="227" height="70" y="0" clip-path="url(#clipPath25)"
      /><line y2="15" fill="none" x1="0" clip-path="url(#clipPath25)" x2="227" y1="15"
    /></g
    ><g font-size="11px" transform="matrix(1,0,0,1,306,369)" fill-opacity="1" fill="black" text-rendering="geometricPrecision" image-rendering="optimizeQuality" font-family="sans-serif" stroke="black" stroke-opacity="1"
    ><text x="2" xml:space="preserve" y="14" clip-path="url(#clipPath26)" stroke="none"
      >+getScheduleVaccine()</text
    ></g
    ><g font-size="11px" transform="matrix(1,0,0,1,306,369)" fill-opacity="1" fill="black" text-rendering="geometricPrecision" image-rendering="optimizeQuality" font-family="sans-serif" stroke="black" stroke-opacity="1"
    ><text x="2" xml:space="preserve" y="29" clip-path="url(#clipPath26)" stroke="none"
      >+validateScheduleVaccine(scheduleVaccine)</text
    ></g
    ><g font-size="11px" transform="matrix(1,0,0,1,306,369)" fill-opacity="1" fill="black" text-rendering="geometricPrecision" image-rendering="optimizeQuality" font-family="sans-serif" stroke="black" stroke-opacity="1"
    ><text x="2" xml:space="preserve" y="44" clip-path="url(#clipPath26)" stroke="none"
      >+addScheduleVaccine(scheduleVaccine)</text
    ></g
    ><g font-size="11px" transform="translate(306,354)" fill-opacity="1" fill="black" text-rendering="geometricPrecision" image-rendering="optimizeQuality" font-family="sans-serif" stroke="black" font-weight="bold" stroke-opacity="1"
    ><text x="54" xml:space="preserve" y="12" clip-path="url(#clipPath27)" stroke="none"
      >ScheduleVaccineStore</text
    ></g
    ><g font-size="11px" transform="translate(67,494)" fill-opacity="0.6" fill="rgb(192,192,192)" text-rendering="geometricPrecision" image-rendering="optimizeQuality" font-family="sans-serif" stroke="rgb(192,192,192)" font-weight="bold" stroke-opacity="0.6"
    ><rect x="0" width="240" height="82" y="0" clip-path="url(#clipPath28)" stroke="none"
    /></g
    ><g fill-opacity="1" text-rendering="geometricPrecision" stroke="black" stroke-linecap="butt" transform="translate(67,494)" stroke-miterlimit="0" stroke-opacity="1" fill="black" font-weight="bold" font-family="sans-serif" stroke-linejoin="round" font-size="11px" image-rendering="optimizeQuality"
    ><rect fill="none" x="0" width="240" height="82" y="0" clip-path="url(#clipPath28)"
      /><line y2="15" fill="none" x1="0" clip-path="url(#clipPath28)" x2="240" y1="15"
    /></g
    ><g font-size="11px" transform="matrix(1,0,0,1,67,509)" fill-opacity="1" fill="black" text-rendering="geometricPrecision" image-rendering="optimizeQuality" font-family="sans-serif" stroke="black" stroke-opacity="1"
    ><text x="2" xml:space="preserve" y="14" clip-path="url(#clipPath29)" stroke="none"
      >+getScheduleVaccine()</text
    ></g
    ><g font-size="11px" transform="matrix(1,0,0,1,67,509)" fill-opacity="1" fill="black" text-rendering="geometricPrecision" image-rendering="optimizeQuality" font-family="sans-serif" stroke="black" stroke-opacity="1"
    ><text x="2" xml:space="preserve" y="29" clip-path="url(#clipPath29)" stroke="none"
      >+scheduleVaccine(SnsUserNumber, date, time)</text
    ></g
    ><g font-size="11px" transform="matrix(1,0,0,1,67,509)" fill-opacity="1" fill="black" text-rendering="geometricPrecision" image-rendering="optimizeQuality" font-family="sans-serif" stroke="black" stroke-opacity="1"
    ><text x="2" xml:space="preserve" y="44" clip-path="url(#clipPath29)" stroke="none"
      >+validateScheduleVaccine(scheduleVaccine)</text
    ></g
    ><g font-size="11px" transform="matrix(1,0,0,1,67,509)" fill-opacity="1" fill="black" text-rendering="geometricPrecision" image-rendering="optimizeQuality" font-family="sans-serif" stroke="black" stroke-opacity="1"
    ><text x="2" xml:space="preserve" y="59" clip-path="url(#clipPath29)" stroke="none"
      >+saveScheduleVaccine(ScheduleVaccine)</text
    ></g
    ><g font-size="11px" transform="translate(67,494)" fill-opacity="1" fill="black" text-rendering="geometricPrecision" image-rendering="optimizeQuality" font-family="sans-serif" stroke="black" font-weight="bold" stroke-opacity="1"
    ><text x="94" xml:space="preserve" y="12" clip-path="url(#clipPath30)" stroke="none"
      >Company</text
    ></g
    ><g font-size="11px" transform="translate(498,509)" fill-opacity="0.6" fill="rgb(192,192,192)" text-rendering="geometricPrecision" image-rendering="optimizeQuality" font-family="sans-serif" stroke="rgb(192,192,192)" font-weight="bold" stroke-opacity="0.6"
    ><rect x="0" width="241" height="53" y="0" clip-path="url(#clipPath31)" stroke="none"
    /></g
    ><g fill-opacity="1" text-rendering="geometricPrecision" stroke="black" stroke-linecap="butt" transform="translate(498,509)" stroke-miterlimit="0" stroke-opacity="1" fill="black" font-weight="bold" font-family="sans-serif" stroke-linejoin="round" font-size="11px" image-rendering="optimizeQuality"
    ><rect fill="none" x="0" width="241" height="53" y="0" clip-path="url(#clipPath31)"
      /><line y2="15" fill="none" x1="0" clip-path="url(#clipPath31)" x2="241" y1="15"
    /></g
    ><g font-size="11px" transform="matrix(1,0,0,1,498,524)" fill-opacity="1" fill="black" text-rendering="geometricPrecision" image-rendering="optimizeQuality" font-family="sans-serif" stroke="black" stroke-opacity="1"
    ><text x="2" xml:space="preserve" y="14" clip-path="url(#clipPath32)" stroke="none"
      >+ScheduleVaccine(SnsUserNumber, date, time)</text
    ></g
    ><g font-size="11px" transform="translate(498,509)" fill-opacity="1" fill="black" text-rendering="geometricPrecision" image-rendering="optimizeQuality" font-family="sans-serif" stroke="black" font-weight="bold" stroke-opacity="1"
    ><text x="75" xml:space="preserve" y="12" clip-path="url(#clipPath33)" stroke="none"
      >ScheduleVaccine</text
    ></g
    ><g fill-opacity="1" text-rendering="geometricPrecision" stroke="black" stroke-linecap="butt" transform="translate(385,206)" stroke-opacity="1" fill="black" stroke-dasharray="5" font-family="sans-serif" stroke-linejoin="round" font-size="11px" stroke-dashoffset="1" image-rendering="optimizeQuality"
    ><line y2="126" fill="none" x1="33" clip-path="url(#clipPath35)" x2="33" y1="34"
      /><line clip-path="url(#clipPath35)" stroke-dashoffset="0" fill="none" x1="33" x2="39" y1="126" y2="114" stroke-dasharray="none"
      /><line clip-path="url(#clipPath35)" stroke-dashoffset="0" fill="none" x1="33" x2="27" y1="126" y2="114" stroke-dasharray="none"
    /></g
    ><g fill-opacity="1" text-rendering="geometricPrecision" stroke="black" stroke-linecap="butt" transform="translate(145,198)" stroke-opacity="1" fill="black" stroke-dasharray="5" font-family="sans-serif" stroke-linejoin="round" font-size="11px" stroke-dashoffset="1" image-rendering="optimizeQuality"
    ><line y2="296" fill="none" x1="122" clip-path="url(#clipPath37)" x2="41" y1="41"
      /><line clip-path="url(#clipPath37)" stroke-dashoffset="0" fill="none" x1="41" x2="49" y1="296" y2="286" stroke-dasharray="none"
      /><line clip-path="url(#clipPath37)" stroke-dashoffset="0" fill="none" x1="41" x2="38" y1="296" y2="283" stroke-dasharray="none"
    /></g
    ><g fill-opacity="1" text-rendering="geometricPrecision" stroke="black" stroke-linecap="butt" transform="translate(529,198)" stroke-opacity="1" fill="black" stroke-dasharray="5" font-family="sans-serif" stroke-linejoin="round" font-size="11px" stroke-dashoffset="1" image-rendering="optimizeQuality"
    ><line y2="41" fill="none" x1="90" clip-path="url(#clipPath39)" x2="41" y1="311"
      /><line clip-path="url(#clipPath39)" stroke-dashoffset="0" fill="none" x1="90" x2="94" y1="311" y2="299" stroke-dasharray="none"
      /><line clip-path="url(#clipPath39)" stroke-dashoffset="0" fill="none" x1="90" x2="82" y1="311" y2="300" stroke-dasharray="none"
    /></g
    ><g fill-opacity="1" text-rendering="geometricPrecision" stroke="black" stroke-linecap="butt" transform="translate(503,403)" stroke-opacity="1" fill="black" stroke-dasharray="5" font-family="sans-serif" stroke-linejoin="round" font-size="11px" stroke-dashoffset="1" image-rendering="optimizeQuality"
    ><line y2="42" fill="none" x1="116" clip-path="url(#clipPath41)" x2="41" y1="106"
      /><line clip-path="url(#clipPath41)" stroke-dashoffset="0" fill="none" x1="116" x2="110" y1="106" y2="93" stroke-dasharray="none"
      /><line clip-path="url(#clipPath41)" stroke-dashoffset="0" fill="none" x1="116" x2="103" y1="106" y2="103" stroke-dasharray="none"
    /></g
    ><g fill-opacity="1" text-rendering="geometricPrecision" stroke="black" stroke-linecap="butt" transform="translate(385,68)" stroke-opacity="1" fill="black" stroke-dasharray="5" font-family="sans-serif" stroke-linejoin="round" font-size="11px" stroke-dashoffset="1" image-rendering="optimizeQuality"
    ><line y2="69" fill="none" x1="33" clip-path="url(#clipPath43)" x2="33" y1="33"
      /><line clip-path="url(#clipPath43)" stroke-dashoffset="0" fill="none" x1="33" x2="39" y1="69" y2="57" stroke-dasharray="none"
      /><line clip-path="url(#clipPath43)" stroke-dashoffset="0" fill="none" x1="33" x2="27" y1="69" y2="57" stroke-dasharray="none"
    /></g
    ><g fill-opacity="1" text-rendering="geometricPrecision" stroke="black" stroke-linecap="butt" transform="translate(148,402)" stroke-opacity="1" fill="black" stroke-dasharray="5" font-family="sans-serif" stroke-linejoin="round" font-size="11px" stroke-dashoffset="1" image-rendering="optimizeQuality"
    ><line y2="42" fill="none" x1="41" clip-path="url(#clipPath45)" x2="145" y1="78"
      /><line clip-path="url(#clipPath45)" stroke-dashoffset="0" fill="none" x1="145" x2="131" y1="42" y2="40" stroke-dasharray="none"
      /><line clip-path="url(#clipPath45)" stroke-dashoffset="0" fill="none" x1="145" x2="135" y1="42" y2="51" stroke-dasharray="none"
    /></g
    ><g font-size="8px" fill-opacity="1" fill="rgb(120,120,120)" text-rendering="geometricPrecision" image-rendering="optimizeQuality" stroke="rgb(120,120,120)" stroke-opacity="1"
    ></g
  ></g
></svg
>
