<?xml version="1.0" encoding="UTF-8" standalone="no"?><svg xmlns="http://www.w3.org/2000/svg" xmlns:xlink="http://www.w3.org/1999/xlink" contentStyleType="text/css" height="188px" preserveAspectRatio="none" style="width:256px;height:188px;background:#FFFFFF;" version="1.1" viewBox="0 0 256 188" width="256px" zoomAndPan="magnify"><defs/><g><!--MD5=[02e4b9b7573f1156f41e60aa5b4e25a4]
class Company--><g id="elem_Company"><rect codeLine="9" fill="#F1F1F1" height="48" id="Company" rx="2.5" ry="2.5" style="stroke:#181818;stroke-width:0.5;" width="92" x="7" y="7"/><ellipse cx="22" cy="23" fill="#ADD1B2" rx="11" ry="11" style="stroke:#181818;stroke-width:1.0;"/><path d="M24,19.5 Q24.2031,19 24.4375,18.75 Q24.6719,18.5 24.9375,18.5 Q25.4063,18.5 25.7031,18.7813 Q26,19.0625 26,19.7188 L26,21.2813 Q26,21.9375 25.7188,22.2188 Q25.4375,22.5 25,22.5 Q24.6094,22.5 24.3594,22.3281 Q24.1094,22.1563 24,21.7031 Q23.9531,21.3906 23.7813,21.2188 Q23.4688,20.8906 22.9063,20.7031 Q22.3438,20.5 21.7813,20.5 Q21.0781,20.5 20.4844,20.7813 Q19.9063,21.0625 19.4531,21.6875 Q19,22.3125 19,23.1719 L19,24.0938 Q19,25.125 19.8438,25.8125 Q20.6875,26.5 22.1875,26.5 Q23.0781,26.5 23.7031,26.2969 Q24.0625,26.1875 24.4688,25.8281 Q24.7344,25.625 24.875,25.5625 Q25.0156,25.5 25.1875,25.5 Q25.5156,25.5 25.75,25.7656 Q26,26.0156 26,26.375 Q26,26.7188 25.6563,27.125 Q25.1563,27.7188 24.3594,28.0469 Q23.3125,28.5 22.0313,28.5 Q20.5313,28.5 19.3281,27.9063 Q18.3594,27.4375 17.6719,26.4219 Q17,25.4063 17,24.2031 L17,23.1094 Q17,21.8594 17.5938,20.7656 Q18.2031,19.6719 19.25,19.0938 Q20.3125,18.5 21.5,18.5 Q22.2188,18.5 22.8438,18.75 Q23.4688,19 24,19.5 Z " fill="#000000"/><text fill="#000000" font-family="sans-serif" font-size="14" lengthAdjust="spacing" textLength="60" x="36" y="28.7285">Company</text><line style="stroke:#181818;stroke-width:0.5;" x1="8" x2="98" y1="39" y2="39"/><line style="stroke:#181818;stroke-width:0.5;" x1="8" x2="98" y1="47" y2="47"/></g><!--MD5=[72be06cc7ae02ccc98efe28a50e62246]
class SNSUser--><g id="elem_SNSUser"><rect codeLine="6" fill="#F1F1F1" height="48" id="SNSUser" rx="2.5" ry="2.5" style="stroke:#181818;stroke-width:0.5;" width="88" x="78" y="133"/><ellipse cx="93" cy="149" fill="#ADD1B2" rx="11" ry="11" style="stroke:#181818;stroke-width:1.0;"/><path d="M95,145.5 Q95.2031,145 95.4375,144.75 Q95.6719,144.5 95.9375,144.5 Q96.4063,144.5 96.7031,144.7813 Q97,145.0625 97,145.7188 L97,147.2813 Q97,147.9375 96.7188,148.2188 Q96.4375,148.5 96,148.5 Q95.6094,148.5 95.3594,148.3281 Q95.1094,148.1563 95,147.7031 Q94.9531,147.3906 94.7813,147.2188 Q94.4688,146.8906 93.9063,146.7031 Q93.3438,146.5 92.7813,146.5 Q92.0781,146.5 91.4844,146.7813 Q90.9063,147.0625 90.4531,147.6875 Q90,148.3125 90,149.1719 L90,150.0938 Q90,151.125 90.8438,151.8125 Q91.6875,152.5 93.1875,152.5 Q94.0781,152.5 94.7031,152.2969 Q95.0625,152.1875 95.4688,151.8281 Q95.7344,151.625 95.875,151.5625 Q96.0156,151.5 96.1875,151.5 Q96.5156,151.5 96.75,151.7656 Q97,152.0156 97,152.375 Q97,152.7188 96.6563,153.125 Q96.1563,153.7188 95.3594,154.0469 Q94.3125,154.5 93.0313,154.5 Q91.5313,154.5 90.3281,153.9063 Q89.3594,153.4375 88.6719,152.4219 Q88,151.4063 88,150.2031 L88,149.1094 Q88,147.8594 88.5938,146.7656 Q89.2031,145.6719 90.25,145.0938 Q91.3125,144.5 92.5,144.5 Q93.2188,144.5 93.8438,144.75 Q94.4688,145 95,145.5 Z " fill="#000000"/><text fill="#000000" font-family="sans-serif" font-size="14" lengthAdjust="spacing" textLength="56" x="107" y="154.7285">SNSUser</text><line style="stroke:#181818;stroke-width:0.5;" x1="79" x2="165" y1="165" y2="165"/><line style="stroke:#181818;stroke-width:0.5;" x1="79" x2="165" y1="173" y2="173"/></g><!--MD5=[da547346deef918ea16944ba046651ef]
class Administrator--><g id="elem_Administrator"><rect codeLine="8" fill="#F1F1F1" height="48" id="Administrator" rx="2.5" ry="2.5" style="stroke:#181818;stroke-width:0.5;" width="115" x="134.5" y="7"/><ellipse cx="149.5" cy="23" fill="#ADD1B2" rx="11" ry="11" style="stroke:#181818;stroke-width:1.0;"/><path d="M151.5,19.5 Q151.7031,19 151.9375,18.75 Q152.1719,18.5 152.4375,18.5 Q152.9063,18.5 153.2031,18.7813 Q153.5,19.0625 153.5,19.7188 L153.5,21.2813 Q153.5,21.9375 153.2188,22.2188 Q152.9375,22.5 152.5,22.5 Q152.1094,22.5 151.8594,22.3281 Q151.6094,22.1563 151.5,21.7031 Q151.4531,21.3906 151.2813,21.2188 Q150.9688,20.8906 150.4063,20.7031 Q149.8438,20.5 149.2813,20.5 Q148.5781,20.5 147.9844,20.7813 Q147.4063,21.0625 146.9531,21.6875 Q146.5,22.3125 146.5,23.1719 L146.5,24.0938 Q146.5,25.125 147.3438,25.8125 Q148.1875,26.5 149.6875,26.5 Q150.5781,26.5 151.2031,26.2969 Q151.5625,26.1875 151.9688,25.8281 Q152.2344,25.625 152.375,25.5625 Q152.5156,25.5 152.6875,25.5 Q153.0156,25.5 153.25,25.7656 Q153.5,26.0156 153.5,26.375 Q153.5,26.7188 153.1563,27.125 Q152.6563,27.7188 151.8594,28.0469 Q150.8125,28.5 149.5313,28.5 Q148.0313,28.5 146.8281,27.9063 Q145.8594,27.4375 145.1719,26.4219 Q144.5,25.4063 144.5,24.2031 L144.5,23.1094 Q144.5,21.8594 145.0938,20.7656 Q145.7031,19.6719 146.75,19.0938 Q147.8125,18.5 149,18.5 Q149.7188,18.5 150.3438,18.75 Q150.9688,19 151.5,19.5 Z " fill="#000000"/><text fill="#000000" font-family="sans-serif" font-size="14" lengthAdjust="spacing" textLength="83" x="163.5" y="28.7285">Administrator</text><line style="stroke:#181818;stroke-width:0.5;" x1="135.5" x2="248.5" y1="39" y2="39"/><line style="stroke:#181818;stroke-width:0.5;" x1="135.5" x2="248.5" y1="47" y2="47"/></g><!--MD5=[1a8aa2b864b87f860d28abceaa28b7a5]
link Company to SNSUser--><g id="link_Company_SNSUser"><path codeLine="3" d="M65.82,55.03 C77.31,75.7 94.22,106.07 106.48,128.1 " fill="none" id="Company-to-SNSUser" style="stroke:#181818;stroke-width:1.0;"/><polygon fill="#181818" points="109.02,132.67,108.1458,122.86,106.5918,128.2992,101.1526,126.7452,109.02,132.67" style="stroke:#181818;stroke-width:1.0;"/><text fill="#000000" font-family="sans-serif" font-size="13" lengthAdjust="spacing" textLength="21" x="93" y="99.4951">has</text><text fill="#000000" font-family="sans-serif" font-size="13" lengthAdjust="spacing" textLength="7" x="61.0918" y="76.3753">1</text><text fill="#000000" font-family="sans-serif" font-size="13" lengthAdjust="spacing" textLength="5" x="100.2467" y="122.3275">*</text></g><!--MD5=[2b5fc2dce8eec1aafb1a3721aa50d3a4]
link Administrator to SNSUser--><g id="link_Administrator_SNSUser"><path codeLine="4" d="M179,55.03 C167.33,75.7 150.19,106.07 137.75,128.1 " fill="none" id="Administrator-to-SNSUser" style="stroke:#181818;stroke-width:1.0;"/><polygon fill="#181818" points="135.17,132.67,143.0751,126.7955,137.6261,128.3148,136.1067,122.8658,135.17,132.67" style="stroke:#181818;stroke-width:1.0;"/><text fill="#000000" font-family="sans-serif" font-size="13" lengthAdjust="spacing" textLength="50" x="162" y="99.4951">registers</text><text fill="#000000" font-family="sans-serif" font-size="13" lengthAdjust="spacing" textLength="7" x="167.9781" y="76.3753">1</text><text fill="#000000" font-family="sans-serif" font-size="13" lengthAdjust="spacing" textLength="5" x="132.7708" y="122.3275">*</text></g><!--MD5=[18f980124786da3aad228eb553479216]
@startuml
'https://plantuml.com/class-diagram

Company "1" - -> "*" SNSUser : has
Administrator "1" - -> "*" SNSUser : registers

class SNSUser{
}
class Administrator{}
class Company{}


@enduml

@startuml

Company "1" - -> "*" SNSUser : has
Administrator "1" - -> "*" SNSUser : registers

class SNSUser{
}
class Administrator{}
class Company{}


@enduml

PlantUML version 1.2022.5(Sat Apr 30 11:55:52 BST 2022)
(GPL source distribution)
Java Runtime: OpenJDK Runtime Environment
JVM: OpenJDK 64-Bit Server VM
Default Encoding: Cp1252
Language: pt
Country: PT
--></g></svg>