<?xml version="1.0" encoding="UTF-8" standalone="no"?><svg xmlns="http://www.w3.org/2000/svg" xmlns:xlink="http://www.w3.org/1999/xlink" contentStyleType="text/css" height="654px" preserveAspectRatio="none" style="width:1072px;height:654px;background:#FFFFFF;" version="1.1" viewBox="0 0 1072 654" width="1072px" zoomAndPan="magnify"><defs/><g><rect fill="#FFFFFF" height="471.2734" style="stroke:#181818;stroke-width:1.0;" width="10" x="44.5" y="92.6094"/><rect fill="#FFFFFF" height="136.4063" style="stroke:#181818;stroke-width:1.0;" width="10" x="891.5" y="357.7734"/><rect height="92.0547" style="stroke:#000000;stroke-width:1.5;fill:none;" width="225.5" x="841" y="372.7734"/><line style="stroke:#181818;stroke-width:0.5;fill:none;stroke-dasharray:5.0,5.0;" x1="49" x2="49" y1="82.6094" y2="572.8828"/><line style="stroke:#181818;stroke-width:0.5;fill:none;stroke-dasharray:5.0,5.0;" x1="248" x2="248" y1="82.6094" y2="572.8828"/><line style="stroke:#181818;stroke-width:0.5;fill:none;stroke-dasharray:5.0,5.0;" x1="449" x2="449" y1="82.6094" y2="572.8828"/><line style="stroke:#181818;stroke-width:0.5;fill:none;stroke-dasharray:5.0,5.0;" x1="614" x2="614" y1="82.6094" y2="572.8828"/><line style="stroke:#181818;stroke-width:0.5;fill:none;stroke-dasharray:5.0,5.0;" x1="779.5" x2="779.5" y1="82.6094" y2="572.8828"/><line style="stroke:#181818;stroke-width:0.5;fill:none;stroke-dasharray:5.0,5.0;" x1="896" x2="896" y1="82.6094" y2="572.8828"/><line style="stroke:#181818;stroke-width:0.5;fill:none;stroke-dasharray:5.0,5.0;" x1="1021.5" x2="1021.5" y1="82.6094" y2="572.8828"/><text fill="#000000" font-family="sans-serif" font-size="14" lengthAdjust="spacing" textLength="83" x="5" y="79.5332">Administrator</text><ellipse cx="49.5" cy="13.5" fill="#E2E2F0" rx="8" ry="8" style="stroke:#181818;stroke-width:0.5;"/><path d="M49.5,21.5 L49.5,48.5 M36.5,29.5 L62.5,29.5 M49.5,48.5 L36.5,63.5 M49.5,48.5 L62.5,63.5 " fill="none" style="stroke:#181818;stroke-width:0.5;"/><text fill="#000000" font-family="sans-serif" font-size="14" lengthAdjust="spacing" textLength="83" x="5" y="586.416">Administrator</text><ellipse cx="49.5" cy="597.9922" fill="#E2E2F0" rx="8" ry="8" style="stroke:#181818;stroke-width:0.5;"/><path d="M49.5,605.9922 L49.5,632.9922 M36.5,613.9922 L62.5,613.9922 M49.5,632.9922 L36.5,647.9922 M49.5,632.9922 L62.5,647.9922 " fill="none" style="stroke:#181818;stroke-width:0.5;"/><rect fill="#E2E2F0" height="31.6094" rx="2.5" ry="2.5" style="stroke:#181818;stroke-width:0.5;" width="113" x="192" y="50"/><text fill="#000000" font-family="sans-serif" font-size="14" lengthAdjust="spacing" textLength="99" x="199" y="71.5332">UsersCSVFileUI</text><rect fill="#E2E2F0" height="31.6094" rx="2.5" ry="2.5" style="stroke:#181818;stroke-width:0.5;" width="113" x="192" y="571.8828"/><text fill="#000000" font-family="sans-serif" font-size="14" lengthAdjust="spacing" textLength="99" x="199" y="593.416">UsersCSVFileUI</text><rect fill="#E2E2F0" height="31.6094" rx="2.5" ry="2.5" style="stroke:#181818;stroke-width:0.5;" width="163" x="368" y="50"/><text fill="#000000" font-family="sans-serif" font-size="14" lengthAdjust="spacing" textLength="149" x="375" y="71.5332">UsersCSVFileController</text><rect fill="#E2E2F0" height="31.6094" rx="2.5" ry="2.5" style="stroke:#181818;stroke-width:0.5;" width="163" x="368" y="571.8828"/><text fill="#000000" font-family="sans-serif" font-size="14" lengthAdjust="spacing" textLength="149" x="375" y="593.416">UsersCSVFileController</text><rect fill="#E2E2F0" height="31.6094" rx="2.5" ry="2.5" style="stroke:#181818;stroke-width:0.5;" width="39" x="595" y="50"/><text fill="#000000" font-family="sans-serif" font-size="14" lengthAdjust="spacing" textLength="25" x="602" y="71.5332">App</text><rect fill="#E2E2F0" height="31.6094" rx="2.5" ry="2.5" style="stroke:#181818;stroke-width:0.5;" width="39" x="595" y="571.8828"/><text fill="#000000" font-family="sans-serif" font-size="14" lengthAdjust="spacing" textLength="25" x="602" y="593.416">App</text><rect fill="#E2E2F0" height="31.6094" rx="2.5" ry="2.5" style="stroke:#181818;stroke-width:0.5;" width="74" x="742.5" y="50"/><text fill="#000000" font-family="sans-serif" font-size="14" lengthAdjust="spacing" textLength="60" x="749.5" y="71.5332">Company</text><rect fill="#E2E2F0" height="31.6094" rx="2.5" ry="2.5" style="stroke:#181818;stroke-width:0.5;" width="74" x="742.5" y="571.8828"/><text fill="#000000" font-family="sans-serif" font-size="14" lengthAdjust="spacing" textLength="60" x="749.5" y="593.416">Company</text><rect fill="#E2E2F0" height="31.6094" rx="2.5" ry="2.5" style="stroke:#181818;stroke-width:0.5;" width="91" x="851" y="50"/><text fill="#000000" font-family="sans-serif" font-size="14" lengthAdjust="spacing" textLength="77" x="858" y="71.5332">SNSUserSto</text><rect fill="#E2E2F0" height="31.6094" rx="2.5" ry="2.5" style="stroke:#181818;stroke-width:0.5;" width="91" x="851" y="571.8828"/><text fill="#000000" font-family="sans-serif" font-size="14" lengthAdjust="spacing" textLength="77" x="858" y="593.416">SNSUserSto</text><rect fill="#E2E2F0" height="31.6094" rx="2.5" ry="2.5" style="stroke:#181818;stroke-width:0.5;" width="70" x="986.5" y="50"/><text fill="#000000" font-family="sans-serif" font-size="14" lengthAdjust="spacing" textLength="56" x="993.5" y="71.5332">SNSUser</text><rect fill="#E2E2F0" height="31.6094" rx="2.5" ry="2.5" style="stroke:#181818;stroke-width:0.5;" width="70" x="986.5" y="571.8828"/><text fill="#000000" font-family="sans-serif" font-size="14" lengthAdjust="spacing" textLength="56" x="993.5" y="593.416">SNSUser</text><rect fill="#FFFFFF" height="471.2734" style="stroke:#181818;stroke-width:1.0;" width="10" x="44.5" y="92.6094"/><rect fill="#FFFFFF" height="136.4063" style="stroke:#181818;stroke-width:1.0;" width="10" x="891.5" y="357.7734"/><polygon fill="#181818" points="236.5,110.9609,246.5,114.9609,236.5,118.9609,240.5,114.9609" style="stroke:#181818;stroke-width:1.0;"/><line style="stroke:#181818;stroke-width:1.0;" x1="54.5" x2="242.5" y1="114.9609" y2="114.9609"/><text fill="#000000" font-family="sans-serif" font-size="13" font-weight="bold" lengthAdjust="spacing" textLength="7" x="61.5" y="110.1045">1</text><text fill="#000000" font-family="sans-serif" font-size="13" lengthAdjust="spacing" textLength="136" x="72.5" y="110.1045">asks to upload CSV file</text><polygon fill="#181818" points="437.5,141.3125,447.5,145.3125,437.5,149.3125,441.5,145.3125" style="stroke:#181818;stroke-width:1.0;"/><line style="stroke:#181818;stroke-width:1.0;" x1="248.5" x2="443.5" y1="145.3125" y2="145.3125"/><text fill="#000000" font-family="sans-serif" font-size="13" font-weight="bold" lengthAdjust="spacing" textLength="7" x="255.5" y="140.4561">2</text><text fill="#000000" font-family="sans-serif" font-size="13" lengthAdjust="spacing" textLength="145" x="266.5" y="140.4561">UsersCSVFileController()</text><polygon fill="#181818" points="602.5,171.6641,612.5,175.6641,602.5,179.6641,606.5,175.6641" style="stroke:#181818;stroke-width:1.0;"/><line style="stroke:#181818;stroke-width:1.0;" x1="449.5" x2="608.5" y1="175.6641" y2="175.6641"/><text fill="#000000" font-family="sans-serif" font-size="13" font-weight="bold" lengthAdjust="spacing" textLength="7" x="456.5" y="170.8076">3</text><text fill="#000000" font-family="sans-serif" font-size="13" lengthAdjust="spacing" textLength="130" x="467.5" y="170.8076">getCompanyInstance()</text><polygon fill="#181818" points="767.5,202.0156,777.5,206.0156,767.5,210.0156,771.5,206.0156" style="stroke:#181818;stroke-width:1.0;"/><line style="stroke:#181818;stroke-width:1.0;" x1="614.5" x2="773.5" y1="206.0156" y2="206.0156"/><text fill="#000000" font-family="sans-serif" font-size="13" font-weight="bold" lengthAdjust="spacing" textLength="7" x="621.5" y="201.1592">4</text><text fill="#000000" font-family="sans-serif" font-size="13" lengthAdjust="spacing" textLength="130" x="632.5" y="201.1592">getCompanyInstance()</text><polygon fill="#181818" points="884.5,232.3672,894.5,236.3672,884.5,240.3672,888.5,236.3672" style="stroke:#181818;stroke-width:1.0;"/><line style="stroke:#181818;stroke-width:1.0;" x1="779.5" x2="890.5" y1="236.3672" y2="236.3672"/><text fill="#000000" font-family="sans-serif" font-size="13" font-weight="bold" lengthAdjust="spacing" textLength="7" x="786.5" y="231.5107">5</text><text fill="#000000" font-family="sans-serif" font-size="13" lengthAdjust="spacing" textLength="82" x="797.5" y="231.5107">SNSUserSto()</text><polygon fill="#181818" points="65.5,262.7188,55.5,266.7188,65.5,270.7188,61.5,266.7188" style="stroke:#181818;stroke-width:1.0;"/><line style="stroke:#181818;stroke-width:1.0;stroke-dasharray:2.0,2.0;" x1="59.5" x2="247.5" y1="266.7188" y2="266.7188"/><text fill="#000000" font-family="sans-serif" font-size="13" font-weight="bold" lengthAdjust="spacing" textLength="7" x="71.5" y="261.8623">6</text><text fill="#000000" font-family="sans-serif" font-size="13" lengthAdjust="spacing" textLength="101" x="82.5" y="261.8623">requests CSV file</text><polygon fill="#181818" points="236.5,293.0703,246.5,297.0703,236.5,301.0703,240.5,297.0703" style="stroke:#181818;stroke-width:1.0;"/><line style="stroke:#181818;stroke-width:1.0;" x1="54.5" x2="242.5" y1="297.0703" y2="297.0703"/><text fill="#000000" font-family="sans-serif" font-size="13" font-weight="bold" lengthAdjust="spacing" textLength="7" x="61.5" y="292.2139">7</text><text fill="#000000" font-family="sans-serif" font-size="13" lengthAdjust="spacing" textLength="98" x="72.5" y="292.2139">provides CSV file</text><polygon fill="#181818" points="437.5,323.4219,447.5,327.4219,437.5,331.4219,441.5,327.4219" style="stroke:#181818;stroke-width:1.0;"/><line style="stroke:#181818;stroke-width:1.0;" x1="248.5" x2="443.5" y1="327.4219" y2="327.4219"/><text fill="#000000" font-family="sans-serif" font-size="13" font-weight="bold" lengthAdjust="spacing" textLength="7" x="255.5" y="322.5654">8</text><text fill="#000000" font-family="sans-serif" font-size="13" lengthAdjust="spacing" textLength="87" x="266.5" y="322.5654">saveUsersData</text><polygon fill="#181818" points="879.5,353.7734,889.5,357.7734,879.5,361.7734,883.5,357.7734" style="stroke:#181818;stroke-width:1.0;"/><line style="stroke:#181818;stroke-width:1.0;" x1="449.5" x2="885.5" y1="357.7734" y2="357.7734"/><text fill="#000000" font-family="sans-serif" font-size="13" font-weight="bold" lengthAdjust="spacing" textLength="7" x="456.5" y="352.917">9</text><text fill="#000000" font-family="sans-serif" font-size="13" lengthAdjust="spacing" textLength="149" x="467.5" y="352.917">saveUsersData(String file)</text><path d="M841,372.7734 L914,372.7734 L914,381.125 L904,391.125 L841,391.125 L841,372.7734 " fill="#EEEEEE" style="stroke:#000000;stroke-width:1.5;"/><rect fill="none" height="92.0547" style="stroke:#000000;stroke-width:1.5;" width="225.5" x="841" y="372.7734"/><text fill="#000000" font-family="sans-serif" font-size="13" font-weight="bold" lengthAdjust="spacing" textLength="28" x="856" y="387.2686">loop</text><polygon fill="#181818" points="1009.5,409.4766,1019.5,413.4766,1009.5,417.4766,1013.5,413.4766" style="stroke:#181818;stroke-width:1.0;"/><line style="stroke:#181818;stroke-width:1.0;" x1="901.5" x2="1015.5" y1="413.4766" y2="413.4766"/><text fill="#000000" font-family="sans-serif" font-size="13" font-weight="bold" lengthAdjust="spacing" textLength="14" x="908.5" y="408.6201">10</text><text fill="#000000" font-family="sans-serif" font-size="13" lengthAdjust="spacing" textLength="62" x="926.5" y="408.6201">SNSUser()</text><line style="stroke:#181818;stroke-width:1.0;" x1="901.5" x2="943.5" y1="443.8281" y2="443.8281"/><line style="stroke:#181818;stroke-width:1.0;" x1="943.5" x2="943.5" y1="443.8281" y2="456.8281"/><line style="stroke:#181818;stroke-width:1.0;" x1="902.5" x2="943.5" y1="456.8281" y2="456.8281"/><polygon fill="#181818" points="912.5,452.8281,902.5,456.8281,912.5,460.8281,908.5,456.8281" style="stroke:#181818;stroke-width:1.0;"/><text fill="#000000" font-family="sans-serif" font-size="13" font-weight="bold" lengthAdjust="spacing" textLength="14" x="908.5" y="438.9717">11</text><text fill="#000000" font-family="sans-serif" font-size="13" lengthAdjust="spacing" textLength="83" x="926.5" y="438.9717">addSNSUser()</text><polygon fill="#181818" points="460.5,490.1797,450.5,494.1797,460.5,498.1797,456.5,494.1797" style="stroke:#181818;stroke-width:1.0;"/><line style="stroke:#181818;stroke-width:1.0;" x1="454.5" x2="895.5" y1="494.1797" y2="494.1797"/><text fill="#000000" font-family="sans-serif" font-size="13" font-weight="bold" lengthAdjust="spacing" textLength="14" x="466.5" y="489.3232">12</text><text fill="#000000" font-family="sans-serif" font-size="13" lengthAdjust="spacing" textLength="159" x="484.5" y="489.3232">confirms operation success</text><polygon fill="#181818" points="259.5,520.5313,249.5,524.5313,259.5,528.5313,255.5,524.5313" style="stroke:#181818;stroke-width:1.0;"/><line style="stroke:#181818;stroke-width:1.0;" x1="253.5" x2="448.5" y1="524.5313" y2="524.5313"/><text fill="#000000" font-family="sans-serif" font-size="13" font-weight="bold" lengthAdjust="spacing" textLength="14" x="265.5" y="519.6748">13</text><text fill="#000000" font-family="sans-serif" font-size="13" lengthAdjust="spacing" textLength="159" x="283.5" y="519.6748">confirms operation success</text><polygon fill="#181818" points="65.5,550.8828,55.5,554.8828,65.5,558.8828,61.5,554.8828" style="stroke:#181818;stroke-width:1.0;"/><line style="stroke:#181818;stroke-width:1.0;stroke-dasharray:2.0,2.0;" x1="59.5" x2="247.5" y1="554.8828" y2="554.8828"/><text fill="#000000" font-family="sans-serif" font-size="13" font-weight="bold" lengthAdjust="spacing" textLength="14" x="71.5" y="550.0264">14</text><text fill="#000000" font-family="sans-serif" font-size="13" lengthAdjust="spacing" textLength="152" x="89.5" y="550.0264">informs operation success</text><!--MD5=[dd5ffb3fc978b39c3bf3d6f88f030015]
@startuml
'https://plantuml.com/sequence-diagram

autonumber

actor Administrator as Administrator
activate Administrator

Administrator -> UsersCSVFileUI : asks to upload CSV file
UsersCSVFileUI -> UsersCSVFileController : UsersCSVFileController()
UsersCSVFileController -> App : getCompanyInstance()
App -> Company : getCompanyInstance()
Company -> SNSUserSto : SNSUserSto()
UsersCSVFileUI - -> Administrator : requests CSV file
Administrator -> UsersCSVFileUI : provides CSV file
UsersCSVFileUI -> UsersCSVFileController : saveUsersData
UsersCSVFileController -> SNSUserSto : saveUsersData(String file)
activate SNSUserSto
loop
SNSUserSto -> SNSUser : SNSUser()
SNSUserSto -> SNSUserSto : addSNSUser()
end loop
SNSUserSto -> UsersCSVFileController : confirms operation success
deactivate
UsersCSVFileController -> UsersCSVFileUI : confirms operation success
UsersCSVFileUI - -> Administrator : informs operation success
@enduml

@startuml

autonumber

actor Administrator as Administrator
activate Administrator

Administrator -> UsersCSVFileUI : asks to upload CSV file
UsersCSVFileUI -> UsersCSVFileController : UsersCSVFileController()
UsersCSVFileController -> App : getCompanyInstance()
App -> Company : getCompanyInstance()
Company -> SNSUserSto : SNSUserSto()
UsersCSVFileUI - -> Administrator : requests CSV file
Administrator -> UsersCSVFileUI : provides CSV file
UsersCSVFileUI -> UsersCSVFileController : saveUsersData
UsersCSVFileController -> SNSUserSto : saveUsersData(String file)
activate SNSUserSto
loop
SNSUserSto -> SNSUser : SNSUser()
SNSUserSto -> SNSUserSto : addSNSUser()
end loop
SNSUserSto -> UsersCSVFileController : confirms operation success
deactivate
UsersCSVFileController -> UsersCSVFileUI : confirms operation success
UsersCSVFileUI - -> Administrator : informs operation success
@enduml

PlantUML version 1.2022.5(Sat Apr 30 11:55:52 BST 2022)
(GPL source distribution)
Java Runtime: OpenJDK Runtime Environment
JVM: OpenJDK 64-Bit Server VM
Default Encoding: Cp1252
Language: pt
Country: PT
--></g></svg>