@startuml
'https://plantuml.com/sequence-diagram

autonumber

actor Administrator as Administrator
activate Administrator

Administrator -> UsersCSVFileUI : asks to upload CSV file
UsersCSVFileUI -> UsersCSVFileController : UsersCSVFileController()
UsersCSVFileController -> App : getCompanyInstance()
App -> Company : getCompanyInstance()
Company -> SNSUserSto : SNSUserSto()
UsersCSVFileUI --> Administrator : requests CSV file
Administrator -> UsersCSVFileUI : provides CSV file
UsersCSVFileUI -> UsersCSVFileController : saveUsersData
UsersCSVFileController -> SNSUserSto : saveUsersData(String file)
activate SNSUserSto
loop
SNSUserSto -> SNSUser : SNSUser()
SNSUserSto -> SNSUserSto : addSNSUser()
end loop
SNSUserSto -> UsersCSVFileController : confirms operation success
deactivate
UsersCSVFileController -> UsersCSVFileUI : confirms operation success
UsersCSVFileUI --> Administrator : informs operation success
@enduml