<?xml version="1.0" encoding="UTF-8" standalone="no"?><svg xmlns="http://www.w3.org/2000/svg" xmlns:xlink="http://www.w3.org/1999/xlink" contentScriptType="application/ecmascript" contentStyleType="text/css" height="1336px" preserveAspectRatio="none" style="width:605px;height:1336px;background:#FFFFFF;" version="1.1" viewBox="0 0 605 1336" width="605px" zoomAndPan="magnify"><defs><filter height="300%" id="fxj83sv4ak98x" width="300%" x="-1" y="-1"><feGaussianBlur result="blurOut" stdDeviation="2.0"/><feColorMatrix in="blurOut" result="blurOut2" type="matrix" values="0 0 0 0 0 0 0 0 0 0 0 0 0 0 0 0 0 0 .4 0"/><feOffset dx="4.0" dy="4.0" in="blurOut2" result="blurOut3"/><feBlend in="SourceGraphic" in2="blurOut3" mode="normal"/></filter></defs><g><!--MD5=[79a439086b036a57b90a01d7b2f8bbd1]
entity admin--><ellipse cx="46" cy="1104" fill="#FEFECE" filter="url(#fxj83sv4ak98x)" rx="8" ry="8" style="stroke:#A80036;stroke-width:1.5;"/><path d="M46,1112 L46,1139 M33,1120 L59,1120 M46,1139 L33,1154 M46,1139 L59,1154 " fill="none" filter="url(#fxj83sv4ak98x)" style="stroke:#A80036;stroke-width:1.5;"/><text fill="#000000" font-family="sans-serif" font-size="14" lengthAdjust="spacing" textLength="80" x="6" y="1174.0332">Admnistrator</text><!--MD5=[81706498707a5d8e052123cee1fc602f]
entity rep--><ellipse cx="46" cy="516" fill="#FEFECE" filter="url(#fxj83sv4ak98x)" rx="8" ry="8" style="stroke:#A80036;stroke-width:1.5;"/><path d="M46,524 L46,551 M33,532 L59,532 M46,551 L33,566 M46,551 L59,566 " fill="none" filter="url(#fxj83sv4ak98x)" style="stroke:#A80036;stroke-width:1.5;"/><text fill="#000000" font-family="sans-serif" font-size="14" lengthAdjust="spacing" textLength="78" x="7" y="586.0332">Receptionist</text><!--MD5=[a689013d56a37b9788ae321b0c74afed]
entity nur--><ellipse cx="46" cy="687" fill="#FEFECE" filter="url(#fxj83sv4ak98x)" rx="8" ry="8" style="stroke:#A80036;stroke-width:1.5;"/><path d="M46,695 L46,722 M33,703 L59,703 M46,722 L33,737 M46,722 L59,737 " fill="none" filter="url(#fxj83sv4ak98x)" style="stroke:#A80036;stroke-width:1.5;"/><text fill="#000000" font-family="sans-serif" font-size="14" lengthAdjust="spacing" textLength="37" x="27.5" y="757.0332">Nurse</text><!--MD5=[f532526e249e2afdfba79ae5d415ddf5]
entity sns--><ellipse cx="46" cy="224" fill="#FEFECE" filter="url(#fxj83sv4ak98x)" rx="8" ry="8" style="stroke:#A80036;stroke-width:1.5;"/><path d="M46,232 L46,259 M33,240 L59,240 M46,259 L33,274 M46,259 L59,274 " fill="none" filter="url(#fxj83sv4ak98x)" style="stroke:#A80036;stroke-width:1.5;"/><text fill="#000000" font-family="sans-serif" font-size="14" lengthAdjust="spacing" textLength="55" x="18.5" y="294.0332">SNSuser</text><!--MD5=[9bb3474166c43903a63f0da106ea4f78]
entity coor--><ellipse cx="46" cy="14" fill="#FEFECE" filter="url(#fxj83sv4ak98x)" rx="8" ry="8" style="stroke:#A80036;stroke-width:1.5;"/><path d="M46,22 L46,49 M33,30 L59,30 M46,49 L33,64 M46,49 L59,64 " fill="none" filter="url(#fxj83sv4ak98x)" style="stroke:#A80036;stroke-width:1.5;"/><text fill="#000000" font-family="sans-serif" font-size="14" lengthAdjust="spacing" textLength="80" x="6" y="84.0332">Coordenator</text><ellipse cx="370.0408" cy="126.2082" fill="#FEFECE" filter="url(#fxj83sv4ak98x)" rx="86.5408" ry="19.7082" style="stroke:#A80036;stroke-width:1.5;"/><text fill="#000000" font-family="sans-serif" font-size="14" lengthAdjust="spacing" textLength="130" x="305.0408" y="129.9367">To schedule vaccine</text><ellipse cx="370.1359" cy="206.1272" fill="#FEFECE" filter="url(#fxj83sv4ak98x)" rx="113.6359" ry="25.1272" style="stroke:#A80036;stroke-width:1.5;"/><text fill="#000000" font-family="sans-serif" font-size="14" lengthAdjust="spacing" textLength="191" x="274.6359" y="209.8557">Receive vaccination certificate</text><ellipse cx="370.0602" cy="304.912" fill="#FEFECE" filter="url(#fxj83sv4ak98x)" rx="180.0602" ry="38.412" style="stroke:#A80036;stroke-width:1.5;"/><text fill="#000000" font-family="sans-serif" font-size="14" lengthAdjust="spacing" textLength="331" x="204.5602" y="308.6406">Allow DGS to send a message with vaccine schedule</text><ellipse cx="370.122" cy="409.9244" fill="#FEFECE" filter="url(#fxj83sv4ak98x)" rx="142.622" ry="30.9244" style="stroke:#A80036;stroke-width:1.5;"/><text fill="#000000" font-family="sans-serif" font-size="14" lengthAdjust="spacing" textLength="253" x="243.622" y="413.6529">Schedule vaccine at vaccination centers</text><ellipse cx="369.934" cy="674.9868" fill="#FEFECE" filter="url(#fxj83sv4ak98x)" rx="110.434" ry="24.4868" style="stroke:#A80036;stroke-width:1.5;"/><text fill="#000000" font-family="sans-serif" font-size="14" lengthAdjust="spacing" textLength="184" x="277.934" y="678.7153">Deliver vaccination certificate</text><ellipse cx="370.0226" cy="590.8045" fill="#FEFECE" filter="url(#fxj83sv4ak98x)" rx="109.5226" ry="24.3045" style="stroke:#A80036;stroke-width:1.5;"/><text fill="#000000" font-family="sans-serif" font-size="14" lengthAdjust="spacing" textLength="182" x="279.0226" y="594.533">Work on vaccination process</text><ellipse cx="370.1398" cy="962.928" fill="#FEFECE" filter="url(#fxj83sv4ak98x)" rx="177.6398" ry="37.928" style="stroke:#A80036;stroke-width:1.5;"/><text fill="#000000" font-family="sans-serif" font-size="14" lengthAdjust="spacing" textLength="326" x="207.1398" y="966.6565">Set the information needed to the use of application</text><ellipse cx="370.205" cy="503.941" fill="#FEFECE" filter="url(#fxj83sv4ak98x)" rx="125.205" ry="27.441" style="stroke:#A80036;stroke-width:1.5;"/><text fill="#000000" font-family="sans-serif" font-size="14" lengthAdjust="spacing" textLength="216" x="262.205" y="507.6695">Ask SNS user for him SNS number</text><ellipse cx="369.8821" cy="762.8764" fill="#FEFECE" filter="url(#fxj83sv4ak98x)" rx="129.8821" ry="28.3764" style="stroke:#A80036;stroke-width:1.5;"/><text fill="#000000" font-family="sans-serif" font-size="14" lengthAdjust="spacing" textLength="226" x="256.8821" y="766.6049">Verify if SNS user is in health center</text><ellipse cx="369.9235" cy="858.1847" fill="#FEFECE" filter="url(#fxj83sv4ak98x)" rx="146.4235" ry="31.6847" style="stroke:#A80036;stroke-width:1.5;"/><text fill="#000000" font-family="sans-serif" font-size="14" lengthAdjust="spacing" textLength="261" x="239.4235" y="861.9132">Register adverse reactions of a SNS user</text><ellipse cx="369.9306" cy="1083.1861" fill="#FEFECE" filter="url(#fxj83sv4ak98x)" rx="223.9306" ry="47.1861" style="stroke:#A80036;stroke-width:1.5;"/><text fill="#000000" font-family="sans-serif" font-size="14" lengthAdjust="spacing" textLength="421" x="159.4306" y="1086.9146">Use the application to register SNS users, nurses and receptionists</text><ellipse cx="369.847" cy="1190.1694" fill="#FEFECE" filter="url(#fxj83sv4ak98x)" rx="111.347" ry="24.6694" style="stroke:#A80036;stroke-width:1.5;"/><text fill="#000000" font-family="sans-serif" font-size="14" lengthAdjust="spacing" textLength="186" x="276.847" y="1193.8979">Specify a new type of vaccine</text><ellipse cx="370.2384" cy="1286.8477" fill="#FEFECE" filter="url(#fxj83sv4ak98x)" rx="174.7384" ry="37.3477" style="stroke:#A80036;stroke-width:1.5;"/><text fill="#000000" font-family="sans-serif" font-size="14" lengthAdjust="spacing" textLength="320" x="210.2384" y="1290.5762">Register a new vaccine and administration process</text><ellipse cx="370.0137" cy="45.9027" fill="#FEFECE" filter="url(#fxj83sv4ak98x)" rx="115.0137" ry="25.4027" style="stroke:#A80036;stroke-width:1.5;"/><text fill="#000000" font-family="sans-serif" font-size="14" lengthAdjust="spacing" textLength="194" x="273.0137" y="49.6313">Controling vaccination process</text><!--MD5=[3f5bf735a40a8fdc82134d9e38908040]
link sns to UC1--><path d="M73.72,222.31 C91.88,201.83 117.68,177.01 146,163 C186.99,142.73 236.86,133.25 279.04,128.93 " fill="none" id="sns-to-UC1" style="stroke:#A80036;stroke-width:1.0;"/><polygon fill="#A80036" points="284.14,128.43,274.7849,125.3507,279.1651,128.9303,275.5855,133.3106,284.14,128.43" style="stroke:#A80036;stroke-width:1.0;"/><!--MD5=[d208da8987ff803596adbdd39d2eaa4a]
link sns to UC2--><path d="M73.62,251.87 C116.51,245.21 202.97,231.78 271.33,221.17 " fill="none" id="sns-to-UC2" style="stroke:#A80036;stroke-width:1.0;"/><polygon fill="#A80036" points="276.63,220.34,267.1208,217.7757,271.6898,221.111,268.3545,225.68,276.63,220.34" style="stroke:#A80036;stroke-width:1.0;"/><!--MD5=[b833e32521e639460a47dd77d9c7647e]
link nur to UC5--><path d="M64.77,716.57 C103.27,711.31 196.8,698.53 270.08,688.52 " fill="none" id="nur-to-UC5" style="stroke:#A80036;stroke-width:1.0;"/><polygon fill="#A80036" points="275.32,687.8,265.8646,685.0442,270.3652,688.4711,266.9383,692.9718,275.32,687.8" style="stroke:#A80036;stroke-width:1.0;"/><!--MD5=[e86a5cd79144e3c549cc4b4e59c5cf8d]
link nur to UC6--><path d="M64.83,698.11 C83.12,678.12 113.42,648.77 146,633 C181.47,615.84 223.25,605.67 261.01,599.66 " fill="none" id="nur-to-UC6" style="stroke:#A80036;stroke-width:1.0;"/><polygon fill="#A80036" points="266.07,598.88,256.5681,596.2888,261.1276,599.6371,257.7794,604.1966,266.07,598.88" style="stroke:#A80036;stroke-width:1.0;"/><!--MD5=[10bad8a481463632ffb533c18ab04b0d]
link rep to UC6--><path d="M85.2,553.1 C130.49,559.15 207.7,569.46 270.16,577.8 " fill="none" id="rep-to-UC6" style="stroke:#A80036;stroke-width:1.0;"/><polygon fill="#A80036" points="275.39,578.5,267.0083,573.3282,270.4352,577.8289,265.9346,581.2558,275.39,578.5" style="stroke:#A80036;stroke-width:1.0;"/><!--MD5=[344886c417e37e43416c4c9c8d9962d3]
link admin to UC7--><path d="M72.4,1094.46 C90.03,1069.03 115.74,1037.86 146,1019 C168.56,1004.94 194.48,994.4 220.48,986.51 " fill="none" id="admin-to-UC7" style="stroke:#A80036;stroke-width:1.0;"/><polygon fill="#A80036" points="225.34,985.07,215.5719,983.8114,220.5489,986.5002,217.8602,991.4772,225.34,985.07" style="stroke:#A80036;stroke-width:1.0;"/><!--MD5=[3deb7043472bb1398c11b3b0bc610005]
link sns to UC4--><path d="M73.52,294.05 C91.42,316.87 117.01,344.57 146,361 C173.91,376.81 206.45,387.53 237.92,394.78 " fill="none" id="sns-to-UC4" style="stroke:#A80036;stroke-width:1.0;"/><polygon fill="#A80036" points="242.96,395.92,235.0584,390.0409,238.0821,394.8218,233.3012,397.8455,242.96,395.92" style="stroke:#A80036;stroke-width:1.0;"/><!--MD5=[e2ce66c8d12ac80689d2744d239bee45]
link sns to UC3--><path d="M73.62,260.05 C105.8,264.95 162.52,273.58 217.72,281.98 " fill="none" id="sns-to-UC3" style="stroke:#A80036;stroke-width:1.0;"/><polygon fill="#A80036" points="222.71,282.74,214.4194,277.4234,217.7676,281.9829,213.2081,285.3312,222.71,282.74" style="stroke:#A80036;stroke-width:1.0;"/><!--MD5=[8c234eeb4376e3e0248f9671f9f0dd7b]
link rep to UC8--><path d="M85.2,542.78 C127.66,536.98 198.15,527.35 258.26,519.13 " fill="none" id="rep-to-UC8" style="stroke:#A80036;stroke-width:1.0;"/><polygon fill="#A80036" points="263.31,518.44,253.8535,515.6878,258.3555,519.113,254.9303,523.615,263.31,518.44" style="stroke:#A80036;stroke-width:1.0;"/><!--MD5=[152deb6a5e9c06306678f912384e5692]
link nur to UC9--><path d="M64.77,721.43 C100.5,726.31 183.64,737.67 253.99,747.28 " fill="none" id="nur-to-UC9" style="stroke:#A80036;stroke-width:1.0;"/><polygon fill="#A80036" points="259.03,747.97,250.6483,742.7982,254.0752,747.2989,249.5746,750.7258,259.03,747.97" style="stroke:#A80036;stroke-width:1.0;"/><!--MD5=[2a4a5a79c876b85cbaa06c0d5d704ed0]
link nur to UC10--><path d="M64.74,740.67 C82.95,761.43 113.19,792.04 146,809 C174.24,823.6 206.68,833.86 237.91,841.07 " fill="none" id="nur-to-UC10" style="stroke:#A80036;stroke-width:1.0;"/><polygon fill="#A80036" points="242.91,842.2,235.0121,836.3159,238.0328,841.0987,233.25,844.1194,242.91,842.2" style="stroke:#A80036;stroke-width:1.0;"/><!--MD5=[82f64621edba5c3b20c09d5802f5d0cb]
link admin to UC11--><path d="M86.16,1129.55 C112.55,1125.21 149.45,1119.14 187.9,1112.81 " fill="none" id="admin-to-UC11" style="stroke:#A80036;stroke-width:1.0;"/><polygon fill="#A80036" points="193.09,1111.95,183.5583,1109.4706,188.1569,1112.765,184.8624,1117.3636,193.09,1111.95" style="stroke:#A80036;stroke-width:1.0;"/><!--MD5=[d7de013467b5cb2c3186533ed2392f3a]
link admin to UC12--><path d="M86.16,1142.57 C132.87,1150.4 212.52,1163.76 275.41,1174.31 " fill="none" id="admin-to-UC12" style="stroke:#A80036;stroke-width:1.0;"/><polygon fill="#A80036" points="280.68,1175.19,272.4677,1169.7533,275.7492,1174.3611,271.1414,1177.6425,280.68,1175.19" style="stroke:#A80036;stroke-width:1.0;"/><!--MD5=[3b84ea810314b2514d885a4aa2be8b4c]
link admin to UC13--><path d="M80.75,1177.68 C98.32,1196.84 121.29,1218.31 146,1232 C170.13,1245.37 197.51,1255.53 224.62,1263.24 " fill="none" id="admin-to-UC13" style="stroke:#A80036;stroke-width:1.0;"/><polygon fill="#A80036" points="229.68,1264.65,222.0856,1258.379,224.8638,1263.3066,219.9362,1266.0848,229.68,1264.65" style="stroke:#A80036;stroke-width:1.0;"/><!--MD5=[de940453cc035ccd7e0a8a4843e905f2]
link coor to UC14--><path d="M86.16,46 C126.67,46 191.97,46 249.62,46 " fill="none" id="coor-to-UC14" style="stroke:#A80036;stroke-width:1.0;"/><polygon fill="#A80036" points="254.82,46,245.82,42,249.82,46,245.82,50,254.82,46" style="stroke:#A80036;stroke-width:1.0;"/><!--MD5=[9225280d15ae23bd9c85af8fa9f36ed2]
@startuml
left to right direction
actor Admnistrator as admin
actor Receptionist as rep
actor Nurse as nur
actor SNSuser as sns
actor Coordenator as coor

usecase "To schedule vaccine" as UC1
usecase "Receive vaccination certificate" as UC2
usecase "Allow DGS to send a message with vaccine schedule" as UC3
usecase "Schedule vaccine at vaccination centers" as UC4
usecase "Deliver vaccination certificate" as UC5
usecase "Work on vaccination process" as UC6
usecase "Set the information needed to the use of application" as UC7
usecase "Ask SNS user for him SNS number" as UC8
usecase "Verify if SNS user is in health center" as UC9
usecase "Register adverse reactions of a SNS user" as UC10
usecase "Use the application to register SNS users, nurses and receptionists" as UC11
usecase "Specify a new type of vaccine" as UC12
usecase "Register a new vaccine and administration process" as UC13
usecase "Controling vaccination process" as UC14

sns - -> UC1
sns - -> UC2
nur - -> UC5
nur - -> UC6
rep - -> UC6
admin - -> UC7
sns - -> UC4
sns - -> UC3
rep - -> UC8
nur - -> UC9
nur - -> UC10
admin - -> UC11
admin - -> UC12
admin - -> UC13
coor - -> UC14

@enduml

PlantUML version 1.2022.1(Tue Feb 01 18:19:58 GMT 2022)
(GPL source distribution)
Java Runtime: OpenJDK Runtime Environment
JVM: OpenJDK 64-Bit Server VM
Default Encoding: Cp1252
Language: pt
Country: PT
--></g></svg>